%!PS-Adobe-3.0
%%Creator: PCBNEW
%%CreationDate: Thu Jul 25 15:40:00 2019
%%Title: /home/guiaum/SeafileYuno/Fablab/PCB_Pizero/pcb_pizero_scan2dxf/meta/fab/pcb_pizero_scan2dxf-NPTH-drl_map.ps
%%Pages: 1
%%PageOrder: Ascend
%%BoundingBox: 0 0 596 842
%%DocumentMedia: A4 595 842 0 () ()
%%Orientation: Landscape
%%EndComments
%%BeginProlog
/line { newpath moveto lineto stroke } bind def
/cir0 { newpath 0 360 arc stroke } bind def
/cir1 { newpath 0 360 arc gsave fill grestore stroke } bind def
/cir2 { newpath 0 360 arc gsave fill grestore stroke } bind def
/arc0 { newpath arc stroke } bind def
/arc1 { newpath 4 index 4 index moveto arc closepath gsave fill
    grestore stroke } bind def
/arc2 { newpath 4 index 4 index moveto arc closepath gsave fill
    grestore stroke } bind def
/poly0 { stroke } bind def
/poly1 { closepath gsave fill grestore stroke } bind def
/poly2 { closepath gsave fill grestore stroke } bind def
/rect0 { rectstroke } bind def
/rect1 { rectfill } bind def
/rect2 { rectfill } bind def
/linemode0 { 0 setlinecap 0 setlinejoin 0 setlinewidth } bind def
/linemode1 { 1 setlinecap 1 setlinejoin } bind def
/dashedline { [200] 100 setdash } bind def
/solidline { [] 0 setdash } bind def
/phantomshow { moveto
    /KicadFont findfont 0.000001 scalefont setfont
    show } bind def
/textshow { gsave
    findfont exch scalefont setfont concat 1 scale 0 0 moveto show
    } bind def
/reencodefont {
  findfont dup length dict begin
  { 1 index /FID ne
    { def }
    { pop pop } ifelse
  } forall
  /Encoding ISOLatin1Encoding def
  currentdict
  end } bind def
/KicadFont /Helvetica reencodefont definefont pop
/KicadFont-Bold /Helvetica-Bold reencodefont definefont pop
/KicadFont-Oblique /Helvetica-Oblique reencodefont definefont pop
/KicadFont-BoldOblique /Helvetica-BoldOblique reencodefont definefont pop
%%EndProlog
%%Page: 1 1
%%BeginPageSetup
gsave
0.0072 0.0072 scale
linemode1
82680 0 translate 90 rotate
150 setlinewidth
%%EndPageSetup
0 0 0 setrgbcolor
118.11 setlinewidth
newpath
96850.8 72639.8 moveto
96850.8 43702.8 lineto
stroke
0 0 0 setrgbcolor
23622.5 72049.2 3543.31 90 180 arc0
0 0 0 setrgbcolor
newpath
23622.5 75592.5 moveto
93307.5 75592.5 lineto
stroke
0 0 0 setrgbcolor
93307.5 72049.2 3543.31 -0 90 arc0
0 0 0 setrgbcolor
93307.5 43702.8 3543.31 -90 -0 arc0
0 0 0 setrgbcolor
23622.5 43702.8 3543.31 -180 -90 arc0
0 0 0 setrgbcolor
newpath
20079.2 72639.8 moveto
20079.2 43702.8 lineto
stroke
0 0 0 setrgbcolor
newpath
23622.5 40159.5 moveto
93307.5 40159.5 lineto
stroke
78.7394 setlinewidth
newpath
91093 45917.3 moveto
94341 42669.3 lineto
stroke
newpath
94341 45917.3 moveto
91093 42669.3 lineto
stroke
newpath
91093 73082.7 moveto
94341 69834.7 lineto
stroke
newpath
94341 73082.7 moveto
91093 69834.7 lineto
stroke
newpath
22589 73082.7 moveto
25837 69834.7 lineto
stroke
newpath
25837 73082.7 moveto
22589 69834.7 lineto
stroke
newpath
22589 45917.3 moveto
25837 42669.3 lineto
stroke
newpath
25837 45917.3 moveto
22589 42669.3 lineto
stroke
118.11 setlinewidth
0 0 0 setrgbcolor
0 0 0 setrgbcolor
newpath
21147.8 38266.9 moveto
21147.8 39448 lineto
21429 39448 lineto
21597.7 39391.7 lineto
21710.2 39279.3 lineto
21766.5 39166.8 lineto
21822.7 38941.8 lineto
21822.7 38773.1 lineto
21766.5 38548.1 lineto
21710.2 38435.6 lineto
21597.7 38323.1 lineto
21429 38266.9 lineto
21147.8 38266.9 lineto
stroke
newpath
22328.9 38266.9 moveto
22328.9 39054.3 lineto
stroke
newpath
22328.9 38829.3 moveto
22385.1 38941.8 lineto
22441.4 38998 lineto
22553.9 39054.3 lineto
22666.3 39054.3 lineto
stroke
newpath
23060 38266.9 moveto
23060 39054.3 lineto
stroke
newpath
23060 39448 moveto
23003.8 39391.7 lineto
23060 39335.5 lineto
23116.3 39391.7 lineto
23060 39448 lineto
23060 39335.5 lineto
stroke
newpath
23791.2 38266.9 moveto
23678.7 38323.1 lineto
23622.5 38435.6 lineto
23622.5 39448 lineto
stroke
newpath
24409.9 38266.9 moveto
24297.4 38323.1 lineto
24241.2 38435.6 lineto
24241.2 39448 lineto
stroke
newpath
25759.7 38266.9 moveto
25759.7 39448 lineto
26153.4 38604.3 lineto
26547.1 39448 lineto
26547.1 38266.9 lineto
stroke
newpath
27615.7 38266.9 moveto
27615.7 38885.6 lineto
27559.5 38998 lineto
27447 39054.3 lineto
27222 39054.3 lineto
27109.5 38998 lineto
stroke
newpath
27615.7 38323.1 moveto
27503.2 38266.9 lineto
27222 38266.9 lineto
27109.5 38323.1 lineto
27053.3 38435.6 lineto
27053.3 38548.1 lineto
27109.5 38660.6 lineto
27222 38716.8 lineto
27503.2 38716.8 lineto
27615.7 38773.1 lineto
stroke
newpath
28178.2 39054.3 moveto
28178.2 37873.2 lineto
stroke
newpath
28178.2 38998 moveto
28290.6 39054.3 lineto
28515.6 39054.3 lineto
28628.1 38998 lineto
28684.3 38941.8 lineto
28740.6 38829.3 lineto
28740.6 38491.9 lineto
28684.3 38379.4 lineto
28628.1 38323.1 lineto
28515.6 38266.9 lineto
28290.6 38266.9 lineto
28178.2 38323.1 lineto
stroke
newpath
29246.8 38379.4 moveto
29303 38323.1 lineto
29246.8 38266.9 lineto
29190.5 38323.1 lineto
29246.8 38379.4 lineto
29246.8 38266.9 lineto
stroke
newpath
29246.8 38998 moveto
29303 38941.8 lineto
29246.8 38885.6 lineto
29190.5 38941.8 lineto
29246.8 38998 lineto
29246.8 38885.6 lineto
stroke
newpath
16772.1 37944.9 moveto
20020.1 34696.9 lineto
stroke
newpath
20020.1 37944.9 moveto
16772.1 34696.9 lineto
stroke
0 0 0 setrgbcolor
0 0 0 setrgbcolor
newpath
21091.5 36855.2 moveto
21147.8 36911.4 lineto
21260.3 36967.7 lineto
21541.5 36967.7 lineto
21654 36911.4 lineto
21710.2 36855.2 lineto
21766.5 36742.7 lineto
21766.5 36630.2 lineto
21710.2 36461.5 lineto
21035.3 35786.6 lineto
21766.5 35786.6 lineto
stroke
newpath
22272.6 35899.1 moveto
22328.9 35842.8 lineto
22272.6 35786.6 lineto
22216.4 35842.8 lineto
22272.6 35899.1 lineto
22272.6 35786.6 lineto
stroke
newpath
22722.6 36967.7 moveto
23510 36967.7 lineto
23003.8 35786.6 lineto
stroke
newpath
24522.4 36967.7 moveto
23959.9 36967.7 lineto
23903.7 36405.2 lineto
23959.9 36461.5 lineto
24072.4 36517.7 lineto
24353.6 36517.7 lineto
24466.1 36461.5 lineto
24522.4 36405.2 lineto
24578.6 36292.8 lineto
24578.6 36011.5 lineto
24522.4 35899.1 lineto
24466.1 35842.8 lineto
24353.6 35786.6 lineto
24072.4 35786.6 lineto
23959.9 35842.8 lineto
23903.7 35899.1 lineto
stroke
newpath
25084.8 35786.6 moveto
25084.8 36574 lineto
stroke
newpath
25084.8 36461.5 moveto
25141 36517.7 lineto
25253.5 36574 lineto
25422.3 36574 lineto
25534.7 36517.7 lineto
25591 36405.2 lineto
25591 35786.6 lineto
stroke
newpath
25591 36405.2 moveto
25647.2 36517.7 lineto
25759.7 36574 lineto
25928.4 36574 lineto
26040.9 36517.7 lineto
26097.2 36405.2 lineto
26097.2 35786.6 lineto
stroke
newpath
26659.6 35786.6 moveto
26659.6 36574 lineto
stroke
newpath
26659.6 36461.5 moveto
26715.8 36517.7 lineto
26828.3 36574 lineto
26997.1 36574 lineto
27109.5 36517.7 lineto
27165.8 36405.2 lineto
27165.8 35786.6 lineto
stroke
newpath
27165.8 36405.2 moveto
27222 36517.7 lineto
27334.5 36574 lineto
27503.2 36574 lineto
27615.7 36517.7 lineto
27672 36405.2 lineto
27672 35786.6 lineto
stroke
newpath
29977.9 37023.9 moveto
28965.6 35505.4 lineto
stroke
newpath
31496.5 36967.7 moveto
31609 36967.7 lineto
31721.5 36911.4 lineto
31777.7 36855.2 lineto
31834 36742.7 lineto
31890.2 36517.7 lineto
31890.2 36236.5 lineto
31834 36011.5 lineto
31777.7 35899.1 lineto
31721.5 35842.8 lineto
31609 35786.6 lineto
31496.5 35786.6 lineto
31384 35842.8 lineto
31327.8 35899.1 lineto
31271.5 36011.5 lineto
31215.3 36236.5 lineto
31215.3 36517.7 lineto
31271.5 36742.7 lineto
31327.8 36855.2 lineto
31384 36911.4 lineto
31496.5 36967.7 lineto
stroke
newpath
32396.4 35899.1 moveto
32452.6 35842.8 lineto
32396.4 35786.6 lineto
32340.1 35842.8 lineto
32396.4 35899.1 lineto
32396.4 35786.6 lineto
stroke
newpath
33577.5 35786.6 moveto
32902.6 35786.6 lineto
stroke
newpath
33240 35786.6 moveto
33240 36967.7 lineto
33127.5 36798.9 lineto
33015.1 36686.5 lineto
32902.6 36630.2 lineto
stroke
newpath
34308.6 36967.7 moveto
34421.1 36967.7 lineto
34533.6 36911.4 lineto
34589.9 36855.2 lineto
34646.1 36742.7 lineto
34702.3 36517.7 lineto
34702.3 36236.5 lineto
34646.1 36011.5 lineto
34589.9 35899.1 lineto
34533.6 35842.8 lineto
34421.1 35786.6 lineto
34308.6 35786.6 lineto
34196.2 35842.8 lineto
34139.9 35899.1 lineto
34083.7 36011.5 lineto
34027.4 36236.5 lineto
34027.4 36517.7 lineto
34083.7 36742.7 lineto
34139.9 36855.2 lineto
34196.2 36911.4 lineto
34308.6 36967.7 lineto
stroke
newpath
35377.3 36461.5 moveto
35264.8 36517.7 lineto
35208.5 36574 lineto
35152.3 36686.5 lineto
35152.3 36742.7 lineto
35208.5 36855.2 lineto
35264.8 36911.4 lineto
35377.3 36967.7 lineto
35602.2 36967.7 lineto
35714.7 36911.4 lineto
35771 36855.2 lineto
35827.2 36742.7 lineto
35827.2 36686.5 lineto
35771 36574 lineto
35714.7 36517.7 lineto
35602.2 36461.5 lineto
35377.3 36461.5 lineto
35264.8 36405.2 lineto
35208.5 36349 lineto
35152.3 36236.5 lineto
35152.3 36011.5 lineto
35208.5 35899.1 lineto
35264.8 35842.8 lineto
35377.3 35786.6 lineto
35602.2 35786.6 lineto
35714.7 35842.8 lineto
35771 35899.1 lineto
35827.2 36011.5 lineto
35827.2 36236.5 lineto
35771 36349 lineto
35714.7 36405.2 lineto
35602.2 36461.5 lineto
stroke
newpath
36277.1 36967.7 moveto
36277.1 36742.7 lineto
stroke
newpath
36727.1 36967.7 moveto
36727.1 36742.7 lineto
stroke
newpath
38470.6 35336.6 moveto
38414.4 35392.9 lineto
38301.9 35561.6 lineto
38245.7 35674.1 lineto
38189.4 35842.8 lineto
38133.2 36124 lineto
38133.2 36349 lineto
38189.4 36630.2 lineto
38245.7 36798.9 lineto
38301.9 36911.4 lineto
38414.4 37080.2 lineto
38470.6 37136.4 lineto
stroke
newpath
39426.8 36574 moveto
39426.8 35786.6 lineto
stroke
newpath
39145.5 37023.9 moveto
38864.3 36180.3 lineto
39595.5 36180.3 lineto
stroke
newpath
40945.3 35786.6 moveto
40945.3 36967.7 lineto
stroke
newpath
41451.5 35786.6 moveto
41451.5 36405.2 lineto
41395.3 36517.7 lineto
41282.8 36574 lineto
41114 36574 lineto
41001.6 36517.7 lineto
40945.3 36461.5 lineto
stroke
newpath
42182.7 35786.6 moveto
42070.2 35842.8 lineto
42013.9 35899.1 lineto
41957.7 36011.5 lineto
41957.7 36349 lineto
42013.9 36461.5 lineto
42070.2 36517.7 lineto
42182.7 36574 lineto
42351.4 36574 lineto
42463.9 36517.7 lineto
42520.1 36461.5 lineto
42576.4 36349 lineto
42576.4 36011.5 lineto
42520.1 35899.1 lineto
42463.9 35842.8 lineto
42351.4 35786.6 lineto
42182.7 35786.6 lineto
stroke
newpath
43251.3 35786.6 moveto
43138.8 35842.8 lineto
43082.5 35955.3 lineto
43082.5 36967.7 lineto
stroke
newpath
44151.2 35842.8 moveto
44038.7 35786.6 lineto
43813.7 35786.6 lineto
43701.2 35842.8 lineto
43645 35955.3 lineto
43645 36405.2 lineto
43701.2 36517.7 lineto
43813.7 36574 lineto
44038.7 36574 lineto
44151.2 36517.7 lineto
44207.4 36405.2 lineto
44207.4 36292.8 lineto
43645 36180.3 lineto
stroke
newpath
44657.4 35842.8 moveto
44769.8 35786.6 lineto
44994.8 35786.6 lineto
45107.3 35842.8 lineto
45163.5 35955.3 lineto
45163.5 36011.5 lineto
45107.3 36124 lineto
44994.8 36180.3 lineto
44826.1 36180.3 lineto
44713.6 36236.5 lineto
44657.4 36349 lineto
44657.4 36405.2 lineto
44713.6 36517.7 lineto
44826.1 36574 lineto
44994.8 36574 lineto
45107.3 36517.7 lineto
stroke
newpath
45557.2 35336.6 moveto
45613.5 35392.9 lineto
45726 35561.6 lineto
45782.2 35674.1 lineto
45838.5 35842.8 lineto
45894.7 36124 lineto
45894.7 36349 lineto
45838.5 36630.2 lineto
45782.2 36798.9 lineto
45726 36911.4 lineto
45613.5 37080.2 lineto
45557.2 37136.4 lineto
stroke
newpath
47694.5 35336.6 moveto
47638.2 35392.9 lineto
47525.7 35561.6 lineto
47469.5 35674.1 lineto
47413.3 35842.8 lineto
47357 36124 lineto
47357 36349 lineto
47413.3 36630.2 lineto
47469.5 36798.9 lineto
47525.7 36911.4 lineto
47638.2 37080.2 lineto
47694.5 37136.4 lineto
stroke
newpath
48144.4 36574 moveto
48144.4 35786.6 lineto
stroke
newpath
48144.4 36461.5 moveto
48200.7 36517.7 lineto
48313.1 36574 lineto
48481.9 36574 lineto
48594.4 36517.7 lineto
48650.6 36405.2 lineto
48650.6 35786.6 lineto
stroke
newpath
49381.8 35786.6 moveto
49269.3 35842.8 lineto
49213 35899.1 lineto
49156.8 36011.5 lineto
49156.8 36349 lineto
49213 36461.5 lineto
49269.3 36517.7 lineto
49381.8 36574 lineto
49550.5 36574 lineto
49663 36517.7 lineto
49719.2 36461.5 lineto
49775.5 36349 lineto
49775.5 36011.5 lineto
49719.2 35899.1 lineto
49663 35842.8 lineto
49550.5 35786.6 lineto
49381.8 35786.6 lineto
stroke
newpath
50112.9 36574 moveto
50562.9 36574 lineto
stroke
newpath
50281.6 36967.7 moveto
50281.6 35955.3 lineto
50337.9 35842.8 lineto
50450.4 35786.6 lineto
50562.9 35786.6 lineto
stroke
newpath
51856.5 36574 moveto
51856.5 35392.9 lineto
stroke
newpath
51856.5 36517.7 moveto
51968.9 36574 lineto
52193.9 36574 lineto
52306.4 36517.7 lineto
52362.6 36461.5 lineto
52418.9 36349 lineto
52418.9 36011.5 lineto
52362.6 35899.1 lineto
52306.4 35842.8 lineto
52193.9 35786.6 lineto
51968.9 35786.6 lineto
51856.5 35842.8 lineto
stroke
newpath
53093.8 35786.6 moveto
52981.3 35842.8 lineto
52925.1 35955.3 lineto
52925.1 36967.7 lineto
stroke
newpath
54049.9 35786.6 moveto
54049.9 36405.2 lineto
53993.7 36517.7 lineto
53881.2 36574 lineto
53656.2 36574 lineto
53543.7 36517.7 lineto
stroke
newpath
54049.9 35842.8 moveto
53937.4 35786.6 lineto
53656.2 35786.6 lineto
53543.7 35842.8 lineto
53487.5 35955.3 lineto
53487.5 36067.8 lineto
53543.7 36180.3 lineto
53656.2 36236.5 lineto
53937.4 36236.5 lineto
54049.9 36292.8 lineto
stroke
newpath
54443.6 36574 moveto
54893.6 36574 lineto
stroke
newpath
54612.4 36967.7 moveto
54612.4 35955.3 lineto
54668.6 35842.8 lineto
54781.1 35786.6 lineto
54893.6 35786.6 lineto
stroke
newpath
55737.2 35842.8 moveto
55624.7 35786.6 lineto
55399.8 35786.6 lineto
55287.3 35842.8 lineto
55231 35955.3 lineto
55231 36405.2 lineto
55287.3 36517.7 lineto
55399.8 36574 lineto
55624.7 36574 lineto
55737.2 36517.7 lineto
55793.5 36405.2 lineto
55793.5 36292.8 lineto
55231 36180.3 lineto
stroke
newpath
56805.8 35786.6 moveto
56805.8 36967.7 lineto
stroke
newpath
56805.8 35842.8 moveto
56693.3 35786.6 lineto
56468.4 35786.6 lineto
56355.9 35842.8 lineto
56299.6 35899.1 lineto
56243.4 36011.5 lineto
56243.4 36349 lineto
56299.6 36461.5 lineto
56355.9 36517.7 lineto
56468.4 36574 lineto
56693.3 36574 lineto
56805.8 36517.7 lineto
stroke
newpath
57255.8 35336.6 moveto
57312 35392.9 lineto
57424.5 35561.6 lineto
57480.7 35674.1 lineto
57537 35842.8 lineto
57593.2 36124 lineto
57593.2 36349 lineto
57537 36630.2 lineto
57480.7 36798.9 lineto
57424.5 36911.4 lineto
57312 37080.2 lineto
57255.8 37136.4 lineto
stroke
showpage
grestore
%%EOF
