%!PS-Adobe-3.0
%%Creator: PCBNEW
%%CreationDate: Thu Jul 25 15:40:00 2019
%%Title: /home/guiaum/SeafileYuno/Fablab/PCB_Pizero/pcb_pizero_scan2dxf/meta/fab/pcb_pizero_scan2dxf-PTH-drl_map.ps
%%Pages: 1
%%PageOrder: Ascend
%%BoundingBox: 0 0 596 842
%%DocumentMedia: A4 595 842 0 () ()
%%Orientation: Landscape
%%EndComments
%%BeginProlog
/line { newpath moveto lineto stroke } bind def
/cir0 { newpath 0 360 arc stroke } bind def
/cir1 { newpath 0 360 arc gsave fill grestore stroke } bind def
/cir2 { newpath 0 360 arc gsave fill grestore stroke } bind def
/arc0 { newpath arc stroke } bind def
/arc1 { newpath 4 index 4 index moveto arc closepath gsave fill
    grestore stroke } bind def
/arc2 { newpath 4 index 4 index moveto arc closepath gsave fill
    grestore stroke } bind def
/poly0 { stroke } bind def
/poly1 { closepath gsave fill grestore stroke } bind def
/poly2 { closepath gsave fill grestore stroke } bind def
/rect0 { rectstroke } bind def
/rect1 { rectfill } bind def
/rect2 { rectfill } bind def
/linemode0 { 0 setlinecap 0 setlinejoin 0 setlinewidth } bind def
/linemode1 { 1 setlinecap 1 setlinejoin } bind def
/dashedline { [200] 100 setdash } bind def
/solidline { [] 0 setdash } bind def
/phantomshow { moveto
    /KicadFont findfont 0.000001 scalefont setfont
    show } bind def
/textshow { gsave
    findfont exch scalefont setfont concat 1 scale 0 0 moveto show
    } bind def
/reencodefont {
  findfont dup length dict begin
  { 1 index /FID ne
    { def }
    { pop pop } ifelse
  } forall
  /Encoding ISOLatin1Encoding def
  currentdict
  end } bind def
/KicadFont /Helvetica reencodefont definefont pop
/KicadFont-Bold /Helvetica-Bold reencodefont definefont pop
/KicadFont-Oblique /Helvetica-Oblique reencodefont definefont pop
/KicadFont-BoldOblique /Helvetica-BoldOblique reencodefont definefont pop
%%EndProlog
%%Page: 1 1
%%BeginPageSetup
gsave
0.0072 0.0072 scale
linemode1
82680 0 translate 90 rotate
150 setlinewidth
%%EndPageSetup
0 0 0 setrgbcolor
118.11 setlinewidth
newpath
96850.8 72639.8 moveto
96850.8 43702.8 lineto
stroke
0 0 0 setrgbcolor
23622.5 72049.2 3543.31 90 180 arc0
0 0 0 setrgbcolor
newpath
23622.5 75592.5 moveto
93307.5 75592.5 lineto
stroke
0 0 0 setrgbcolor
93307.5 72049.2 3543.31 -0 90 arc0
0 0 0 setrgbcolor
93307.5 43702.8 3543.31 -90 -0 arc0
0 0 0 setrgbcolor
23622.5 43702.8 3543.31 -180 -90 arc0
0 0 0 setrgbcolor
newpath
20079.2 72639.8 moveto
20079.2 43702.8 lineto
stroke
0 0 0 setrgbcolor
newpath
23622.5 40159.5 moveto
93307.5 40159.5 lineto
stroke
78.7394 setlinewidth
newpath
27909.9 67206.7 moveto
28854.8 66261.8 lineto
stroke
newpath
28854.8 67206.7 moveto
27909.9 66261.8 lineto
stroke
newpath
29504.4 67206.7 moveto
30449.3 66261.8 lineto
stroke
newpath
30449.3 67206.7 moveto
29504.4 66261.8 lineto
stroke
newpath
32504.4 67206.7 moveto
33449.3 66261.8 lineto
stroke
newpath
33449.3 67206.7 moveto
32504.4 66261.8 lineto
stroke
newpath
35492.6 67206.7 moveto
36437.4 66261.8 lineto
stroke
newpath
36437.4 67206.7 moveto
35492.6 66261.8 lineto
stroke
newpath
44492.6 67206.7 moveto
45437.4 66261.8 lineto
stroke
newpath
45437.4 67206.7 moveto
44492.6 66261.8 lineto
stroke
newpath
47480.7 67206.7 moveto
48425.6 66261.8 lineto
stroke
newpath
48425.6 67206.7 moveto
47480.7 66261.8 lineto
stroke
newpath
50504.4 67206.7 moveto
51449.3 66261.8 lineto
stroke
newpath
51449.3 67206.7 moveto
50504.4 66261.8 lineto
stroke
newpath
71492.6 67206.7 moveto
72437.4 66261.8 lineto
stroke
newpath
72437.4 67206.7 moveto
71492.6 66261.8 lineto
stroke
newpath
74504.4 67206.7 moveto
75449.3 66261.8 lineto
stroke
newpath
75449.3 67206.7 moveto
74504.4 66261.8 lineto
stroke
newpath
77492.6 67206.7 moveto
78437.4 66261.8 lineto
stroke
newpath
78437.4 67206.7 moveto
77492.6 66261.8 lineto
stroke
newpath
80504.4 67206.7 moveto
81449.3 66261.8 lineto
stroke
newpath
81449.3 67206.7 moveto
80504.4 66261.8 lineto
stroke
newpath
83516.2 67206.7 moveto
84461.1 66261.8 lineto
stroke
newpath
84461.1 67206.7 moveto
83516.2 66261.8 lineto
stroke
newpath
55630.4 65671.3 moveto
56575.2 64726.4 lineto
stroke
newpath
56575.2 65671.3 moveto
55630.4 64726.4 lineto
stroke
newpath
55630.4 50671.3 moveto
56575.2 49726.4 lineto
stroke
newpath
56575.2 50671.3 moveto
55630.4 49726.4 lineto
stroke
newpath
62717 65671.3 moveto
63661.9 64726.4 lineto
stroke
newpath
63661.9 65671.3 moveto
62717 64726.4 lineto
stroke
newpath
62717 50671.3 moveto
63661.9 49726.4 lineto
stroke
newpath
63661.9 50671.3 moveto
62717 49726.4 lineto
stroke
40748.5 59057.1 480 cir0
40748.5 44293.3 480 cir0
46654 59057.1 480 cir0
46654 44293.3 480 cir0
newpath
54283.9 46005.9 moveto
54283.9 44942.9 lineto
stroke
newpath
53752.4 45474.4 moveto
54815.4 45474.4 lineto
stroke
newpath
57283.9 46005.9 moveto
57283.9 44942.9 lineto
stroke
newpath
56752.4 45474.4 moveto
57815.4 45474.4 lineto
stroke
newpath
61370.5 46005.9 moveto
61370.5 44942.9 lineto
stroke
newpath
60839 45474.4 moveto
61902 45474.4 lineto
stroke
newpath
64370.5 46005.9 moveto
64370.5 44942.9 lineto
stroke
newpath
63839 45474.4 moveto
64902 45474.4 lineto
stroke
newpath
93134.6 62962.3 moveto
93134.6 63797.5 lineto
92299.4 63797.5 lineto
92299.4 62962.3 lineto
93134.6 62962.3 lineto
poly0
newpath
93134.6 59962.3 moveto
93134.6 60797.5 lineto
92299.4 60797.5 lineto
92299.4 59962.3 lineto
93134.6 59962.3 lineto
poly0
newpath
93134.6 56962.3 moveto
93134.6 57797.5 lineto
92299.4 57797.5 lineto
92299.4 56962.3 lineto
93134.6 56962.3 lineto
poly0
newpath
93134.6 53962.3 moveto
93134.6 54797.5 lineto
92299.4 54797.5 lineto
92299.4 53962.3 lineto
93134.6 53962.3 lineto
poly0
newpath
93134.6 50962.3 moveto
93134.6 51797.5 lineto
92299.4 51797.5 lineto
92299.4 50962.3 lineto
93134.6 50962.3 lineto
poly0
newpath
30382.6 72541.1 moveto
30382.6 73376.3 lineto
29547.4 73376.3 lineto
29547.4 72541.1 lineto
30382.6 72541.1 lineto
poly0
newpath
30382.6 69541.1 moveto
30382.6 70376.3 lineto
29547.4 70376.3 lineto
29547.4 69541.1 lineto
30382.6 69541.1 lineto
poly0
newpath
33382.6 72541.1 moveto
33382.6 73376.3 lineto
32547.4 73376.3 lineto
32547.4 72541.1 lineto
33382.6 72541.1 lineto
poly0
newpath
33382.6 69541.1 moveto
33382.6 70376.3 lineto
32547.4 70376.3 lineto
32547.4 69541.1 lineto
33382.6 69541.1 lineto
poly0
newpath
36382.6 72541.1 moveto
36382.6 73376.3 lineto
35547.4 73376.3 lineto
35547.4 72541.1 lineto
36382.6 72541.1 lineto
poly0
newpath
36382.6 69541.1 moveto
36382.6 70376.3 lineto
35547.4 70376.3 lineto
35547.4 69541.1 lineto
36382.6 69541.1 lineto
poly0
newpath
39382.6 72541.1 moveto
39382.6 73376.3 lineto
38547.4 73376.3 lineto
38547.4 72541.1 lineto
39382.6 72541.1 lineto
poly0
newpath
39382.6 69541.1 moveto
39382.6 70376.3 lineto
38547.4 70376.3 lineto
38547.4 69541.1 lineto
39382.6 69541.1 lineto
poly0
newpath
42382.6 72541.1 moveto
42382.6 73376.3 lineto
41547.4 73376.3 lineto
41547.4 72541.1 lineto
42382.6 72541.1 lineto
poly0
newpath
42382.6 69541.1 moveto
42382.6 70376.3 lineto
41547.4 70376.3 lineto
41547.4 69541.1 lineto
42382.6 69541.1 lineto
poly0
newpath
45382.6 72541.1 moveto
45382.6 73376.3 lineto
44547.4 73376.3 lineto
44547.4 72541.1 lineto
45382.6 72541.1 lineto
poly0
newpath
45382.6 69541.1 moveto
45382.6 70376.3 lineto
44547.4 70376.3 lineto
44547.4 69541.1 lineto
45382.6 69541.1 lineto
poly0
newpath
48382.6 72541.1 moveto
48382.6 73376.3 lineto
47547.4 73376.3 lineto
47547.4 72541.1 lineto
48382.6 72541.1 lineto
poly0
newpath
48382.6 69541.1 moveto
48382.6 70376.3 lineto
47547.4 70376.3 lineto
47547.4 69541.1 lineto
48382.6 69541.1 lineto
poly0
newpath
51382.6 72541.1 moveto
51382.6 73376.3 lineto
50547.4 73376.3 lineto
50547.4 72541.1 lineto
51382.6 72541.1 lineto
poly0
newpath
51382.6 69541.1 moveto
51382.6 70376.3 lineto
50547.4 70376.3 lineto
50547.4 69541.1 lineto
51382.6 69541.1 lineto
poly0
newpath
54382.6 72541.1 moveto
54382.6 73376.3 lineto
53547.4 73376.3 lineto
53547.4 72541.1 lineto
54382.6 72541.1 lineto
poly0
newpath
54382.6 69541.1 moveto
54382.6 70376.3 lineto
53547.4 70376.3 lineto
53547.4 69541.1 lineto
54382.6 69541.1 lineto
poly0
newpath
57382.6 72541.1 moveto
57382.6 73376.3 lineto
56547.4 73376.3 lineto
56547.4 72541.1 lineto
57382.6 72541.1 lineto
poly0
newpath
57382.6 69541.1 moveto
57382.6 70376.3 lineto
56547.4 70376.3 lineto
56547.4 69541.1 lineto
57382.6 69541.1 lineto
poly0
newpath
60382.6 72541.1 moveto
60382.6 73376.3 lineto
59547.4 73376.3 lineto
59547.4 72541.1 lineto
60382.6 72541.1 lineto
poly0
newpath
60382.6 69541.1 moveto
60382.6 70376.3 lineto
59547.4 70376.3 lineto
59547.4 69541.1 lineto
60382.6 69541.1 lineto
poly0
newpath
63382.6 72541.1 moveto
63382.6 73376.3 lineto
62547.4 73376.3 lineto
62547.4 72541.1 lineto
63382.6 72541.1 lineto
poly0
newpath
63382.6 69541.1 moveto
63382.6 70376.3 lineto
62547.4 70376.3 lineto
62547.4 69541.1 lineto
63382.6 69541.1 lineto
poly0
newpath
66382.6 72541.1 moveto
66382.6 73376.3 lineto
65547.4 73376.3 lineto
65547.4 72541.1 lineto
66382.6 72541.1 lineto
poly0
newpath
66382.6 69541.1 moveto
66382.6 70376.3 lineto
65547.4 70376.3 lineto
65547.4 69541.1 lineto
66382.6 69541.1 lineto
poly0
newpath
69382.6 72541.1 moveto
69382.6 73376.3 lineto
68547.4 73376.3 lineto
68547.4 72541.1 lineto
69382.6 72541.1 lineto
poly0
newpath
69382.6 69541.1 moveto
69382.6 70376.3 lineto
68547.4 70376.3 lineto
68547.4 69541.1 lineto
69382.6 69541.1 lineto
poly0
newpath
72382.6 72541.1 moveto
72382.6 73376.3 lineto
71547.4 73376.3 lineto
71547.4 72541.1 lineto
72382.6 72541.1 lineto
poly0
newpath
72382.6 69541.1 moveto
72382.6 70376.3 lineto
71547.4 70376.3 lineto
71547.4 69541.1 lineto
72382.6 69541.1 lineto
poly0
newpath
75382.6 72541.1 moveto
75382.6 73376.3 lineto
74547.4 73376.3 lineto
74547.4 72541.1 lineto
75382.6 72541.1 lineto
poly0
newpath
75382.6 69541.1 moveto
75382.6 70376.3 lineto
74547.4 70376.3 lineto
74547.4 69541.1 lineto
75382.6 69541.1 lineto
poly0
newpath
78382.6 72541.1 moveto
78382.6 73376.3 lineto
77547.4 73376.3 lineto
77547.4 72541.1 lineto
78382.6 72541.1 lineto
poly0
newpath
78382.6 69541.1 moveto
78382.6 70376.3 lineto
77547.4 70376.3 lineto
77547.4 69541.1 lineto
78382.6 69541.1 lineto
poly0
newpath
81382.6 72541.1 moveto
81382.6 73376.3 lineto
80547.4 73376.3 lineto
80547.4 72541.1 lineto
81382.6 72541.1 lineto
poly0
newpath
81382.6 69541.1 moveto
81382.6 70376.3 lineto
80547.4 70376.3 lineto
80547.4 69541.1 lineto
81382.6 69541.1 lineto
poly0
newpath
84382.6 72541.1 moveto
84382.6 73376.3 lineto
83547.4 73376.3 lineto
83547.4 72541.1 lineto
84382.6 72541.1 lineto
poly0
newpath
84382.6 69541.1 moveto
84382.6 70376.3 lineto
83547.4 70376.3 lineto
83547.4 69541.1 lineto
84382.6 69541.1 lineto
poly0
newpath
87382.6 72541.1 moveto
87382.6 73376.3 lineto
86547.4 73376.3 lineto
86547.4 72541.1 lineto
87382.6 72541.1 lineto
poly0
newpath
87382.6 69541.1 moveto
87382.6 70376.3 lineto
86547.4 70376.3 lineto
86547.4 69541.1 lineto
87382.6 69541.1 lineto
poly0
newpath
24630.6 61592.3 moveto
24630.6 62427.4 lineto
23795.4 62427.4 lineto
23795.4 61592.3 lineto
24630.6 61592.3 lineto
poly0
newpath
24630.6 58592.3 moveto
24630.6 59427.4 lineto
23795.4 59427.4 lineto
23795.4 58592.3 lineto
24630.6 58592.3 lineto
poly0
newpath
24630.6 55592.3 moveto
24630.6 56427.4 lineto
23795.4 56427.4 lineto
23795.4 55592.3 lineto
24630.6 55592.3 lineto
poly0
newpath
24713.3 52367.9 moveto
24713.3 53203 lineto
23878.1 53203 lineto
23878.1 52367.9 lineto
24713.3 52367.9 lineto
poly0
newpath
24713.3 49367.9 moveto
24713.3 50203 lineto
23878.1 50203 lineto
23878.1 49367.9 lineto
24713.3 49367.9 lineto
poly0
118.11 setlinewidth
0 0 0 setrgbcolor
0 0 0 setrgbcolor
newpath
21147.8 38266.9 moveto
21147.8 39448 lineto
21429 39448 lineto
21597.7 39391.7 lineto
21710.2 39279.3 lineto
21766.5 39166.8 lineto
21822.7 38941.8 lineto
21822.7 38773.1 lineto
21766.5 38548.1 lineto
21710.2 38435.6 lineto
21597.7 38323.1 lineto
21429 38266.9 lineto
21147.8 38266.9 lineto
stroke
newpath
22328.9 38266.9 moveto
22328.9 39054.3 lineto
stroke
newpath
22328.9 38829.3 moveto
22385.1 38941.8 lineto
22441.4 38998 lineto
22553.9 39054.3 lineto
22666.3 39054.3 lineto
stroke
newpath
23060 38266.9 moveto
23060 39054.3 lineto
stroke
newpath
23060 39448 moveto
23003.8 39391.7 lineto
23060 39335.5 lineto
23116.3 39391.7 lineto
23060 39448 lineto
23060 39335.5 lineto
stroke
newpath
23791.2 38266.9 moveto
23678.7 38323.1 lineto
23622.5 38435.6 lineto
23622.5 39448 lineto
stroke
newpath
24409.9 38266.9 moveto
24297.4 38323.1 lineto
24241.2 38435.6 lineto
24241.2 39448 lineto
stroke
newpath
25759.7 38266.9 moveto
25759.7 39448 lineto
26153.4 38604.3 lineto
26547.1 39448 lineto
26547.1 38266.9 lineto
stroke
newpath
27615.7 38266.9 moveto
27615.7 38885.6 lineto
27559.5 38998 lineto
27447 39054.3 lineto
27222 39054.3 lineto
27109.5 38998 lineto
stroke
newpath
27615.7 38323.1 moveto
27503.2 38266.9 lineto
27222 38266.9 lineto
27109.5 38323.1 lineto
27053.3 38435.6 lineto
27053.3 38548.1 lineto
27109.5 38660.6 lineto
27222 38716.8 lineto
27503.2 38716.8 lineto
27615.7 38773.1 lineto
stroke
newpath
28178.2 39054.3 moveto
28178.2 37873.2 lineto
stroke
newpath
28178.2 38998 moveto
28290.6 39054.3 lineto
28515.6 39054.3 lineto
28628.1 38998 lineto
28684.3 38941.8 lineto
28740.6 38829.3 lineto
28740.6 38491.9 lineto
28684.3 38379.4 lineto
28628.1 38323.1 lineto
28515.6 38266.9 lineto
28290.6 38266.9 lineto
28178.2 38323.1 lineto
stroke
newpath
29246.8 38379.4 moveto
29303 38323.1 lineto
29246.8 38266.9 lineto
29190.5 38323.1 lineto
29246.8 38379.4 lineto
29246.8 38266.9 lineto
stroke
newpath
29246.8 38998 moveto
29303 38941.8 lineto
29246.8 38885.6 lineto
29190.5 38941.8 lineto
29246.8 38998 lineto
29246.8 38885.6 lineto
stroke
newpath
19075.2 36793.3 moveto
20020.1 35848.4 lineto
stroke
newpath
20020.1 36793.3 moveto
19075.2 35848.4 lineto
stroke
0 0 0 setrgbcolor
0 0 0 setrgbcolor
newpath
21372.8 36967.7 moveto
21485.2 36967.7 lineto
21597.7 36911.4 lineto
21654 36855.2 lineto
21710.2 36742.7 lineto
21766.5 36517.7 lineto
21766.5 36236.5 lineto
21710.2 36011.5 lineto
21654 35899.1 lineto
21597.7 35842.8 lineto
21485.2 35786.6 lineto
21372.8 35786.6 lineto
21260.3 35842.8 lineto
21204 35899.1 lineto
21147.8 36011.5 lineto
21091.5 36236.5 lineto
21091.5 36517.7 lineto
21147.8 36742.7 lineto
21204 36855.2 lineto
21260.3 36911.4 lineto
21372.8 36967.7 lineto
stroke
newpath
22272.6 35899.1 moveto
22328.9 35842.8 lineto
22272.6 35786.6 lineto
22216.4 35842.8 lineto
22272.6 35899.1 lineto
22272.6 35786.6 lineto
stroke
newpath
23003.8 36461.5 moveto
22891.3 36517.7 lineto
22835.1 36574 lineto
22778.8 36686.5 lineto
22778.8 36742.7 lineto
22835.1 36855.2 lineto
22891.3 36911.4 lineto
23003.8 36967.7 lineto
23228.8 36967.7 lineto
23341.3 36911.4 lineto
23397.5 36855.2 lineto
23453.8 36742.7 lineto
23453.8 36686.5 lineto
23397.5 36574 lineto
23341.3 36517.7 lineto
23228.8 36461.5 lineto
23003.8 36461.5 lineto
22891.3 36405.2 lineto
22835.1 36349 lineto
22778.8 36236.5 lineto
22778.8 36011.5 lineto
22835.1 35899.1 lineto
22891.3 35842.8 lineto
23003.8 35786.6 lineto
23228.8 35786.6 lineto
23341.3 35842.8 lineto
23397.5 35899.1 lineto
23453.8 36011.5 lineto
23453.8 36236.5 lineto
23397.5 36349 lineto
23341.3 36405.2 lineto
23228.8 36461.5 lineto
stroke
newpath
24184.9 36967.7 moveto
24297.4 36967.7 lineto
24409.9 36911.4 lineto
24466.1 36855.2 lineto
24522.4 36742.7 lineto
24578.6 36517.7 lineto
24578.6 36236.5 lineto
24522.4 36011.5 lineto
24466.1 35899.1 lineto
24409.9 35842.8 lineto
24297.4 35786.6 lineto
24184.9 35786.6 lineto
24072.4 35842.8 lineto
24016.2 35899.1 lineto
23959.9 36011.5 lineto
23903.7 36236.5 lineto
23903.7 36517.7 lineto
23959.9 36742.7 lineto
24016.2 36855.2 lineto
24072.4 36911.4 lineto
24184.9 36967.7 lineto
stroke
newpath
25084.8 35786.6 moveto
25084.8 36574 lineto
stroke
newpath
25084.8 36461.5 moveto
25141 36517.7 lineto
25253.5 36574 lineto
25422.3 36574 lineto
25534.7 36517.7 lineto
25591 36405.2 lineto
25591 35786.6 lineto
stroke
newpath
25591 36405.2 moveto
25647.2 36517.7 lineto
25759.7 36574 lineto
25928.4 36574 lineto
26040.9 36517.7 lineto
26097.2 36405.2 lineto
26097.2 35786.6 lineto
stroke
newpath
26659.6 35786.6 moveto
26659.6 36574 lineto
stroke
newpath
26659.6 36461.5 moveto
26715.8 36517.7 lineto
26828.3 36574 lineto
26997.1 36574 lineto
27109.5 36517.7 lineto
27165.8 36405.2 lineto
27165.8 35786.6 lineto
stroke
newpath
27165.8 36405.2 moveto
27222 36517.7 lineto
27334.5 36574 lineto
27503.2 36574 lineto
27615.7 36517.7 lineto
27672 36405.2 lineto
27672 35786.6 lineto
stroke
newpath
29977.9 37023.9 moveto
28965.6 35505.4 lineto
stroke
newpath
31496.5 36967.7 moveto
31609 36967.7 lineto
31721.5 36911.4 lineto
31777.7 36855.2 lineto
31834 36742.7 lineto
31890.2 36517.7 lineto
31890.2 36236.5 lineto
31834 36011.5 lineto
31777.7 35899.1 lineto
31721.5 35842.8 lineto
31609 35786.6 lineto
31496.5 35786.6 lineto
31384 35842.8 lineto
31327.8 35899.1 lineto
31271.5 36011.5 lineto
31215.3 36236.5 lineto
31215.3 36517.7 lineto
31271.5 36742.7 lineto
31327.8 36855.2 lineto
31384 36911.4 lineto
31496.5 36967.7 lineto
stroke
newpath
32396.4 35899.1 moveto
32452.6 35842.8 lineto
32396.4 35786.6 lineto
32340.1 35842.8 lineto
32396.4 35899.1 lineto
32396.4 35786.6 lineto
stroke
newpath
33183.8 36967.7 moveto
33296.3 36967.7 lineto
33408.8 36911.4 lineto
33465 36855.2 lineto
33521.2 36742.7 lineto
33577.5 36517.7 lineto
33577.5 36236.5 lineto
33521.2 36011.5 lineto
33465 35899.1 lineto
33408.8 35842.8 lineto
33296.3 35786.6 lineto
33183.8 35786.6 lineto
33071.3 35842.8 lineto
33015.1 35899.1 lineto
32958.8 36011.5 lineto
32902.6 36236.5 lineto
32902.6 36517.7 lineto
32958.8 36742.7 lineto
33015.1 36855.2 lineto
33071.3 36911.4 lineto
33183.8 36967.7 lineto
stroke
newpath
33971.2 36967.7 moveto
34702.3 36967.7 lineto
34308.6 36517.7 lineto
34477.4 36517.7 lineto
34589.9 36461.5 lineto
34646.1 36405.2 lineto
34702.3 36292.8 lineto
34702.3 36011.5 lineto
34646.1 35899.1 lineto
34589.9 35842.8 lineto
34477.4 35786.6 lineto
34139.9 35786.6 lineto
34027.4 35842.8 lineto
33971.2 35899.1 lineto
stroke
newpath
35827.2 35786.6 moveto
35152.3 35786.6 lineto
stroke
newpath
35489.7 35786.6 moveto
35489.7 36967.7 lineto
35377.3 36798.9 lineto
35264.8 36686.5 lineto
35152.3 36630.2 lineto
stroke
newpath
36277.1 36967.7 moveto
36277.1 36742.7 lineto
stroke
newpath
36727.1 36967.7 moveto
36727.1 36742.7 lineto
stroke
newpath
38470.6 35336.6 moveto
38414.4 35392.9 lineto
38301.9 35561.6 lineto
38245.7 35674.1 lineto
38189.4 35842.8 lineto
38133.2 36124 lineto
38133.2 36349 lineto
38189.4 36630.2 lineto
38245.7 36798.9 lineto
38301.9 36911.4 lineto
38414.4 37080.2 lineto
38470.6 37136.4 lineto
stroke
newpath
39539.2 35786.6 moveto
38864.3 35786.6 lineto
stroke
newpath
39201.8 35786.6 moveto
39201.8 36967.7 lineto
39089.3 36798.9 lineto
38976.8 36686.5 lineto
38864.3 36630.2 lineto
stroke
newpath
40551.6 36967.7 moveto
40326.6 36967.7 lineto
40214.2 36911.4 lineto
40157.9 36855.2 lineto
40045.4 36686.5 lineto
39989.2 36461.5 lineto
39989.2 36011.5 lineto
40045.4 35899.1 lineto
40101.7 35842.8 lineto
40214.2 35786.6 lineto
40439.1 35786.6 lineto
40551.6 35842.8 lineto
40607.9 35899.1 lineto
40664.1 36011.5 lineto
40664.1 36292.8 lineto
40607.9 36405.2 lineto
40551.6 36461.5 lineto
40439.1 36517.7 lineto
40214.2 36517.7 lineto
40101.7 36461.5 lineto
40045.4 36405.2 lineto
39989.2 36292.8 lineto
stroke
newpath
42070.2 35786.6 moveto
42070.2 36967.7 lineto
stroke
newpath
42576.4 35786.6 moveto
42576.4 36405.2 lineto
42520.1 36517.7 lineto
42407.6 36574 lineto
42238.9 36574 lineto
42126.4 36517.7 lineto
42070.2 36461.5 lineto
stroke
newpath
43307.5 35786.6 moveto
43195 35842.8 lineto
43138.8 35899.1 lineto
43082.5 36011.5 lineto
43082.5 36349 lineto
43138.8 36461.5 lineto
43195 36517.7 lineto
43307.5 36574 lineto
43476.2 36574 lineto
43588.7 36517.7 lineto
43645 36461.5 lineto
43701.2 36349 lineto
43701.2 36011.5 lineto
43645 35899.1 lineto
43588.7 35842.8 lineto
43476.2 35786.6 lineto
43307.5 35786.6 lineto
stroke
newpath
44376.1 35786.6 moveto
44263.6 35842.8 lineto
44207.4 35955.3 lineto
44207.4 36967.7 lineto
stroke
newpath
45276 35842.8 moveto
45163.5 35786.6 lineto
44938.6 35786.6 lineto
44826.1 35842.8 lineto
44769.8 35955.3 lineto
44769.8 36405.2 lineto
44826.1 36517.7 lineto
44938.6 36574 lineto
45163.5 36574 lineto
45276 36517.7 lineto
45332.3 36405.2 lineto
45332.3 36292.8 lineto
44769.8 36180.3 lineto
stroke
newpath
45782.2 35842.8 moveto
45894.7 35786.6 lineto
46119.7 35786.6 lineto
46232.2 35842.8 lineto
46288.4 35955.3 lineto
46288.4 36011.5 lineto
46232.2 36124 lineto
46119.7 36180.3 lineto
45950.9 36180.3 lineto
45838.5 36236.5 lineto
45782.2 36349 lineto
45782.2 36405.2 lineto
45838.5 36517.7 lineto
45950.9 36574 lineto
46119.7 36574 lineto
46232.2 36517.7 lineto
stroke
newpath
46682.1 35336.6 moveto
46738.3 35392.9 lineto
46850.8 35561.6 lineto
46907.1 35674.1 lineto
46963.3 35842.8 lineto
47019.6 36124 lineto
47019.6 36349 lineto
46963.3 36630.2 lineto
46907.1 36798.9 lineto
46850.8 36911.4 lineto
46738.3 37080.2 lineto
46682.1 37136.4 lineto
stroke
19540.1 34761.8 480 cir0
0 0 0 setrgbcolor
0 0 0 setrgbcolor
newpath
21372.8 35408.6 moveto
21485.2 35408.6 lineto
21597.7 35352.4 lineto
21654 35296.1 lineto
21710.2 35183.6 lineto
21766.5 34958.7 lineto
21766.5 34677.5 lineto
21710.2 34452.5 lineto
21654 34340 lineto
21597.7 34283.8 lineto
21485.2 34227.5 lineto
21372.8 34227.5 lineto
21260.3 34283.8 lineto
21204 34340 lineto
21147.8 34452.5 lineto
21091.5 34677.5 lineto
21091.5 34958.7 lineto
21147.8 35183.6 lineto
21204 35296.1 lineto
21260.3 35352.4 lineto
21372.8 35408.6 lineto
stroke
newpath
22272.6 34340 moveto
22328.9 34283.8 lineto
22272.6 34227.5 lineto
22216.4 34283.8 lineto
22272.6 34340 lineto
22272.6 34227.5 lineto
stroke
newpath
23003.8 34902.4 moveto
22891.3 34958.7 lineto
22835.1 35014.9 lineto
22778.8 35127.4 lineto
22778.8 35183.6 lineto
22835.1 35296.1 lineto
22891.3 35352.4 lineto
23003.8 35408.6 lineto
23228.8 35408.6 lineto
23341.3 35352.4 lineto
23397.5 35296.1 lineto
23453.8 35183.6 lineto
23453.8 35127.4 lineto
23397.5 35014.9 lineto
23341.3 34958.7 lineto
23228.8 34902.4 lineto
23003.8 34902.4 lineto
22891.3 34846.2 lineto
22835.1 34789.9 lineto
22778.8 34677.5 lineto
22778.8 34452.5 lineto
22835.1 34340 lineto
22891.3 34283.8 lineto
23003.8 34227.5 lineto
23228.8 34227.5 lineto
23341.3 34283.8 lineto
23397.5 34340 lineto
23453.8 34452.5 lineto
23453.8 34677.5 lineto
23397.5 34789.9 lineto
23341.3 34846.2 lineto
23228.8 34902.4 lineto
stroke
newpath
24578.6 34227.5 moveto
23903.7 34227.5 lineto
stroke
newpath
24241.2 34227.5 moveto
24241.2 35408.6 lineto
24128.7 35239.9 lineto
24016.2 35127.4 lineto
23903.7 35071.2 lineto
stroke
newpath
25084.8 34227.5 moveto
25084.8 35014.9 lineto
stroke
newpath
25084.8 34902.4 moveto
25141 34958.7 lineto
25253.5 35014.9 lineto
25422.3 35014.9 lineto
25534.7 34958.7 lineto
25591 34846.2 lineto
25591 34227.5 lineto
stroke
newpath
25591 34846.2 moveto
25647.2 34958.7 lineto
25759.7 35014.9 lineto
25928.4 35014.9 lineto
26040.9 34958.7 lineto
26097.2 34846.2 lineto
26097.2 34227.5 lineto
stroke
newpath
26659.6 34227.5 moveto
26659.6 35014.9 lineto
stroke
newpath
26659.6 34902.4 moveto
26715.8 34958.7 lineto
26828.3 35014.9 lineto
26997.1 35014.9 lineto
27109.5 34958.7 lineto
27165.8 34846.2 lineto
27165.8 34227.5 lineto
stroke
newpath
27165.8 34846.2 moveto
27222 34958.7 lineto
27334.5 35014.9 lineto
27503.2 35014.9 lineto
27615.7 34958.7 lineto
27672 34846.2 lineto
27672 34227.5 lineto
stroke
newpath
29977.9 35464.9 moveto
28965.6 33946.3 lineto
stroke
newpath
31496.5 35408.6 moveto
31609 35408.6 lineto
31721.5 35352.4 lineto
31777.7 35296.1 lineto
31834 35183.6 lineto
31890.2 34958.7 lineto
31890.2 34677.5 lineto
31834 34452.5 lineto
31777.7 34340 lineto
31721.5 34283.8 lineto
31609 34227.5 lineto
31496.5 34227.5 lineto
31384 34283.8 lineto
31327.8 34340 lineto
31271.5 34452.5 lineto
31215.3 34677.5 lineto
31215.3 34958.7 lineto
31271.5 35183.6 lineto
31327.8 35296.1 lineto
31384 35352.4 lineto
31496.5 35408.6 lineto
stroke
newpath
32396.4 34340 moveto
32452.6 34283.8 lineto
32396.4 34227.5 lineto
32340.1 34283.8 lineto
32396.4 34340 lineto
32396.4 34227.5 lineto
stroke
newpath
33183.8 35408.6 moveto
33296.3 35408.6 lineto
33408.8 35352.4 lineto
33465 35296.1 lineto
33521.2 35183.6 lineto
33577.5 34958.7 lineto
33577.5 34677.5 lineto
33521.2 34452.5 lineto
33465 34340 lineto
33408.8 34283.8 lineto
33296.3 34227.5 lineto
33183.8 34227.5 lineto
33071.3 34283.8 lineto
33015.1 34340 lineto
32958.8 34452.5 lineto
32902.6 34677.5 lineto
32902.6 34958.7 lineto
32958.8 35183.6 lineto
33015.1 35296.1 lineto
33071.3 35352.4 lineto
33183.8 35408.6 lineto
stroke
newpath
33971.2 35408.6 moveto
34702.3 35408.6 lineto
34308.6 34958.7 lineto
34477.4 34958.7 lineto
34589.9 34902.4 lineto
34646.1 34846.2 lineto
34702.3 34733.7 lineto
34702.3 34452.5 lineto
34646.1 34340 lineto
34589.9 34283.8 lineto
34477.4 34227.5 lineto
34139.9 34227.5 lineto
34027.4 34283.8 lineto
33971.2 34340 lineto
stroke
newpath
35152.3 35296.1 moveto
35208.5 35352.4 lineto
35321 35408.6 lineto
35602.2 35408.6 lineto
35714.7 35352.4 lineto
35771 35296.1 lineto
35827.2 35183.6 lineto
35827.2 35071.2 lineto
35771 34902.4 lineto
35096 34227.5 lineto
35827.2 34227.5 lineto
stroke
newpath
36277.1 35408.6 moveto
36277.1 35183.6 lineto
stroke
newpath
36727.1 35408.6 moveto
36727.1 35183.6 lineto
stroke
newpath
38470.6 33777.6 moveto
38414.4 33833.8 lineto
38301.9 34002.5 lineto
38245.7 34115 lineto
38189.4 34283.8 lineto
38133.2 34565 lineto
38133.2 34789.9 lineto
38189.4 35071.2 lineto
38245.7 35239.9 lineto
38301.9 35352.4 lineto
38414.4 35521.1 lineto
38470.6 35577.3 lineto
stroke
newpath
39426.8 35014.9 moveto
39426.8 34227.5 lineto
stroke
newpath
39145.5 35464.9 moveto
38864.3 34621.2 lineto
39595.5 34621.2 lineto
stroke
newpath
40945.3 34227.5 moveto
40945.3 35408.6 lineto
stroke
newpath
41451.5 34227.5 moveto
41451.5 34846.2 lineto
41395.3 34958.7 lineto
41282.8 35014.9 lineto
41114 35014.9 lineto
41001.6 34958.7 lineto
40945.3 34902.4 lineto
stroke
newpath
42182.7 34227.5 moveto
42070.2 34283.8 lineto
42013.9 34340 lineto
41957.7 34452.5 lineto
41957.7 34789.9 lineto
42013.9 34902.4 lineto
42070.2 34958.7 lineto
42182.7 35014.9 lineto
42351.4 35014.9 lineto
42463.9 34958.7 lineto
42520.1 34902.4 lineto
42576.4 34789.9 lineto
42576.4 34452.5 lineto
42520.1 34340 lineto
42463.9 34283.8 lineto
42351.4 34227.5 lineto
42182.7 34227.5 lineto
stroke
newpath
43251.3 34227.5 moveto
43138.8 34283.8 lineto
43082.5 34396.2 lineto
43082.5 35408.6 lineto
stroke
newpath
44151.2 34283.8 moveto
44038.7 34227.5 lineto
43813.7 34227.5 lineto
43701.2 34283.8 lineto
43645 34396.2 lineto
43645 34846.2 lineto
43701.2 34958.7 lineto
43813.7 35014.9 lineto
44038.7 35014.9 lineto
44151.2 34958.7 lineto
44207.4 34846.2 lineto
44207.4 34733.7 lineto
43645 34621.2 lineto
stroke
newpath
44657.4 34283.8 moveto
44769.8 34227.5 lineto
44994.8 34227.5 lineto
45107.3 34283.8 lineto
45163.5 34396.2 lineto
45163.5 34452.5 lineto
45107.3 34565 lineto
44994.8 34621.2 lineto
44826.1 34621.2 lineto
44713.6 34677.5 lineto
44657.4 34789.9 lineto
44657.4 34846.2 lineto
44713.6 34958.7 lineto
44826.1 35014.9 lineto
44994.8 35014.9 lineto
45107.3 34958.7 lineto
stroke
newpath
45557.2 33777.6 moveto
45613.5 33833.8 lineto
45726 34002.5 lineto
45782.2 34115 lineto
45838.5 34283.8 lineto
45894.7 34565 lineto
45894.7 34789.9 lineto
45838.5 35071.2 lineto
45782.2 35239.9 lineto
45726 35352.4 lineto
45613.5 35521.1 lineto
45557.2 35577.3 lineto
stroke
newpath
19488.6 33734.3 moveto
19488.6 32671.3 lineto
stroke
newpath
18957.1 33202.8 moveto
20020.1 33202.8 lineto
stroke
0 0 0 setrgbcolor
0 0 0 setrgbcolor
newpath
21372.8 33849.6 moveto
21485.2 33849.6 lineto
21597.7 33793.3 lineto
21654 33737.1 lineto
21710.2 33624.6 lineto
21766.5 33399.6 lineto
21766.5 33118.4 lineto
21710.2 32893.4 lineto
21654 32780.9 lineto
21597.7 32724.7 lineto
21485.2 32668.5 lineto
21372.8 32668.5 lineto
21260.3 32724.7 lineto
21204 32780.9 lineto
21147.8 32893.4 lineto
21091.5 33118.4 lineto
21091.5 33399.6 lineto
21147.8 33624.6 lineto
21204 33737.1 lineto
21260.3 33793.3 lineto
21372.8 33849.6 lineto
stroke
newpath
22272.6 32780.9 moveto
22328.9 32724.7 lineto
22272.6 32668.5 lineto
22216.4 32724.7 lineto
22272.6 32780.9 lineto
22272.6 32668.5 lineto
stroke
newpath
22891.3 32668.5 moveto
23116.3 32668.5 lineto
23228.8 32724.7 lineto
23285 32780.9 lineto
23397.5 32949.7 lineto
23453.8 33174.6 lineto
23453.8 33624.6 lineto
23397.5 33737.1 lineto
23341.3 33793.3 lineto
23228.8 33849.6 lineto
23003.8 33849.6 lineto
22891.3 33793.3 lineto
22835.1 33737.1 lineto
22778.8 33624.6 lineto
22778.8 33343.4 lineto
22835.1 33230.9 lineto
22891.3 33174.6 lineto
23003.8 33118.4 lineto
23228.8 33118.4 lineto
23341.3 33174.6 lineto
23397.5 33230.9 lineto
23453.8 33343.4 lineto
stroke
newpath
24184.9 33849.6 moveto
24297.4 33849.6 lineto
24409.9 33793.3 lineto
24466.1 33737.1 lineto
24522.4 33624.6 lineto
24578.6 33399.6 lineto
24578.6 33118.4 lineto
24522.4 32893.4 lineto
24466.1 32780.9 lineto
24409.9 32724.7 lineto
24297.4 32668.5 lineto
24184.9 32668.5 lineto
24072.4 32724.7 lineto
24016.2 32780.9 lineto
23959.9 32893.4 lineto
23903.7 33118.4 lineto
23903.7 33399.6 lineto
23959.9 33624.6 lineto
24016.2 33737.1 lineto
24072.4 33793.3 lineto
24184.9 33849.6 lineto
stroke
newpath
25084.8 32668.5 moveto
25084.8 33455.9 lineto
stroke
newpath
25084.8 33343.4 moveto
25141 33399.6 lineto
25253.5 33455.9 lineto
25422.3 33455.9 lineto
25534.7 33399.6 lineto
25591 33287.1 lineto
25591 32668.5 lineto
stroke
newpath
25591 33287.1 moveto
25647.2 33399.6 lineto
25759.7 33455.9 lineto
25928.4 33455.9 lineto
26040.9 33399.6 lineto
26097.2 33287.1 lineto
26097.2 32668.5 lineto
stroke
newpath
26659.6 32668.5 moveto
26659.6 33455.9 lineto
stroke
newpath
26659.6 33343.4 moveto
26715.8 33399.6 lineto
26828.3 33455.9 lineto
26997.1 33455.9 lineto
27109.5 33399.6 lineto
27165.8 33287.1 lineto
27165.8 32668.5 lineto
stroke
newpath
27165.8 33287.1 moveto
27222 33399.6 lineto
27334.5 33455.9 lineto
27503.2 33455.9 lineto
27615.7 33399.6 lineto
27672 33287.1 lineto
27672 32668.5 lineto
stroke
newpath
29977.9 33905.8 moveto
28965.6 32387.2 lineto
stroke
newpath
31496.5 33849.6 moveto
31609 33849.6 lineto
31721.5 33793.3 lineto
31777.7 33737.1 lineto
31834 33624.6 lineto
31890.2 33399.6 lineto
31890.2 33118.4 lineto
31834 32893.4 lineto
31777.7 32780.9 lineto
31721.5 32724.7 lineto
31609 32668.5 lineto
31496.5 32668.5 lineto
31384 32724.7 lineto
31327.8 32780.9 lineto
31271.5 32893.4 lineto
31215.3 33118.4 lineto
31215.3 33399.6 lineto
31271.5 33624.6 lineto
31327.8 33737.1 lineto
31384 33793.3 lineto
31496.5 33849.6 lineto
stroke
newpath
32396.4 32780.9 moveto
32452.6 32724.7 lineto
32396.4 32668.5 lineto
32340.1 32724.7 lineto
32396.4 32780.9 lineto
32396.4 32668.5 lineto
stroke
newpath
33183.8 33849.6 moveto
33296.3 33849.6 lineto
33408.8 33793.3 lineto
33465 33737.1 lineto
33521.2 33624.6 lineto
33577.5 33399.6 lineto
33577.5 33118.4 lineto
33521.2 32893.4 lineto
33465 32780.9 lineto
33408.8 32724.7 lineto
33296.3 32668.5 lineto
33183.8 32668.5 lineto
33071.3 32724.7 lineto
33015.1 32780.9 lineto
32958.8 32893.4 lineto
32902.6 33118.4 lineto
32902.6 33399.6 lineto
32958.8 33624.6 lineto
33015.1 33737.1 lineto
33071.3 33793.3 lineto
33183.8 33849.6 lineto
stroke
newpath
33971.2 33849.6 moveto
34702.3 33849.6 lineto
34308.6 33399.6 lineto
34477.4 33399.6 lineto
34589.9 33343.4 lineto
34646.1 33287.1 lineto
34702.3 33174.6 lineto
34702.3 32893.4 lineto
34646.1 32780.9 lineto
34589.9 32724.7 lineto
34477.4 32668.5 lineto
34139.9 32668.5 lineto
34027.4 32724.7 lineto
33971.2 32780.9 lineto
stroke
newpath
35771 33849.6 moveto
35208.5 33849.6 lineto
35152.3 33287.1 lineto
35208.5 33343.4 lineto
35321 33399.6 lineto
35602.2 33399.6 lineto
35714.7 33343.4 lineto
35771 33287.1 lineto
35827.2 33174.6 lineto
35827.2 32893.4 lineto
35771 32780.9 lineto
35714.7 32724.7 lineto
35602.2 32668.5 lineto
35321 32668.5 lineto
35208.5 32724.7 lineto
35152.3 32780.9 lineto
stroke
newpath
36277.1 33849.6 moveto
36277.1 33624.6 lineto
stroke
newpath
36727.1 33849.6 moveto
36727.1 33624.6 lineto
stroke
newpath
38470.6 32218.5 moveto
38414.4 32274.8 lineto
38301.9 32443.5 lineto
38245.7 32556 lineto
38189.4 32724.7 lineto
38133.2 33005.9 lineto
38133.2 33230.9 lineto
38189.4 33512.1 lineto
38245.7 33680.8 lineto
38301.9 33793.3 lineto
38414.4 33962.1 lineto
38470.6 34018.3 lineto
stroke
newpath
39426.8 33455.9 moveto
39426.8 32668.5 lineto
stroke
newpath
39145.5 33905.8 moveto
38864.3 33062.2 lineto
39595.5 33062.2 lineto
stroke
newpath
40945.3 32668.5 moveto
40945.3 33849.6 lineto
stroke
newpath
41451.5 32668.5 moveto
41451.5 33287.1 lineto
41395.3 33399.6 lineto
41282.8 33455.9 lineto
41114 33455.9 lineto
41001.6 33399.6 lineto
40945.3 33343.4 lineto
stroke
newpath
42182.7 32668.5 moveto
42070.2 32724.7 lineto
42013.9 32780.9 lineto
41957.7 32893.4 lineto
41957.7 33230.9 lineto
42013.9 33343.4 lineto
42070.2 33399.6 lineto
42182.7 33455.9 lineto
42351.4 33455.9 lineto
42463.9 33399.6 lineto
42520.1 33343.4 lineto
42576.4 33230.9 lineto
42576.4 32893.4 lineto
42520.1 32780.9 lineto
42463.9 32724.7 lineto
42351.4 32668.5 lineto
42182.7 32668.5 lineto
stroke
newpath
43251.3 32668.5 moveto
43138.8 32724.7 lineto
43082.5 32837.2 lineto
43082.5 33849.6 lineto
stroke
newpath
44151.2 32724.7 moveto
44038.7 32668.5 lineto
43813.7 32668.5 lineto
43701.2 32724.7 lineto
43645 32837.2 lineto
43645 33287.1 lineto
43701.2 33399.6 lineto
43813.7 33455.9 lineto
44038.7 33455.9 lineto
44151.2 33399.6 lineto
44207.4 33287.1 lineto
44207.4 33174.6 lineto
43645 33062.2 lineto
stroke
newpath
44657.4 32724.7 moveto
44769.8 32668.5 lineto
44994.8 32668.5 lineto
45107.3 32724.7 lineto
45163.5 32837.2 lineto
45163.5 32893.4 lineto
45107.3 33005.9 lineto
44994.8 33062.2 lineto
44826.1 33062.2 lineto
44713.6 33118.4 lineto
44657.4 33230.9 lineto
44657.4 33287.1 lineto
44713.6 33399.6 lineto
44826.1 33455.9 lineto
44994.8 33455.9 lineto
45107.3 33399.6 lineto
stroke
newpath
45557.2 32218.5 moveto
45613.5 32274.8 lineto
45726 32443.5 lineto
45782.2 32556 lineto
45838.5 32724.7 lineto
45894.7 33005.9 lineto
45894.7 33230.9 lineto
45838.5 33512.1 lineto
45782.2 33680.8 lineto
45726 33793.3 lineto
45613.5 33962.1 lineto
45557.2 34018.3 lineto
stroke
newpath
19847.2 31210.4 moveto
19847.2 32045.6 lineto
19012 32045.6 lineto
19012 31210.4 lineto
19847.2 31210.4 lineto
poly0
0 0 0 setrgbcolor
0 0 0 setrgbcolor
newpath
21766.5 31093.7 moveto
21091.5 31093.7 lineto
stroke
newpath
21429 31093.7 moveto
21429 32274.8 lineto
21316.5 32106 lineto
21204 31993.5 lineto
21091.5 31937.3 lineto
stroke
newpath
22272.6 31206.1 moveto
22328.9 31149.9 lineto
22272.6 31093.7 lineto
22216.4 31149.9 lineto
22272.6 31206.1 lineto
22272.6 31093.7 lineto
stroke
newpath
23060 32274.8 moveto
23172.5 32274.8 lineto
23285 32218.5 lineto
23341.3 32162.3 lineto
23397.5 32049.8 lineto
23453.8 31824.8 lineto
23453.8 31543.6 lineto
23397.5 31318.6 lineto
23341.3 31206.1 lineto
23285 31149.9 lineto
23172.5 31093.7 lineto
23060 31093.7 lineto
22947.6 31149.9 lineto
22891.3 31206.1 lineto
22835.1 31318.6 lineto
22778.8 31543.6 lineto
22778.8 31824.8 lineto
22835.1 32049.8 lineto
22891.3 32162.3 lineto
22947.6 32218.5 lineto
23060 32274.8 lineto
stroke
newpath
24184.9 32274.8 moveto
24297.4 32274.8 lineto
24409.9 32218.5 lineto
24466.1 32162.3 lineto
24522.4 32049.8 lineto
24578.6 31824.8 lineto
24578.6 31543.6 lineto
24522.4 31318.6 lineto
24466.1 31206.1 lineto
24409.9 31149.9 lineto
24297.4 31093.7 lineto
24184.9 31093.7 lineto
24072.4 31149.9 lineto
24016.2 31206.1 lineto
23959.9 31318.6 lineto
23903.7 31543.6 lineto
23903.7 31824.8 lineto
23959.9 32049.8 lineto
24016.2 32162.3 lineto
24072.4 32218.5 lineto
24184.9 32274.8 lineto
stroke
newpath
25084.8 31093.7 moveto
25084.8 31881.1 lineto
stroke
newpath
25084.8 31768.6 moveto
25141 31824.8 lineto
25253.5 31881.1 lineto
25422.3 31881.1 lineto
25534.7 31824.8 lineto
25591 31712.3 lineto
25591 31093.7 lineto
stroke
newpath
25591 31712.3 moveto
25647.2 31824.8 lineto
25759.7 31881.1 lineto
25928.4 31881.1 lineto
26040.9 31824.8 lineto
26097.2 31712.3 lineto
26097.2 31093.7 lineto
stroke
newpath
26659.6 31093.7 moveto
26659.6 31881.1 lineto
stroke
newpath
26659.6 31768.6 moveto
26715.8 31824.8 lineto
26828.3 31881.1 lineto
26997.1 31881.1 lineto
27109.5 31824.8 lineto
27165.8 31712.3 lineto
27165.8 31093.7 lineto
stroke
newpath
27165.8 31712.3 moveto
27222 31824.8 lineto
27334.5 31881.1 lineto
27503.2 31881.1 lineto
27615.7 31824.8 lineto
27672 31712.3 lineto
27672 31093.7 lineto
stroke
newpath
29977.9 32331 moveto
28965.6 30812.4 lineto
stroke
newpath
31496.5 32274.8 moveto
31609 32274.8 lineto
31721.5 32218.5 lineto
31777.7 32162.3 lineto
31834 32049.8 lineto
31890.2 31824.8 lineto
31890.2 31543.6 lineto
31834 31318.6 lineto
31777.7 31206.1 lineto
31721.5 31149.9 lineto
31609 31093.7 lineto
31496.5 31093.7 lineto
31384 31149.9 lineto
31327.8 31206.1 lineto
31271.5 31318.6 lineto
31215.3 31543.6 lineto
31215.3 31824.8 lineto
31271.5 32049.8 lineto
31327.8 32162.3 lineto
31384 32218.5 lineto
31496.5 32274.8 lineto
stroke
newpath
32396.4 31206.1 moveto
32452.6 31149.9 lineto
32396.4 31093.7 lineto
32340.1 31149.9 lineto
32396.4 31206.1 lineto
32396.4 31093.7 lineto
stroke
newpath
33183.8 32274.8 moveto
33296.3 32274.8 lineto
33408.8 32218.5 lineto
33465 32162.3 lineto
33521.2 32049.8 lineto
33577.5 31824.8 lineto
33577.5 31543.6 lineto
33521.2 31318.6 lineto
33465 31206.1 lineto
33408.8 31149.9 lineto
33296.3 31093.7 lineto
33183.8 31093.7 lineto
33071.3 31149.9 lineto
33015.1 31206.1 lineto
32958.8 31318.6 lineto
32902.6 31543.6 lineto
32902.6 31824.8 lineto
32958.8 32049.8 lineto
33015.1 32162.3 lineto
33071.3 32218.5 lineto
33183.8 32274.8 lineto
stroke
newpath
33971.2 32274.8 moveto
34702.3 32274.8 lineto
34308.6 31824.8 lineto
34477.4 31824.8 lineto
34589.9 31768.6 lineto
34646.1 31712.3 lineto
34702.3 31599.8 lineto
34702.3 31318.6 lineto
34646.1 31206.1 lineto
34589.9 31149.9 lineto
34477.4 31093.7 lineto
34139.9 31093.7 lineto
34027.4 31149.9 lineto
33971.2 31206.1 lineto
stroke
newpath
35264.8 31093.7 moveto
35489.7 31093.7 lineto
35602.2 31149.9 lineto
35658.5 31206.1 lineto
35771 31374.9 lineto
35827.2 31599.8 lineto
35827.2 32049.8 lineto
35771 32162.3 lineto
35714.7 32218.5 lineto
35602.2 32274.8 lineto
35377.3 32274.8 lineto
35264.8 32218.5 lineto
35208.5 32162.3 lineto
35152.3 32049.8 lineto
35152.3 31768.6 lineto
35208.5 31656.1 lineto
35264.8 31599.8 lineto
35377.3 31543.6 lineto
35602.2 31543.6 lineto
35714.7 31599.8 lineto
35771 31656.1 lineto
35827.2 31768.6 lineto
stroke
newpath
36277.1 32274.8 moveto
36277.1 32049.8 lineto
stroke
newpath
36727.1 32274.8 moveto
36727.1 32049.8 lineto
stroke
newpath
38470.6 30643.7 moveto
38414.4 30700 lineto
38301.9 30868.7 lineto
38245.7 30981.2 lineto
38189.4 31149.9 lineto
38133.2 31431.1 lineto
38133.2 31656.1 lineto
38189.4 31937.3 lineto
38245.7 32106 lineto
38301.9 32218.5 lineto
38414.4 32387.2 lineto
38470.6 32443.5 lineto
stroke
newpath
39483 32274.8 moveto
38920.6 32274.8 lineto
38864.3 31712.3 lineto
38920.6 31768.6 lineto
39033.1 31824.8 lineto
39314.3 31824.8 lineto
39426.8 31768.6 lineto
39483 31712.3 lineto
39539.2 31599.8 lineto
39539.2 31318.6 lineto
39483 31206.1 lineto
39426.8 31149.9 lineto
39314.3 31093.7 lineto
39033.1 31093.7 lineto
38920.6 31149.9 lineto
38864.3 31206.1 lineto
stroke
newpath
40270.4 32274.8 moveto
40382.9 32274.8 lineto
40495.4 32218.5 lineto
40551.6 32162.3 lineto
40607.9 32049.8 lineto
40664.1 31824.8 lineto
40664.1 31543.6 lineto
40607.9 31318.6 lineto
40551.6 31206.1 lineto
40495.4 31149.9 lineto
40382.9 31093.7 lineto
40270.4 31093.7 lineto
40157.9 31149.9 lineto
40101.7 31206.1 lineto
40045.4 31318.6 lineto
39989.2 31543.6 lineto
39989.2 31824.8 lineto
40045.4 32049.8 lineto
40101.7 32162.3 lineto
40157.9 32218.5 lineto
40270.4 32274.8 lineto
stroke
newpath
42070.2 31093.7 moveto
42070.2 32274.8 lineto
stroke
newpath
42576.4 31093.7 moveto
42576.4 31712.3 lineto
42520.1 31824.8 lineto
42407.6 31881.1 lineto
42238.9 31881.1 lineto
42126.4 31824.8 lineto
42070.2 31768.6 lineto
stroke
newpath
43307.5 31093.7 moveto
43195 31149.9 lineto
43138.8 31206.1 lineto
43082.5 31318.6 lineto
43082.5 31656.1 lineto
43138.8 31768.6 lineto
43195 31824.8 lineto
43307.5 31881.1 lineto
43476.2 31881.1 lineto
43588.7 31824.8 lineto
43645 31768.6 lineto
43701.2 31656.1 lineto
43701.2 31318.6 lineto
43645 31206.1 lineto
43588.7 31149.9 lineto
43476.2 31093.7 lineto
43307.5 31093.7 lineto
stroke
newpath
44376.1 31093.7 moveto
44263.6 31149.9 lineto
44207.4 31262.4 lineto
44207.4 32274.8 lineto
stroke
newpath
45276 31149.9 moveto
45163.5 31093.7 lineto
44938.6 31093.7 lineto
44826.1 31149.9 lineto
44769.8 31262.4 lineto
44769.8 31712.3 lineto
44826.1 31824.8 lineto
44938.6 31881.1 lineto
45163.5 31881.1 lineto
45276 31824.8 lineto
45332.3 31712.3 lineto
45332.3 31599.8 lineto
44769.8 31487.4 lineto
stroke
newpath
45782.2 31149.9 moveto
45894.7 31093.7 lineto
46119.7 31093.7 lineto
46232.2 31149.9 lineto
46288.4 31262.4 lineto
46288.4 31318.6 lineto
46232.2 31431.1 lineto
46119.7 31487.4 lineto
45950.9 31487.4 lineto
45838.5 31543.6 lineto
45782.2 31656.1 lineto
45782.2 31712.3 lineto
45838.5 31824.8 lineto
45950.9 31881.1 lineto
46119.7 31881.1 lineto
46232.2 31824.8 lineto
stroke
newpath
46682.1 30643.7 moveto
46738.3 30700 lineto
46850.8 30868.7 lineto
46907.1 30981.2 lineto
46963.3 31149.9 lineto
47019.6 31431.1 lineto
47019.6 31656.1 lineto
46963.3 31937.3 lineto
46907.1 32106 lineto
46850.8 32218.5 lineto
46738.3 32387.2 lineto
46682.1 32443.5 lineto
stroke
showpage
grestore
%%EOF
