(kicad_pcb (version 20171130) (host pcbnew 5.0.2+dfsg1-1~bpo9+1)

  (general
    (thickness 1.6)
    (drawings 16)
    (tracks 108)
    (zones 0)
    (modules 13)
    (nets 42)
  )

  (page A4)
  (layers
    (0 F.Cu signal)
    (31 B.Cu signal)
    (34 B.Paste user hide)
    (35 F.Paste user)
    (36 B.SilkS user)
    (37 F.SilkS user hide)
    (38 B.Mask user)
    (39 F.Mask user)
    (40 Dwgs.User user)
    (41 Cmts.User user)
    (44 Edge.Cuts user)
    (48 B.Fab user)
    (49 F.Fab user)
  )

  (setup
    (last_trace_width 0.5)
    (user_trace_width 0.01)
    (user_trace_width 0.02)
    (user_trace_width 0.05)
    (user_trace_width 0.1)
    (user_trace_width 0.2)
    (trace_clearance 0.2)
    (zone_clearance 0.508)
    (zone_45_only no)
    (trace_min 0.01)
    (segment_width 0.2)
    (edge_width 0.1)
    (via_size 0.6)
    (via_drill 0.4)
    (via_min_size 0.4)
    (via_min_drill 0.3)
    (uvia_size 0.3)
    (uvia_drill 0.1)
    (uvias_allowed no)
    (uvia_min_size 0.2)
    (uvia_min_drill 0.1)
    (pcb_text_width 0.3)
    (pcb_text_size 1.5 1.5)
    (mod_edge_width 0.15)
    (mod_text_size 1 1)
    (mod_text_width 0.15)
    (pad_size 1.8 1.8)
    (pad_drill 0.9)
    (pad_to_mask_clearance 0)
    (solder_mask_min_width 0.25)
    (aux_axis_origin 0 0)
    (visible_elements 7FFFFFFF)
    (pcbplotparams
      (layerselection 0x01000_ffffffff)
      (usegerberextensions false)
      (usegerberattributes false)
      (usegerberadvancedattributes false)
      (creategerberjobfile false)
      (excludeedgelayer false)
      (linewidth 0.100000)
      (plotframeref false)
      (viasonmask false)
      (mode 1)
      (useauxorigin true)
      (hpglpennumber 1)
      (hpglpenspeed 20)
      (hpglpendiameter 15.000000)
      (psnegative false)
      (psa4output false)
      (plotreference false)
      (plotvalue false)
      (plotinvisibletext false)
      (padsonsilk true)
      (subtractmaskfromsilk false)
      (outputformat 1)
      (mirror false)
      (drillshape 0)
      (scaleselection 1)
      (outputdirectory "meta/fabSVG/"))
  )

  (net 0 "")
  (net 1 "Net-(J1-Pad2)")
  (net 2 "Net-(J1-Pad1)")
  (net 3 "Net-(J2-Pad3)")
  (net 4 "Net-(J2-Pad4)")
  (net 5 "Net-(J2-Pad5)")
  (net 6 "Net-(J2-Pad7)")
  (net 7 "Net-(J2-Pad8)")
  (net 8 "Net-(J2-Pad10)")
  (net 9 "Net-(J2-Pad11)")
  (net 10 "Net-(J2-Pad12)")
  (net 11 "Net-(J2-Pad13)")
  (net 12 "Net-(J2-Pad14)")
  (net 13 "Net-(J2-Pad15)")
  (net 14 "Net-(J2-Pad16)")
  (net 15 "Net-(J2-Pad17)")
  (net 16 "Net-(J2-Pad18)")
  (net 17 "Net-(J2-Pad19)")
  (net 18 "Net-(J2-Pad20)")
  (net 19 "Net-(J2-Pad21)")
  (net 20 "Net-(J2-Pad22)")
  (net 21 "Net-(J2-Pad23)")
  (net 22 "Net-(J2-Pad24)")
  (net 23 "Net-(J2-Pad25)")
  (net 24 "Net-(J2-Pad26)")
  (net 25 "Net-(J2-Pad27)")
  (net 26 "Net-(J2-Pad28)")
  (net 27 "Net-(J2-Pad29)")
  (net 28 "Net-(J2-Pad30)")
  (net 29 "Net-(J2-Pad31)")
  (net 30 "Net-(J2-Pad32)")
  (net 31 "Net-(J2-Pad33)")
  (net 32 "Net-(J2-Pad34)")
  (net 33 "Net-(J2-Pad35)")
  (net 34 "Net-(J2-Pad36)")
  (net 35 "Net-(J2-Pad37)")
  (net 36 "Net-(J2-Pad38)")
  (net 37 "Net-(J2-Pad40)")
  (net 38 GND)
  (net 39 "Net-(D1-Pad1)")
  (net 40 "Net-(D2-Pad1)")
  (net 41 "Net-(J2-Pad6)")

  (net_class Default "This is the default net class."
    (clearance 0.2)
    (trace_width 0.5)
    (via_dia 0.6)
    (via_drill 0.4)
    (uvia_dia 0.3)
    (uvia_drill 0.1)
    (add_net GND)
    (add_net "Net-(D1-Pad1)")
    (add_net "Net-(D2-Pad1)")
    (add_net "Net-(J1-Pad1)")
    (add_net "Net-(J1-Pad2)")
    (add_net "Net-(J2-Pad10)")
    (add_net "Net-(J2-Pad11)")
    (add_net "Net-(J2-Pad12)")
    (add_net "Net-(J2-Pad13)")
    (add_net "Net-(J2-Pad14)")
    (add_net "Net-(J2-Pad15)")
    (add_net "Net-(J2-Pad16)")
    (add_net "Net-(J2-Pad17)")
    (add_net "Net-(J2-Pad18)")
    (add_net "Net-(J2-Pad19)")
    (add_net "Net-(J2-Pad20)")
    (add_net "Net-(J2-Pad21)")
    (add_net "Net-(J2-Pad22)")
    (add_net "Net-(J2-Pad23)")
    (add_net "Net-(J2-Pad24)")
    (add_net "Net-(J2-Pad25)")
    (add_net "Net-(J2-Pad26)")
    (add_net "Net-(J2-Pad27)")
    (add_net "Net-(J2-Pad28)")
    (add_net "Net-(J2-Pad29)")
    (add_net "Net-(J2-Pad3)")
    (add_net "Net-(J2-Pad30)")
    (add_net "Net-(J2-Pad31)")
    (add_net "Net-(J2-Pad32)")
    (add_net "Net-(J2-Pad33)")
    (add_net "Net-(J2-Pad34)")
    (add_net "Net-(J2-Pad35)")
    (add_net "Net-(J2-Pad36)")
    (add_net "Net-(J2-Pad37)")
    (add_net "Net-(J2-Pad38)")
    (add_net "Net-(J2-Pad4)")
    (add_net "Net-(J2-Pad40)")
    (add_net "Net-(J2-Pad5)")
    (add_net "Net-(J2-Pad6)")
    (add_net "Net-(J2-Pad7)")
    (add_net "Net-(J2-Pad8)")
  )

  (module Button_Switch_THT:SW_PUSH-12mm (layer F.Cu) (tedit 5A02FE31) (tstamp 5D3FA65C)
    (at 30 51 90)
    (descr "SW PUSH 12mm https://www.e-switch.com/system/asset/product_line/data_sheet/143/TL1100.pdf")
    (tags "tact sw push 12mm")
    (path /5D331ADD)
    (fp_text reference SW1 (at 6.08 -4.66 90) (layer F.SilkS)
      (effects (font (size 1 1) (thickness 0.15)))
    )
    (fp_text value SW_Push (at 6.62 9.93 90) (layer F.Fab)
      (effects (font (size 1 1) (thickness 0.15)))
    )
    (fp_line (start 0.25 8.5) (end 12.25 8.5) (layer F.Fab) (width 0.1))
    (fp_line (start 0.25 -3.5) (end 12.25 -3.5) (layer F.Fab) (width 0.1))
    (fp_line (start 12.25 -3.5) (end 12.25 8.5) (layer F.Fab) (width 0.1))
    (fp_text user %R (at 6.35 2.54 90) (layer F.Fab)
      (effects (font (size 1 1) (thickness 0.15)))
    )
    (fp_line (start 0.1 -3.65) (end 12.4 -3.65) (layer F.SilkS) (width 0.12))
    (fp_line (start 12.4 0.93) (end 12.4 4.07) (layer F.SilkS) (width 0.12))
    (fp_line (start 12.4 8.65) (end 0.1 8.65) (layer F.SilkS) (width 0.12))
    (fp_line (start 0.1 -0.93) (end 0.1 -3.65) (layer F.SilkS) (width 0.12))
    (fp_line (start -1.77 -3.75) (end 14.25 -3.75) (layer F.CrtYd) (width 0.05))
    (fp_line (start -1.77 -3.75) (end -1.77 8.75) (layer F.CrtYd) (width 0.05))
    (fp_line (start 14.25 8.75) (end 14.25 -3.75) (layer F.CrtYd) (width 0.05))
    (fp_line (start 14.25 8.75) (end -1.77 8.75) (layer F.CrtYd) (width 0.05))
    (fp_circle (center 6.35 2.54) (end 10.16 5.08) (layer F.SilkS) (width 0.12))
    (fp_line (start 0.25 -3.5) (end 0.25 8.5) (layer F.Fab) (width 0.1))
    (fp_line (start 0.1 8.65) (end 0.1 5.93) (layer F.SilkS) (width 0.12))
    (fp_line (start 0.1 4.07) (end 0.1 0.93) (layer F.SilkS) (width 0.12))
    (fp_line (start 12.4 5.93) (end 12.4 8.65) (layer F.SilkS) (width 0.12))
    (fp_line (start 12.4 -3.65) (end 12.4 -0.93) (layer F.SilkS) (width 0.12))
    (pad 1 thru_hole oval (at 12.5 0 90) (size 3.048 1.7272) (drill 0.8128) (layers *.Cu *.Mask)
      (net 38 GND))
    (pad 2 thru_hole oval (at 12.5 5 90) (size 3.048 1.7272) (drill 0.8128) (layers *.Cu *.Mask)
      (net 9 "Net-(J2-Pad11)"))
    (pad 1 thru_hole oval (at 0 0 90) (size 3.048 1.7272) (drill 0.8128) (layers *.Cu *.Mask)
      (net 38 GND))
    (pad 2 thru_hole oval (at 0 5 90) (size 3.048 1.7272) (drill 0.8128) (layers *.Cu *.Mask)
      (net 9 "Net-(J2-Pad11)"))
    (model ${KISYS3DMOD}/Button_Switch_THT.3dshapes/SW_PUSH-12mm.wrl
      (at (xyz 0 0 0))
      (scale (xyz 1 1 1))
      (rotate (xyz 0 0 0))
    )
  )

  (module Connector_PinHeader_2.54mm:PinHeader_2x20_P2.54mm_Vertical (layer F.Cu) (tedit 59FED5CC) (tstamp 5D3FAD24)
    (at 20.87 29.27 90)
    (descr "Through hole straight pin header, 2x20, 2.54mm pitch, double rows")
    (tags "Through hole pin header THT 2x20 2.54mm double row")
    (path /5516AE26)
    (fp_text reference J2 (at 1.27 -2.33 90) (layer F.SilkS)
      (effects (font (size 1 1) (thickness 0.15)))
    )
    (fp_text value RPi_GPIO (at 1.27 50.59 90) (layer F.Fab)
      (effects (font (size 1 1) (thickness 0.15)))
    )
    (fp_text user %R (at 1.27 24.13 180) (layer F.Fab)
      (effects (font (size 1 1) (thickness 0.15)))
    )
    (fp_line (start 4.35 -1.8) (end -1.8 -1.8) (layer F.CrtYd) (width 0.05))
    (fp_line (start 4.35 50.05) (end 4.35 -1.8) (layer F.CrtYd) (width 0.05))
    (fp_line (start -1.8 50.05) (end 4.35 50.05) (layer F.CrtYd) (width 0.05))
    (fp_line (start -1.8 -1.8) (end -1.8 50.05) (layer F.CrtYd) (width 0.05))
    (fp_line (start -1.33 -1.33) (end 0 -1.33) (layer F.SilkS) (width 0.12))
    (fp_line (start -1.33 0) (end -1.33 -1.33) (layer F.SilkS) (width 0.12))
    (fp_line (start 1.27 -1.33) (end 3.87 -1.33) (layer F.SilkS) (width 0.12))
    (fp_line (start 1.27 1.27) (end 1.27 -1.33) (layer F.SilkS) (width 0.12))
    (fp_line (start -1.33 1.27) (end 1.27 1.27) (layer F.SilkS) (width 0.12))
    (fp_line (start 3.87 -1.33) (end 3.87 49.59) (layer F.SilkS) (width 0.12))
    (fp_line (start -1.33 1.27) (end -1.33 49.59) (layer F.SilkS) (width 0.12))
    (fp_line (start -1.33 49.59) (end 3.87 49.59) (layer F.SilkS) (width 0.12))
    (fp_line (start -1.27 0) (end 0 -1.27) (layer F.Fab) (width 0.1))
    (fp_line (start -1.27 49.53) (end -1.27 0) (layer F.Fab) (width 0.1))
    (fp_line (start 3.81 49.53) (end -1.27 49.53) (layer F.Fab) (width 0.1))
    (fp_line (start 3.81 -1.27) (end 3.81 49.53) (layer F.Fab) (width 0.1))
    (fp_line (start 0 -1.27) (end 3.81 -1.27) (layer F.Fab) (width 0.1))
    (pad 40 thru_hole oval (at 2.54 48.26 90) (size 1.7 1.7) (drill 1) (layers *.Cu *.Mask)
      (net 37 "Net-(J2-Pad40)"))
    (pad 39 thru_hole oval (at 0 48.26 90) (size 1.7 1.7) (drill 1) (layers *.Cu *.Mask)
      (net 38 GND))
    (pad 38 thru_hole oval (at 2.54 45.72 90) (size 1.7 1.7) (drill 1) (layers *.Cu *.Mask)
      (net 36 "Net-(J2-Pad38)"))
    (pad 37 thru_hole oval (at 0 45.72 90) (size 1.7 1.7) (drill 1) (layers *.Cu *.Mask)
      (net 35 "Net-(J2-Pad37)"))
    (pad 36 thru_hole oval (at 2.54 43.18 90) (size 1.7 1.7) (drill 1) (layers *.Cu *.Mask)
      (net 34 "Net-(J2-Pad36)"))
    (pad 35 thru_hole oval (at 0 43.18 90) (size 1.7 1.7) (drill 1) (layers *.Cu *.Mask)
      (net 33 "Net-(J2-Pad35)"))
    (pad 34 thru_hole oval (at 2.54 40.64 90) (size 1.7 1.7) (drill 1) (layers *.Cu *.Mask)
      (net 32 "Net-(J2-Pad34)"))
    (pad 33 thru_hole oval (at 0 40.64 90) (size 1.7 1.7) (drill 1) (layers *.Cu *.Mask)
      (net 31 "Net-(J2-Pad33)"))
    (pad 32 thru_hole oval (at 2.54 38.1 90) (size 1.7 1.7) (drill 1) (layers *.Cu *.Mask)
      (net 30 "Net-(J2-Pad32)"))
    (pad 31 thru_hole oval (at 0 38.1 90) (size 1.7 1.7) (drill 1) (layers *.Cu *.Mask)
      (net 29 "Net-(J2-Pad31)"))
    (pad 30 thru_hole oval (at 2.54 35.56 90) (size 1.7 1.7) (drill 1) (layers *.Cu *.Mask)
      (net 28 "Net-(J2-Pad30)"))
    (pad 29 thru_hole oval (at 0 35.56 90) (size 1.7 1.7) (drill 1) (layers *.Cu *.Mask)
      (net 27 "Net-(J2-Pad29)"))
    (pad 28 thru_hole oval (at 2.54 33.02 90) (size 1.7 1.7) (drill 1) (layers *.Cu *.Mask)
      (net 26 "Net-(J2-Pad28)"))
    (pad 27 thru_hole oval (at 0 33.02 90) (size 1.7 1.7) (drill 1) (layers *.Cu *.Mask)
      (net 25 "Net-(J2-Pad27)"))
    (pad 26 thru_hole oval (at 2.54 30.48 90) (size 1.7 1.7) (drill 1) (layers *.Cu *.Mask)
      (net 24 "Net-(J2-Pad26)"))
    (pad 25 thru_hole oval (at 0 30.48 90) (size 1.7 1.7) (drill 1) (layers *.Cu *.Mask)
      (net 23 "Net-(J2-Pad25)"))
    (pad 24 thru_hole oval (at 2.54 27.94 90) (size 1.7 1.7) (drill 1) (layers *.Cu *.Mask)
      (net 22 "Net-(J2-Pad24)"))
    (pad 23 thru_hole oval (at 0 27.94 90) (size 1.7 1.7) (drill 1) (layers *.Cu *.Mask)
      (net 21 "Net-(J2-Pad23)"))
    (pad 22 thru_hole oval (at 2.54 25.4 90) (size 1.7 1.7) (drill 1) (layers *.Cu *.Mask)
      (net 20 "Net-(J2-Pad22)"))
    (pad 21 thru_hole oval (at 0 25.4 90) (size 1.7 1.7) (drill 1) (layers *.Cu *.Mask)
      (net 19 "Net-(J2-Pad21)"))
    (pad 20 thru_hole oval (at 2.54 22.86 90) (size 1.7 1.7) (drill 1) (layers *.Cu *.Mask)
      (net 18 "Net-(J2-Pad20)"))
    (pad 19 thru_hole oval (at 0 22.86 90) (size 1.7 1.7) (drill 1) (layers *.Cu *.Mask)
      (net 17 "Net-(J2-Pad19)"))
    (pad 18 thru_hole oval (at 2.54 20.32 90) (size 1.7 1.7) (drill 1) (layers *.Cu *.Mask)
      (net 16 "Net-(J2-Pad18)"))
    (pad 17 thru_hole oval (at 0 20.32 90) (size 1.7 1.7) (drill 1) (layers *.Cu *.Mask)
      (net 15 "Net-(J2-Pad17)"))
    (pad 16 thru_hole oval (at 2.54 17.78 90) (size 1.7 1.7) (drill 1) (layers *.Cu *.Mask)
      (net 14 "Net-(J2-Pad16)"))
    (pad 15 thru_hole oval (at 0 17.78 90) (size 1.7 1.7) (drill 1) (layers *.Cu *.Mask)
      (net 13 "Net-(J2-Pad15)"))
    (pad 14 thru_hole oval (at 2.54 15.24 90) (size 1.7 1.7) (drill 1) (layers *.Cu *.Mask)
      (net 12 "Net-(J2-Pad14)"))
    (pad 13 thru_hole oval (at 0 15.24 90) (size 1.7 1.7) (drill 1) (layers *.Cu *.Mask)
      (net 11 "Net-(J2-Pad13)"))
    (pad 12 thru_hole oval (at 2.54 12.7 90) (size 1.7 1.7) (drill 1) (layers *.Cu *.Mask)
      (net 10 "Net-(J2-Pad12)"))
    (pad 11 thru_hole oval (at 0 12.7 90) (size 1.7 1.7) (drill 1) (layers *.Cu *.Mask)
      (net 9 "Net-(J2-Pad11)"))
    (pad 10 thru_hole oval (at 2.54 10.16 90) (size 1.7 1.7) (drill 1) (layers *.Cu *.Mask)
      (net 8 "Net-(J2-Pad10)"))
    (pad 9 thru_hole oval (at 0 10.16 90) (size 1.7 1.7) (drill 1) (layers *.Cu *.Mask)
      (net 38 GND))
    (pad 8 thru_hole oval (at 2.54 7.62 90) (size 1.7 1.7) (drill 1) (layers *.Cu *.Mask)
      (net 7 "Net-(J2-Pad8)"))
    (pad 7 thru_hole oval (at 0 7.62 90) (size 1.7 1.7) (drill 1) (layers *.Cu *.Mask)
      (net 6 "Net-(J2-Pad7)"))
    (pad 6 thru_hole oval (at 2.54 5.08 90) (size 1.7 1.7) (drill 1) (layers *.Cu *.Mask)
      (net 41 "Net-(J2-Pad6)"))
    (pad 5 thru_hole oval (at 0 5.08 90) (size 1.7 1.7) (drill 1) (layers *.Cu *.Mask)
      (net 5 "Net-(J2-Pad5)"))
    (pad 4 thru_hole oval (at 2.54 2.54 90) (size 1.7 1.7) (drill 1) (layers *.Cu *.Mask)
      (net 4 "Net-(J2-Pad4)"))
    (pad 3 thru_hole oval (at 0 2.54 90) (size 1.7 1.7) (drill 1) (layers *.Cu *.Mask)
      (net 3 "Net-(J2-Pad3)"))
    (pad 2 thru_hole oval (at 2.54 0 90) (size 1.7 1.7) (drill 1) (layers *.Cu *.Mask)
      (net 2 "Net-(J1-Pad1)"))
    (pad 1 thru_hole rect (at 0 0 90) (size 1.7 1.7) (drill 1) (layers *.Cu *.Mask)
      (net 1 "Net-(J1-Pad2)"))
    (model ${KISYS3DMOD}/Connector_PinHeader_2.54mm.3dshapes/PinHeader_2x20_P2.54mm_Vertical.wrl
      (at (xyz 0 0 0))
      (scale (xyz 1 1 1))
      (rotate (xyz 0 0 0))
    )
  )

  (module RPi_Hat:RPi_Hat_Mounting_Hole locked (layer F.Cu) (tedit 55217CCB) (tstamp 58B743A7)
    (at 16 51)
    (descr "Mounting hole, Befestigungsbohrung, 2,7mm, No Annular, Kein Restring,")
    (tags "Mounting hole, Befestigungsbohrung, 2,7mm, No Annular, Kein Restring,")
    (fp_text reference "" (at 0 -4.0005) (layer F.SilkS) hide
      (effects (font (size 1 1) (thickness 0.15)))
    )
    (fp_text value "" (at 0.09906 3.59918) (layer F.Fab) hide
      (effects (font (size 1 1) (thickness 0.15)))
    )
    (fp_circle (center 0 0) (end 1.375 0) (layer F.Fab) (width 0.15))
    (fp_circle (center 0 0) (end 3.1 0) (layer F.Fab) (width 0.15))
    (fp_circle (center 0 0) (end 3.1 0) (layer B.Fab) (width 0.15))
    (fp_circle (center 0 0) (end 1.375 0) (layer B.Fab) (width 0.15))
    (fp_circle (center 0 0) (end 3.1 0) (layer F.CrtYd) (width 0.15))
    (fp_circle (center 0 0) (end 3.1 0) (layer B.CrtYd) (width 0.15))
    (pad "" np_thru_hole circle (at 0 0) (size 2.75 2.75) (drill 2.75) (layers *.Cu *.Mask)
      (solder_mask_margin 1.725) (clearance 1.725))
  )

  (module RPi_Hat:RPi_Hat_Mounting_Hole locked (layer F.Cu) (tedit 55217C7B) (tstamp 5515DEA9)
    (at 74 28)
    (descr "Mounting hole, Befestigungsbohrung, 2,7mm, No Annular, Kein Restring,")
    (tags "Mounting hole, Befestigungsbohrung, 2,7mm, No Annular, Kein Restring,")
    (fp_text reference "" (at 0 -4.0005) (layer F.SilkS) hide
      (effects (font (size 1 1) (thickness 0.15)))
    )
    (fp_text value "" (at 0.09906 3.59918) (layer F.Fab) hide
      (effects (font (size 1 1) (thickness 0.15)))
    )
    (fp_circle (center 0 0) (end 1.375 0) (layer F.Fab) (width 0.15))
    (fp_circle (center 0 0) (end 3.1 0) (layer F.Fab) (width 0.15))
    (fp_circle (center 0 0) (end 3.1 0) (layer B.Fab) (width 0.15))
    (fp_circle (center 0 0) (end 1.375 0) (layer B.Fab) (width 0.15))
    (fp_circle (center 0 0) (end 3.1 0) (layer F.CrtYd) (width 0.15))
    (fp_circle (center 0 0) (end 3.1 0) (layer B.CrtYd) (width 0.15))
    (pad "" np_thru_hole circle (at 0 0) (size 2.75 2.75) (drill 2.75) (layers *.Cu *.Mask)
      (solder_mask_margin 1.725) (clearance 1.725))
  )

  (module RPi_Hat:RPi_Hat_Mounting_Hole locked (layer F.Cu) (tedit 55217CCB) (tstamp 55169DC9)
    (at 74 51)
    (descr "Mounting hole, Befestigungsbohrung, 2,7mm, No Annular, Kein Restring,")
    (tags "Mounting hole, Befestigungsbohrung, 2,7mm, No Annular, Kein Restring,")
    (fp_text reference "" (at 0 -4.0005) (layer F.SilkS) hide
      (effects (font (size 1 1) (thickness 0.15)))
    )
    (fp_text value "" (at 0.09906 3.59918) (layer F.Fab) hide
      (effects (font (size 1 1) (thickness 0.15)))
    )
    (fp_circle (center 0 0) (end 1.375 0) (layer F.Fab) (width 0.15))
    (fp_circle (center 0 0) (end 3.1 0) (layer F.Fab) (width 0.15))
    (fp_circle (center 0 0) (end 3.1 0) (layer B.Fab) (width 0.15))
    (fp_circle (center 0 0) (end 1.375 0) (layer B.Fab) (width 0.15))
    (fp_circle (center 0 0) (end 3.1 0) (layer F.CrtYd) (width 0.15))
    (fp_circle (center 0 0) (end 3.1 0) (layer B.CrtYd) (width 0.15))
    (pad "" np_thru_hole circle (at 0 0) (size 2.75 2.75) (drill 2.75) (layers *.Cu *.Mask)
      (solder_mask_margin 1.725) (clearance 1.725))
  )

  (module RPi_Hat:RPi_Hat_Mounting_Hole locked (layer F.Cu) (tedit 55217CA2) (tstamp 5515DEBF)
    (at 16 28)
    (descr "Mounting hole, Befestigungsbohrung, 2,7mm, No Annular, Kein Restring,")
    (tags "Mounting hole, Befestigungsbohrung, 2,7mm, No Annular, Kein Restring,")
    (fp_text reference "" (at 0 -4.0005) (layer F.SilkS) hide
      (effects (font (size 1 1) (thickness 0.15)))
    )
    (fp_text value "" (at 0.09906 3.59918) (layer F.Fab) hide
      (effects (font (size 1 1) (thickness 0.15)))
    )
    (fp_circle (center 0 0) (end 1.375 0) (layer F.Fab) (width 0.15))
    (fp_circle (center 0 0) (end 3.1 0) (layer F.Fab) (width 0.15))
    (fp_circle (center 0 0) (end 3.1 0) (layer B.Fab) (width 0.15))
    (fp_circle (center 0 0) (end 1.375 0) (layer B.Fab) (width 0.15))
    (fp_circle (center 0 0) (end 3.1 0) (layer F.CrtYd) (width 0.15))
    (fp_circle (center 0 0) (end 3.1 0) (layer B.CrtYd) (width 0.15))
    (pad "" np_thru_hole circle (at 0 0) (size 2.75 2.75) (drill 2.75) (layers *.Cu *.Mask)
      (solder_mask_margin 1.725) (clearance 1.725))
  )

  (module LED_THT:LED_D3.0mm (layer F.Cu) (tedit 5D39C1C4) (tstamp 5D3FA601)
    (at 47.46 50)
    (descr "LED, diameter 3.0mm, 2 pins")
    (tags "LED diameter 3.0mm 2 pins")
    (path /5D331CBE)
    (fp_text reference D1 (at 1.27 -2.96) (layer F.SilkS)
      (effects (font (size 1 1) (thickness 0.15)))
    )
    (fp_text value LED (at 1.27 2.96) (layer F.Fab)
      (effects (font (size 1 1) (thickness 0.15)))
    )
    (fp_line (start 3.7 -2.25) (end -1.15 -2.25) (layer F.CrtYd) (width 0.05))
    (fp_line (start 3.7 2.25) (end 3.7 -2.25) (layer F.CrtYd) (width 0.05))
    (fp_line (start -1.15 2.25) (end 3.7 2.25) (layer F.CrtYd) (width 0.05))
    (fp_line (start -1.15 -2.25) (end -1.15 2.25) (layer F.CrtYd) (width 0.05))
    (fp_line (start -0.29 1.08) (end -0.29 1.236) (layer F.SilkS) (width 0.12))
    (fp_line (start -0.29 -1.236) (end -0.29 -1.08) (layer F.SilkS) (width 0.12))
    (fp_line (start -0.23 -1.16619) (end -0.23 1.16619) (layer F.Fab) (width 0.1))
    (fp_circle (center 1.27 0) (end 2.77 0) (layer F.Fab) (width 0.1))
    (fp_arc (start 1.27 0) (end 0.229039 1.08) (angle -87.9) (layer F.SilkS) (width 0.12))
    (fp_arc (start 1.27 0) (end 0.229039 -1.08) (angle 87.9) (layer F.SilkS) (width 0.12))
    (fp_arc (start 1.27 0) (end -0.29 1.235516) (angle -108.8) (layer F.SilkS) (width 0.12))
    (fp_arc (start 1.27 0) (end -0.29 -1.235516) (angle 108.8) (layer F.SilkS) (width 0.12))
    (fp_arc (start 1.27 0) (end -0.23 -1.16619) (angle 284.3) (layer F.Fab) (width 0.1))
    (pad 2 thru_hole circle (at 2.54 0) (size 1.8 1.8) (drill 0.9) (layers *.Cu *.Mask)
      (net 38 GND) (zone_connect 1) (thermal_width 1) (thermal_gap 1))
    (pad 1 thru_hole rect (at 0 0) (size 1.8 1.8) (drill 0.9) (layers *.Cu *.Mask)
      (net 39 "Net-(D1-Pad1)"))
    (model ${KISYS3DMOD}/LED_THT.3dshapes/LED_D3.0mm.wrl
      (at (xyz 0 0 0))
      (scale (xyz 1 1 1))
      (rotate (xyz 0 0 0))
    )
  )

  (module LED_THT:LED_D3.0mm (layer F.Cu) (tedit 587A3A7B) (tstamp 5D3FA614)
    (at 41.46 50)
    (descr "LED, diameter 3.0mm, 2 pins")
    (tags "LED diameter 3.0mm 2 pins")
    (path /5D331A0D)
    (fp_text reference D2 (at 1.27 -2.96) (layer F.SilkS)
      (effects (font (size 1 1) (thickness 0.15)))
    )
    (fp_text value LED (at 1.27 2.96) (layer F.Fab)
      (effects (font (size 1 1) (thickness 0.15)))
    )
    (fp_arc (start 1.27 0) (end -0.23 -1.16619) (angle 284.3) (layer F.Fab) (width 0.1))
    (fp_arc (start 1.27 0) (end -0.29 -1.235516) (angle 108.8) (layer F.SilkS) (width 0.12))
    (fp_arc (start 1.27 0) (end -0.29 1.235516) (angle -108.8) (layer F.SilkS) (width 0.12))
    (fp_arc (start 1.27 0) (end 0.229039 -1.08) (angle 87.9) (layer F.SilkS) (width 0.12))
    (fp_arc (start 1.27 0) (end 0.229039 1.08) (angle -87.9) (layer F.SilkS) (width 0.12))
    (fp_circle (center 1.27 0) (end 2.77 0) (layer F.Fab) (width 0.1))
    (fp_line (start -0.23 -1.16619) (end -0.23 1.16619) (layer F.Fab) (width 0.1))
    (fp_line (start -0.29 -1.236) (end -0.29 -1.08) (layer F.SilkS) (width 0.12))
    (fp_line (start -0.29 1.08) (end -0.29 1.236) (layer F.SilkS) (width 0.12))
    (fp_line (start -1.15 -2.25) (end -1.15 2.25) (layer F.CrtYd) (width 0.05))
    (fp_line (start -1.15 2.25) (end 3.7 2.25) (layer F.CrtYd) (width 0.05))
    (fp_line (start 3.7 2.25) (end 3.7 -2.25) (layer F.CrtYd) (width 0.05))
    (fp_line (start 3.7 -2.25) (end -1.15 -2.25) (layer F.CrtYd) (width 0.05))
    (pad 1 thru_hole rect (at 0 0) (size 1.8 1.8) (drill 0.9) (layers *.Cu *.Mask)
      (net 40 "Net-(D2-Pad1)"))
    (pad 2 thru_hole circle (at 2.54 0) (size 1.8 1.8) (drill 0.9) (layers *.Cu *.Mask)
      (net 38 GND))
    (model ${KISYS3DMOD}/LED_THT.3dshapes/LED_D3.0mm.wrl
      (at (xyz 0 0 0))
      (scale (xyz 1 1 1))
      (rotate (xyz 0 0 0))
    )
  )

  (module Resistor_THT:R_Axial_DIN0309_L9.0mm_D3.2mm_P12.70mm_Horizontal (layer F.Cu) (tedit 5AE5139B) (tstamp 5D3FA62B)
    (at 49 46 90)
    (descr "Resistor, Axial_DIN0309 series, Axial, Horizontal, pin pitch=12.7mm, 0.5W = 1/2W, length*diameter=9*3.2mm^2, http://cdn-reichelt.de/documents/datenblatt/B400/1_4W%23YAG.pdf")
    (tags "Resistor Axial_DIN0309 series Axial Horizontal pin pitch 12.7mm 0.5W = 1/2W length 9mm diameter 3.2mm")
    (path /5D331899)
    (fp_text reference R1 (at 6.35 -2.72 90) (layer F.SilkS)
      (effects (font (size 1 1) (thickness 0.15)))
    )
    (fp_text value R (at 6.35 2.72 90) (layer F.Fab)
      (effects (font (size 1 1) (thickness 0.15)))
    )
    (fp_line (start 1.85 -1.6) (end 1.85 1.6) (layer F.Fab) (width 0.1))
    (fp_line (start 1.85 1.6) (end 10.85 1.6) (layer F.Fab) (width 0.1))
    (fp_line (start 10.85 1.6) (end 10.85 -1.6) (layer F.Fab) (width 0.1))
    (fp_line (start 10.85 -1.6) (end 1.85 -1.6) (layer F.Fab) (width 0.1))
    (fp_line (start 0 0) (end 1.85 0) (layer F.Fab) (width 0.1))
    (fp_line (start 12.7 0) (end 10.85 0) (layer F.Fab) (width 0.1))
    (fp_line (start 1.73 -1.72) (end 1.73 1.72) (layer F.SilkS) (width 0.12))
    (fp_line (start 1.73 1.72) (end 10.97 1.72) (layer F.SilkS) (width 0.12))
    (fp_line (start 10.97 1.72) (end 10.97 -1.72) (layer F.SilkS) (width 0.12))
    (fp_line (start 10.97 -1.72) (end 1.73 -1.72) (layer F.SilkS) (width 0.12))
    (fp_line (start 1.04 0) (end 1.73 0) (layer F.SilkS) (width 0.12))
    (fp_line (start 11.66 0) (end 10.97 0) (layer F.SilkS) (width 0.12))
    (fp_line (start -1.05 -1.85) (end -1.05 1.85) (layer F.CrtYd) (width 0.05))
    (fp_line (start -1.05 1.85) (end 13.75 1.85) (layer F.CrtYd) (width 0.05))
    (fp_line (start 13.75 1.85) (end 13.75 -1.85) (layer F.CrtYd) (width 0.05))
    (fp_line (start 13.75 -1.85) (end -1.05 -1.85) (layer F.CrtYd) (width 0.05))
    (fp_text user %R (at 6.35 0 90) (layer F.Fab)
      (effects (font (size 1 1) (thickness 0.15)))
    )
    (pad 1 thru_hole circle (at 0 0 90) (size 1.6 1.6) (drill 0.8) (layers *.Cu *.Mask)
      (net 39 "Net-(D1-Pad1)"))
    (pad 2 thru_hole oval (at 12.7 0 90) (size 1.6 1.6) (drill 0.8) (layers *.Cu *.Mask)
      (net 13 "Net-(J2-Pad15)"))
    (model ${KISYS3DMOD}/Resistor_THT.3dshapes/R_Axial_DIN0309_L9.0mm_D3.2mm_P12.70mm_Horizontal.wrl
      (at (xyz 0 0 0))
      (scale (xyz 1 1 1))
      (rotate (xyz 0 0 0))
    )
  )

  (module Resistor_THT:R_Axial_DIN0309_L9.0mm_D3.2mm_P12.70mm_Horizontal (layer F.Cu) (tedit 5AE5139B) (tstamp 5D3FA642)
    (at 43 46 90)
    (descr "Resistor, Axial_DIN0309 series, Axial, Horizontal, pin pitch=12.7mm, 0.5W = 1/2W, length*diameter=9*3.2mm^2, http://cdn-reichelt.de/documents/datenblatt/B400/1_4W%23YAG.pdf")
    (tags "Resistor Axial_DIN0309 series Axial Horizontal pin pitch 12.7mm 0.5W = 1/2W length 9mm diameter 3.2mm")
    (path /5D33197B)
    (fp_text reference R2 (at 6.35 -2.72 90) (layer F.SilkS)
      (effects (font (size 1 1) (thickness 0.15)))
    )
    (fp_text value R (at 6.35 2.72 90) (layer F.Fab)
      (effects (font (size 1 1) (thickness 0.15)))
    )
    (fp_text user %R (at 6.074999 -0.425001 90) (layer F.Fab)
      (effects (font (size 1 1) (thickness 0.15)))
    )
    (fp_line (start 13.75 -1.85) (end -1.05 -1.85) (layer F.CrtYd) (width 0.05))
    (fp_line (start 13.75 1.85) (end 13.75 -1.85) (layer F.CrtYd) (width 0.05))
    (fp_line (start -1.05 1.85) (end 13.75 1.85) (layer F.CrtYd) (width 0.05))
    (fp_line (start -1.05 -1.85) (end -1.05 1.85) (layer F.CrtYd) (width 0.05))
    (fp_line (start 11.66 0) (end 10.97 0) (layer F.SilkS) (width 0.12))
    (fp_line (start 1.04 0) (end 1.73 0) (layer F.SilkS) (width 0.12))
    (fp_line (start 10.97 -1.72) (end 1.73 -1.72) (layer F.SilkS) (width 0.12))
    (fp_line (start 10.97 1.72) (end 10.97 -1.72) (layer F.SilkS) (width 0.12))
    (fp_line (start 1.73 1.72) (end 10.97 1.72) (layer F.SilkS) (width 0.12))
    (fp_line (start 1.73 -1.72) (end 1.73 1.72) (layer F.SilkS) (width 0.12))
    (fp_line (start 12.7 0) (end 10.85 0) (layer F.Fab) (width 0.1))
    (fp_line (start 0 0) (end 1.85 0) (layer F.Fab) (width 0.1))
    (fp_line (start 10.85 -1.6) (end 1.85 -1.6) (layer F.Fab) (width 0.1))
    (fp_line (start 10.85 1.6) (end 10.85 -1.6) (layer F.Fab) (width 0.1))
    (fp_line (start 1.85 1.6) (end 10.85 1.6) (layer F.Fab) (width 0.1))
    (fp_line (start 1.85 -1.6) (end 1.85 1.6) (layer F.Fab) (width 0.1))
    (pad 2 thru_hole oval (at 12.7 0 90) (size 1.6 1.6) (drill 0.8) (layers *.Cu *.Mask)
      (net 11 "Net-(J2-Pad13)"))
    (pad 1 thru_hole circle (at 0 0 90) (size 1.6 1.6) (drill 0.8) (layers *.Cu *.Mask)
      (net 40 "Net-(D2-Pad1)"))
    (model ${KISYS3DMOD}/Resistor_THT.3dshapes/R_Axial_DIN0309_L9.0mm_D3.2mm_P12.70mm_Horizontal.wrl
      (at (xyz 0 0 0))
      (scale (xyz 1 1 1))
      (rotate (xyz 0 0 0))
    )
  )

  (module Connector_PinHeader_2.54mm:PinHeader_1x05_P2.54mm_Vertical (layer F.Cu) (tedit 59FED5CC) (tstamp 5D3FAA74)
    (at 74 45 180)
    (descr "Through hole straight pin header, 1x05, 2.54mm pitch, single row")
    (tags "Through hole pin header THT 1x05 2.54mm single row")
    (path /5D3344D6)
    (fp_text reference J3 (at 0 -2.33 180) (layer F.SilkS)
      (effects (font (size 1 1) (thickness 0.15)))
    )
    (fp_text value Conn_01x05_Male (at 0 12.49 180) (layer F.Fab)
      (effects (font (size 1 1) (thickness 0.15)))
    )
    (fp_line (start -0.635 -1.27) (end 1.27 -1.27) (layer F.Fab) (width 0.1))
    (fp_line (start 1.27 -1.27) (end 1.27 11.43) (layer F.Fab) (width 0.1))
    (fp_line (start 1.27 11.43) (end -1.27 11.43) (layer F.Fab) (width 0.1))
    (fp_line (start -1.27 11.43) (end -1.27 -0.635) (layer F.Fab) (width 0.1))
    (fp_line (start -1.27 -0.635) (end -0.635 -1.27) (layer F.Fab) (width 0.1))
    (fp_line (start -1.33 11.49) (end 1.33 11.49) (layer F.SilkS) (width 0.12))
    (fp_line (start -1.33 1.27) (end -1.33 11.49) (layer F.SilkS) (width 0.12))
    (fp_line (start 1.33 1.27) (end 1.33 11.49) (layer F.SilkS) (width 0.12))
    (fp_line (start -1.33 1.27) (end 1.33 1.27) (layer F.SilkS) (width 0.12))
    (fp_line (start -1.33 0) (end -1.33 -1.33) (layer F.SilkS) (width 0.12))
    (fp_line (start -1.33 -1.33) (end 0 -1.33) (layer F.SilkS) (width 0.12))
    (fp_line (start -1.8 -1.8) (end -1.8 11.95) (layer F.CrtYd) (width 0.05))
    (fp_line (start -1.8 11.95) (end 1.8 11.95) (layer F.CrtYd) (width 0.05))
    (fp_line (start 1.8 11.95) (end 1.8 -1.8) (layer F.CrtYd) (width 0.05))
    (fp_line (start 1.8 -1.8) (end -1.8 -1.8) (layer F.CrtYd) (width 0.05))
    (fp_text user %R (at 0 5.08 270) (layer F.Fab)
      (effects (font (size 1 1) (thickness 0.15)))
    )
    (pad 1 thru_hole rect (at 0 0 180) (size 1.7 1.7) (drill 1) (layers *.Cu *.Mask)
      (net 27 "Net-(J2-Pad29)"))
    (pad 2 thru_hole oval (at 0 2.54 180) (size 1.7 1.7) (drill 1) (layers *.Cu *.Mask)
      (net 29 "Net-(J2-Pad31)"))
    (pad 3 thru_hole oval (at 0 5.08 180) (size 1.7 1.7) (drill 1) (layers *.Cu *.Mask)
      (net 31 "Net-(J2-Pad33)"))
    (pad 4 thru_hole oval (at 0 7.62 180) (size 1.7 1.7) (drill 1) (layers *.Cu *.Mask)
      (net 33 "Net-(J2-Pad35)"))
    (pad 5 thru_hole oval (at 0 10.16 180) (size 1.7 1.7) (drill 1) (layers *.Cu *.Mask)
      (net 35 "Net-(J2-Pad37)"))
    (model ${KISYS3DMOD}/Connector_PinHeader_2.54mm.3dshapes/PinHeader_1x05_P2.54mm_Vertical.wrl
      (at (xyz 0 0 0))
      (scale (xyz 1 1 1))
      (rotate (xyz 0 0 0))
    )
  )

  (module Connector_PinHeader_2.54mm:PinHeader_1x02_P2.54mm_Vertical (layer F.Cu) (tedit 59FED5CC) (tstamp 5D3FAA8A)
    (at 16.07 43.81)
    (descr "Through hole straight pin header, 1x02, 2.54mm pitch, single row")
    (tags "Through hole pin header THT 1x02 2.54mm single row")
    (path /5D3343BF)
    (fp_text reference J4 (at 0 -2.33) (layer F.SilkS)
      (effects (font (size 1 1) (thickness 0.15)))
    )
    (fp_text value Conn_01x02_Male (at 0 4.87 90) (layer F.Fab)
      (effects (font (size 1 1) (thickness 0.15)))
    )
    (fp_line (start -0.635 -1.27) (end 1.27 -1.27) (layer F.Fab) (width 0.1))
    (fp_line (start 1.27 -1.27) (end 1.27 3.81) (layer F.Fab) (width 0.1))
    (fp_line (start 1.27 3.81) (end -1.27 3.81) (layer F.Fab) (width 0.1))
    (fp_line (start -1.27 3.81) (end -1.27 -0.635) (layer F.Fab) (width 0.1))
    (fp_line (start -1.27 -0.635) (end -0.635 -1.27) (layer F.Fab) (width 0.1))
    (fp_line (start -1.33 3.87) (end 1.33 3.87) (layer F.SilkS) (width 0.12))
    (fp_line (start -1.33 1.27) (end -1.33 3.87) (layer F.SilkS) (width 0.12))
    (fp_line (start 1.33 1.27) (end 1.33 3.87) (layer F.SilkS) (width 0.12))
    (fp_line (start -1.33 1.27) (end 1.33 1.27) (layer F.SilkS) (width 0.12))
    (fp_line (start -1.33 0) (end -1.33 -1.33) (layer F.SilkS) (width 0.12))
    (fp_line (start -1.33 -1.33) (end 0 -1.33) (layer F.SilkS) (width 0.12))
    (fp_line (start -1.8 -1.8) (end -1.8 4.35) (layer F.CrtYd) (width 0.05))
    (fp_line (start -1.8 4.35) (end 1.8 4.35) (layer F.CrtYd) (width 0.05))
    (fp_line (start 1.8 4.35) (end 1.8 -1.8) (layer F.CrtYd) (width 0.05))
    (fp_line (start 1.8 -1.8) (end -1.8 -1.8) (layer F.CrtYd) (width 0.05))
    (fp_text user %R (at -1 1.54 90) (layer F.Fab)
      (effects (font (size 1 1) (thickness 0.15)))
    )
    (pad 1 thru_hole rect (at 0 0) (size 1.7 1.7) (drill 1) (layers *.Cu *.Mask)
      (net 3 "Net-(J2-Pad3)"))
    (pad 2 thru_hole oval (at 0 2.54) (size 1.7 1.7) (drill 1) (layers *.Cu *.Mask)
      (net 5 "Net-(J2-Pad5)"))
    (model ${KISYS3DMOD}/Connector_PinHeader_2.54mm.3dshapes/PinHeader_1x02_P2.54mm_Vertical.wrl
      (at (xyz 0 0 0))
      (scale (xyz 1 1 1))
      (rotate (xyz 0 0 0))
    )
  )

  (module Connector_PinHeader_2.54mm:PinHeader_1x03_P2.54mm_Vertical locked (layer B.Cu) (tedit 59FED5CC) (tstamp 5D3FAE6F)
    (at 16 36 180)
    (descr "Through hole straight pin header, 1x03, 2.54mm pitch, single row")
    (tags "Through hole pin header THT 1x03 2.54mm single row")
    (path /5D333F53)
    (fp_text reference J1 (at 0 2.33 180) (layer B.SilkS)
      (effects (font (size 1 1) (thickness 0.15)) (justify mirror))
    )
    (fp_text value Conn_01x03_Male (at 0 -7.41 180) (layer B.Fab)
      (effects (font (size 1 1) (thickness 0.15)) (justify mirror))
    )
    (fp_line (start -0.635 1.27) (end 1.27 1.27) (layer B.Fab) (width 0.1))
    (fp_line (start 1.27 1.27) (end 1.27 -6.35) (layer B.Fab) (width 0.1))
    (fp_line (start 1.27 -6.35) (end -1.27 -6.35) (layer B.Fab) (width 0.1))
    (fp_line (start -1.27 -6.35) (end -1.27 0.635) (layer B.Fab) (width 0.1))
    (fp_line (start -1.27 0.635) (end -0.635 1.27) (layer B.Fab) (width 0.1))
    (fp_line (start -1.33 -6.41) (end 1.33 -6.41) (layer B.SilkS) (width 0.12))
    (fp_line (start -1.33 -1.27) (end -1.33 -6.41) (layer B.SilkS) (width 0.12))
    (fp_line (start 1.33 -1.27) (end 1.33 -6.41) (layer B.SilkS) (width 0.12))
    (fp_line (start -1.33 -1.27) (end 1.33 -1.27) (layer B.SilkS) (width 0.12))
    (fp_line (start -1.33 0) (end -1.33 1.33) (layer B.SilkS) (width 0.12))
    (fp_line (start -1.33 1.33) (end 0 1.33) (layer B.SilkS) (width 0.12))
    (fp_line (start -1.8 1.8) (end -1.8 -6.85) (layer B.CrtYd) (width 0.05))
    (fp_line (start -1.8 -6.85) (end 1.8 -6.85) (layer B.CrtYd) (width 0.05))
    (fp_line (start 1.8 -6.85) (end 1.8 1.8) (layer B.CrtYd) (width 0.05))
    (fp_line (start 1.8 1.8) (end -1.8 1.8) (layer B.CrtYd) (width 0.05))
    (fp_text user %R (at 0 -2.54 90) (layer B.Fab)
      (effects (font (size 1 1) (thickness 0.15)) (justify mirror))
    )
    (pad 1 thru_hole rect (at 0 0 180) (size 1.7 1.7) (drill 1) (layers *.Cu *.Mask)
      (net 2 "Net-(J1-Pad1)"))
    (pad 2 thru_hole oval (at 0 -2.54 180) (size 1.7 1.7) (drill 1) (layers *.Cu *.Mask)
      (net 1 "Net-(J1-Pad2)"))
    (pad 3 thru_hole oval (at 0 -5.08 180) (size 1.7 1.7) (drill 1) (layers *.Cu *.Mask)
      (net 38 GND))
    (model ${KISYS3DMOD}/Connector_PinHeader_2.54mm.3dshapes/PinHeader_1x03_P2.54mm_Vertical.wrl
      (at (xyz 0 0 0))
      (scale (xyz 1 1 1))
      (rotate (xyz 0 0 0))
    )
  )

  (dimension 29 (width 0.15) (layer Dwgs.User)
    (gr_text "29 mm" (at 30.5 35.849999) (layer Dwgs.User)
      (effects (font (size 1.5 1.5) (thickness 0.15)))
    )
    (feature1 (pts (xy 45 32) (xy 45 37.199999)))
    (feature2 (pts (xy 16 32) (xy 16 37.199999)))
    (crossbar (pts (xy 16 34.499999) (xy 45 34.499999)))
    (arrow1a (pts (xy 45 34.499999) (xy 43.873496 35.08642)))
    (arrow1b (pts (xy 45 34.499999) (xy 43.873496 33.913578)))
    (arrow2a (pts (xy 16 34.499999) (xy 17.126504 35.08642)))
    (arrow2b (pts (xy 16 34.499999) (xy 17.126504 33.913578)))
  )
  (gr_line (start 77.5 27) (end 77.5 51.5) (angle 90) (layer Edge.Cuts) (width 0.1))
  (gr_arc (start 15.5 27.5) (end 12.5 27.5) (angle 90) (layer Edge.Cuts) (width 0.1) (tstamp 5B55F169))
  (gr_line (start 15.5 24.5) (end 74.5 24.5) (angle 90) (layer Edge.Cuts) (width 0.1) (tstamp 5B55F01C))
  (gr_arc (start 74.5 27.5) (end 74.5 24.5) (angle 90) (layer Edge.Cuts) (width 0.1) (tstamp 5B55EED3))
  (dimension 30 (width 0.15) (layer Dwgs.User)
    (gr_text "30 mm (Thru-hole)" (at 83.05 39.5 270) (layer Dwgs.User)
      (effects (font (size 1.5 1.5) (thickness 0.15)))
    )
    (feature1 (pts (xy 78.5 54.5) (xy 84.1 54.5)))
    (feature2 (pts (xy 78.5 24.5) (xy 84.1 24.5)))
    (crossbar (pts (xy 82 24.5) (xy 82 54.5)))
    (arrow1a (pts (xy 82 54.5) (xy 81.413579 53.373496)))
    (arrow1b (pts (xy 82 54.5) (xy 82.586421 53.373496)))
    (arrow2a (pts (xy 82 24.5) (xy 81.413579 25.626504)))
    (arrow2b (pts (xy 82 24.5) (xy 82.586421 25.626504)))
  )
  (dimension 23 (width 0.15) (layer Dwgs.User)
    (gr_text "23.000 mm" (at 7.95 39.5 90) (layer Dwgs.User)
      (effects (font (size 1.5 1.5) (thickness 0.15)))
    )
    (feature1 (pts (xy 11.5 28) (xy 6.9 28)))
    (feature2 (pts (xy 11.5 51) (xy 6.9 51)))
    (crossbar (pts (xy 9 51) (xy 9 28)))
    (arrow1a (pts (xy 9 28) (xy 9.586421 29.126504)))
    (arrow1b (pts (xy 9 28) (xy 8.413579 29.126504)))
    (arrow2a (pts (xy 9 51) (xy 9.586421 49.873496)))
    (arrow2b (pts (xy 9 51) (xy 8.413579 49.873496)))
  )
  (gr_text "Select one of these board edges depending \nupon the type of socket that is used." (at 20.5 9.5) (layer Cmts.User)
    (effects (font (size 1.5 1.5) (thickness 0.15)) (justify left))
  )
  (dimension 3.5 (width 0.15) (layer Dwgs.User)
    (gr_text "3.5 mm" (at 21 58.5) (layer Dwgs.User)
      (effects (font (size 1.5 1.5) (thickness 0.15)))
    )
    (feature1 (pts (xy 16.068883 55.2811) (xy 16.068883 60.3811)))
    (feature2 (pts (xy 12.568883 55.2811) (xy 12.568883 60.3811)))
    (crossbar (pts (xy 12.568883 58.2811) (xy 16.068883 58.2811)))
    (arrow1a (pts (xy 16.068883 58.2811) (xy 14.942379 58.867521)))
    (arrow1b (pts (xy 16.068883 58.2811) (xy 14.942379 57.694679)))
    (arrow2a (pts (xy 12.568883 58.2811) (xy 13.695387 58.867521)))
    (arrow2b (pts (xy 12.568883 58.2811) (xy 13.695387 57.694679)))
  )
  (dimension 3.5 (width 0.15) (layer Dwgs.User) (tstamp 55169E80)
    (gr_text "3.5 mm" (at 22.5 46 270) (layer Dwgs.User) (tstamp 55169E80)
      (effects (font (size 1.5 1.5) (thickness 0.15)))
    )
    (feature1 (pts (xy 20 54.5) (xy 24.6 54.5)))
    (feature2 (pts (xy 20 51) (xy 24.6 51)))
    (crossbar (pts (xy 22.5 51) (xy 22.5 54.5)))
    (arrow1a (pts (xy 22.5 54.5) (xy 21.913579 53.373496)))
    (arrow1b (pts (xy 22.5 54.5) (xy 23.086421 53.373496)))
    (arrow2a (pts (xy 22.5 51) (xy 21.913579 52.126504)))
    (arrow2b (pts (xy 22.5 51) (xy 23.086421 52.126504)))
  )
  (dimension 58 (width 0.15) (layer Dwgs.User)
    (gr_text "58 mm" (at 45 19.15) (layer Dwgs.User)
      (effects (font (size 1.5 1.5) (thickness 0.15)))
    )
    (feature1 (pts (xy 74 23) (xy 74 17.8)))
    (feature2 (pts (xy 16 23) (xy 16 17.8)))
    (crossbar (pts (xy 16 20.5) (xy 74 20.5)))
    (arrow1a (pts (xy 74 20.5) (xy 72.873496 21.086421)))
    (arrow1b (pts (xy 74 20.5) (xy 72.873496 19.913579)))
    (arrow2a (pts (xy 16 20.5) (xy 17.126504 21.086421)))
    (arrow2b (pts (xy 16 20.5) (xy 17.126504 19.913579)))
  )
  (dimension 65 (width 0.15) (layer Dwgs.User)
    (gr_text "65 mm" (at 45 14.65) (layer Dwgs.User)
      (effects (font (size 1.5 1.5) (thickness 0.15)))
    )
    (feature1 (pts (xy 77.5 23) (xy 77.5 13.3)))
    (feature2 (pts (xy 12.5 23) (xy 12.5 13.3)))
    (crossbar (pts (xy 12.5 16) (xy 77.5 16)))
    (arrow1a (pts (xy 77.5 16) (xy 76.373496 16.586421)))
    (arrow1b (pts (xy 77.5 16) (xy 76.373496 15.413579)))
    (arrow2a (pts (xy 12.5 16) (xy 13.626504 16.586421)))
    (arrow2b (pts (xy 12.5 16) (xy 13.626504 15.413579)))
  )
  (gr_arc (start 74.5 51.5) (end 77.5 51.5) (angle 90) (layer Edge.Cuts) (width 0.1) (tstamp 55157FFB))
  (gr_arc (start 15.5 51.5) (end 15.5 54.5) (angle 90) (layer Edge.Cuts) (width 0.1) (tstamp 55157FCE))
  (gr_line (start 12.5 27) (end 12.5 51.5) (layer Edge.Cuts) (width 0.1))
  (gr_line (start 15.5 54.5) (end 74.5 54.5) (angle 90) (layer Edge.Cuts) (width 0.1))

  (segment (start 20.87 30.62) (end 20.88 30.63) (width 0.5) (layer F.Cu) (net 1))
  (segment (start 20.87 29.27) (end 20.87 30.62) (width 1) (layer F.Cu) (net 1))
  (segment (start 20.88 30.63) (end 20.88 32) (width 1) (layer F.Cu) (net 1))
  (segment (start 20.88 32) (end 20.88 32) (width 0.5) (layer F.Cu) (net 1) (tstamp 5D36C998))
  (via (at 20.88 32) (size 1.2) (drill 0.8) (layers F.Cu B.Cu) (net 1))
  (segment (start 20.88 32) (end 20.88 35.53) (width 1) (layer B.Cu) (net 1))
  (segment (start 17.87 38.54) (end 16 38.54) (width 1) (layer B.Cu) (net 1))
  (segment (start 20.88 35.53) (end 17.87 38.54) (width 1) (layer B.Cu) (net 1))
  (segment (start 19.53 28.07) (end 20.87 26.73) (width 0.5) (layer F.Cu) (net 2))
  (segment (start 19.53 32) (end 19.53 32) (width 0.5) (layer F.Cu) (net 2))
  (segment (start 19.53 32) (end 19.53 28.07) (width 0.5) (layer F.Cu) (net 2) (tstamp 5D39AEE8))
  (via (at 19.53 32) (size 1.2) (drill 0.8) (layers F.Cu B.Cu) (net 2))
  (segment (start 17.8 36) (end 16 36) (width 1) (layer B.Cu) (net 2))
  (segment (start 19.53 34.27) (end 17.8 36) (width 1) (layer B.Cu) (net 2))
  (segment (start 19.53 32) (end 19.53 34.27) (width 1) (layer B.Cu) (net 2))
  (segment (start 23.41 30.472081) (end 23.42 30.482081) (width 0.5) (layer F.Cu) (net 3))
  (segment (start 23.41 29.27) (end 23.41 30.472081) (width 1) (layer F.Cu) (net 3))
  (segment (start 23.42 30.482081) (end 23.42 32) (width 1) (layer F.Cu) (net 3))
  (segment (start 23.42 32) (end 23.42 32) (width 0.5) (layer F.Cu) (net 3) (tstamp 5D36C937))
  (segment (start 23.42 32) (end 23.42 32) (width 0.5) (layer F.Cu) (net 3) (tstamp 5D36C9DD))
  (via (at 23.42 32) (size 1.2) (drill 0.8) (layers F.Cu B.Cu) (net 3))
  (segment (start 19.58 43.81) (end 16.07 43.81) (width 1) (layer B.Cu) (net 3))
  (segment (start 23.42 39.97) (end 19.58 43.81) (width 1) (layer B.Cu) (net 3))
  (segment (start 23.42 32) (end 23.42 39.97) (width 1) (layer B.Cu) (net 3))
  (segment (start 25.95 29.27) (end 25.95 30.472081) (width 1) (layer F.Cu) (net 5))
  (segment (start 25.95 30.472081) (end 25.95 32) (width 1) (layer F.Cu) (net 5))
  (segment (start 25.95 32) (end 25.95 32) (width 0.5) (layer F.Cu) (net 5) (tstamp 5D36C939))
  (via (at 25.95 32) (size 1.2) (drill 0.8) (layers F.Cu B.Cu) (net 5))
  (segment (start 25.95 32.424264) (end 25.97 32.444264) (width 0.5) (layer B.Cu) (net 5))
  (segment (start 25.95 32) (end 25.95 32.424264) (width 0.5) (layer B.Cu) (net 5))
  (segment (start 25.97 32.444264) (end 25.97 40.64) (width 1) (layer B.Cu) (net 5))
  (segment (start 20.26 46.35) (end 16.07 46.35) (width 1) (layer B.Cu) (net 5))
  (segment (start 25.97 40.64) (end 20.26 46.35) (width 1) (layer B.Cu) (net 5))
  (segment (start 33.57 29.27) (end 33.57 32) (width 1) (layer F.Cu) (net 9))
  (segment (start 33.57 32) (end 33.57 32) (width 0.5) (layer F.Cu) (net 9) (tstamp 5D36C93B))
  (via (at 33.57 32) (size 1.2) (drill 0.8) (layers F.Cu B.Cu) (net 9))
  (segment (start 33.57 32) (end 33.57 33.83) (width 1) (layer B.Cu) (net 9))
  (segment (start 35 35.26) (end 35 38.5) (width 1) (layer B.Cu) (net 9))
  (segment (start 33.57 33.83) (end 35 35.26) (width 1) (layer B.Cu) (net 9))
  (segment (start 36.11 30.472081) (end 36.1 30.482081) (width 0.5) (layer F.Cu) (net 11))
  (segment (start 36.11 29.27) (end 36.11 30.472081) (width 1) (layer F.Cu) (net 11))
  (segment (start 36.1 30.482081) (end 36.1 32) (width 1) (layer F.Cu) (net 11))
  (segment (start 36.1 32) (end 36.1 32) (width 0.5) (layer F.Cu) (net 11) (tstamp 5D36C93D))
  (via (at 36.1 32) (size 1.2) (drill 0.8) (layers F.Cu B.Cu) (net 11))
  (segment (start 36.51 33.3) (end 43 33.3) (width 1) (layer B.Cu) (net 11))
  (segment (start 36.1 32.89) (end 36.51 33.3) (width 1) (layer B.Cu) (net 11))
  (segment (start 36.1 32) (end 36.1 32.89) (width 1) (layer B.Cu) (net 11))
  (segment (start 38.65 30.472081) (end 38.66 30.482081) (width 0.5) (layer F.Cu) (net 13))
  (segment (start 38.65 29.27) (end 38.65 30.472081) (width 1) (layer F.Cu) (net 13))
  (segment (start 38.66 30.482081) (end 38.66 32) (width 1) (layer F.Cu) (net 13))
  (segment (start 38.66 32) (end 38.66 32) (width 0.5) (layer F.Cu) (net 13) (tstamp 5D36C93F))
  (via (at 38.66 32) (size 1.2) (drill 0.8) (layers F.Cu B.Cu) (net 13))
  (segment (start 47.7 32) (end 49 33.3) (width 1) (layer B.Cu) (net 13))
  (segment (start 39.508528 32) (end 40.098528 31.41) (width 1) (layer B.Cu) (net 13))
  (segment (start 38.66 32) (end 39.508528 32) (width 1) (layer B.Cu) (net 13))
  (segment (start 47.11 31.41) (end 47.7 32) (width 1) (layer B.Cu) (net 13))
  (segment (start 40.098528 31.41) (end 47.11 31.41) (width 1) (layer B.Cu) (net 13))
  (segment (start 56.43 29.27) (end 56.43 30.472081) (width 1) (layer F.Cu) (net 27))
  (segment (start 56.43 30.472081) (end 56.43 32) (width 1) (layer F.Cu) (net 27))
  (segment (start 56.43 32) (end 56.43 32) (width 0.5) (layer F.Cu) (net 27) (tstamp 5D36C941))
  (via (at 56.43 32) (size 1.2) (drill 0.8) (layers F.Cu B.Cu) (net 27))
  (segment (start 56.43 32.424264) (end 56.44 32.434264) (width 0.5) (layer B.Cu) (net 27))
  (segment (start 56.43 32) (end 56.43 32.424264) (width 0.5) (layer B.Cu) (net 27))
  (segment (start 56.44 32.434264) (end 56.44 37.94) (width 1) (layer B.Cu) (net 27))
  (segment (start 63.5 45) (end 74 45) (width 1) (layer B.Cu) (net 27))
  (segment (start 56.44 37.94) (end 63.5 45) (width 1) (layer B.Cu) (net 27))
  (segment (start 58.97 29.27) (end 58.97 30.472081) (width 1) (layer F.Cu) (net 29))
  (segment (start 58.98 30.482081) (end 58.98 32) (width 1) (layer F.Cu) (net 29))
  (segment (start 58.98 32) (end 58.98 32) (width 0.5) (layer F.Cu) (net 29) (tstamp 5D36C943))
  (via (at 58.98 32) (size 1.2) (drill 0.8) (layers F.Cu B.Cu) (net 29))
  (segment (start 58.98 32.424264) (end 58.97 32.434264) (width 0.5) (layer B.Cu) (net 29))
  (segment (start 58.98 32) (end 58.98 32.424264) (width 0.5) (layer B.Cu) (net 29))
  (segment (start 58.97 32.434264) (end 58.97 37.71) (width 1) (layer B.Cu) (net 29))
  (segment (start 63.72 42.46) (end 74 42.46) (width 1) (layer B.Cu) (net 29))
  (segment (start 58.97 37.71) (end 63.72 42.46) (width 1) (layer B.Cu) (net 29))
  (segment (start 61.51 29.27) (end 61.51 30.472081) (width 1) (layer F.Cu) (net 31))
  (segment (start 61.51 30.472081) (end 61.51 32) (width 1) (layer F.Cu) (net 31))
  (segment (start 61.51 32) (end 61.51 32) (width 0.5) (layer F.Cu) (net 31) (tstamp 5D36C945))
  (via (at 61.51 32) (size 1.2) (drill 0.8) (layers F.Cu B.Cu) (net 31))
  (segment (start 61.51 32.424264) (end 61.5 32.434264) (width 0.5) (layer B.Cu) (net 31))
  (segment (start 61.51 32) (end 61.51 32.424264) (width 0.5) (layer B.Cu) (net 31))
  (segment (start 61.5 32.434264) (end 61.5 37.22) (width 1) (layer B.Cu) (net 31))
  (segment (start 64.2 39.92) (end 74 39.92) (width 1) (layer B.Cu) (net 31))
  (segment (start 61.5 37.22) (end 64.2 39.92) (width 1) (layer B.Cu) (net 31))
  (segment (start 64.05 29.27) (end 64.05 30.472081) (width 1) (layer F.Cu) (net 33))
  (segment (start 64.06 30.482081) (end 64.06 32) (width 1) (layer F.Cu) (net 33))
  (segment (start 64.06 32) (end 64.06 32) (width 0.5) (layer F.Cu) (net 33) (tstamp 5D36C947))
  (via (at 64.06 32) (size 1.2) (drill 0.8) (layers F.Cu B.Cu) (net 33))
  (segment (start 64.06 32.424264) (end 64.07 32.434264) (width 0.5) (layer B.Cu) (net 33))
  (segment (start 64.06 32) (end 64.06 32.424264) (width 0.5) (layer B.Cu) (net 33))
  (segment (start 64.07 32.434264) (end 64.07 36) (width 1) (layer B.Cu) (net 33))
  (segment (start 65.45 37.38) (end 74 37.38) (width 1) (layer B.Cu) (net 33))
  (segment (start 64.07 36) (end 65.45 37.38) (width 1) (layer B.Cu) (net 33))
  (segment (start 66.61 30.492081) (end 66.61 32) (width 1) (layer F.Cu) (net 35))
  (segment (start 66.61 32) (end 66.61 32) (width 0.5) (layer F.Cu) (net 35) (tstamp 5D36C949))
  (via (at 66.61 32) (size 1.2) (drill 0.8) (layers F.Cu B.Cu) (net 35))
  (segment (start 66.61 32.424264) (end 66.6 32.434264) (width 0.5) (layer B.Cu) (net 35))
  (segment (start 66.61 32) (end 66.61 32.424264) (width 0.5) (layer B.Cu) (net 35))
  (segment (start 66.6 32.434264) (end 66.6 33.48) (width 1) (layer B.Cu) (net 35))
  (segment (start 67.96 34.84) (end 74 34.84) (width 1) (layer B.Cu) (net 35))
  (segment (start 66.6 33.48) (end 67.96 34.84) (width 1) (layer B.Cu) (net 35))
  (segment (start 66.59 29.27) (end 66.59 30.472081) (width 1) (layer F.Cu) (net 35))
  (segment (start 47.46 47.54) (end 47.46 50) (width 1) (layer B.Cu) (net 39))
  (segment (start 49 46) (end 47.46 47.54) (width 1) (layer B.Cu) (net 39))
  (segment (start 42.200001 46.799999) (end 42.170001 46.799999) (width 0.5) (layer B.Cu) (net 40))
  (segment (start 43 46) (end 42.200001 46.799999) (width 0.5) (layer B.Cu) (net 40))
  (segment (start 41.46 47.51) (end 41.46 50) (width 1) (layer B.Cu) (net 40))
  (segment (start 42.170001 46.799999) (end 41.46 47.51) (width 1) (layer B.Cu) (net 40))

  (zone (net 38) (net_name GND) (layer F.Cu) (tstamp 5D36CB92) (hatch edge 0.508)
    (connect_pads (clearance 0.508))
    (min_thickness 0.254)
    (fill yes (arc_segments 16) (thermal_gap 0.508) (thermal_bridge_width 0.508))
    (polygon
      (pts
        (xy 12.52 27.14) (xy 12.83 26.11) (xy 13.39 25.34) (xy 14.27 24.78) (xy 15.34 24.5)
        (xy 74.72 24.51) (xy 75.28 24.6) (xy 76.14 24.99) (xy 76.82 25.6) (xy 77.35 26.48)
        (xy 77.47 27.06) (xy 77.49 51.71) (xy 77.39 52.41) (xy 76.83 53.5) (xy 75.83 54.25)
        (xy 74.81 54.5) (xy 74.49 54.5) (xy 15.22 54.51) (xy 14.01 54.16) (xy 13.28 53.54)
        (xy 12.71 52.6) (xy 12.52 51.75) (xy 12.48 32.92)
      )
    )
    (filled_polygon
      (pts
        (xy 72.172051 25.264281) (xy 71.264281 26.172051) (xy 70.773 27.35811) (xy 70.773 28.64189) (xy 71.264281 29.827949)
        (xy 72.172051 30.735719) (xy 73.35811 31.227) (xy 74.64189 31.227) (xy 75.827949 30.735719) (xy 76.735719 29.827949)
        (xy 76.815 29.636547) (xy 76.815001 49.363455) (xy 76.735719 49.172051) (xy 75.827949 48.264281) (xy 74.64189 47.773)
        (xy 73.35811 47.773) (xy 72.172051 48.264281) (xy 71.264281 49.172051) (xy 70.773 50.35811) (xy 70.773 51.64189)
        (xy 71.264281 52.827949) (xy 72.172051 53.735719) (xy 72.363453 53.815) (xy 17.636547 53.815) (xy 17.827949 53.735719)
        (xy 18.735719 52.827949) (xy 19.227 51.64189) (xy 19.227 51.127) (xy 28.5014 51.127) (xy 28.5014 51.7874)
        (xy 28.664075 52.351222) (xy 29.030132 52.809873) (xy 29.543843 53.093527) (xy 29.640974 53.115358) (xy 29.873 52.994217)
        (xy 29.873 51.127) (xy 30.127 51.127) (xy 30.127 52.994217) (xy 30.359026 53.115358) (xy 30.456157 53.093527)
        (xy 30.969868 52.809873) (xy 31.335925 52.351222) (xy 31.4986 51.7874) (xy 31.4986 51.127) (xy 30.127 51.127)
        (xy 29.873 51.127) (xy 28.5014 51.127) (xy 19.227 51.127) (xy 19.227 50.35811) (xy 19.166728 50.2126)
        (xy 28.5014 50.2126) (xy 28.5014 50.873) (xy 29.873 50.873) (xy 29.873 49.005783) (xy 30.127 49.005783)
        (xy 30.127 50.873) (xy 31.4986 50.873) (xy 31.4986 50.2126) (xy 31.492658 50.192003) (xy 33.5014 50.192003)
        (xy 33.5014 51.807998) (xy 33.588351 52.245125) (xy 33.919571 52.74083) (xy 34.415276 53.07205) (xy 35 53.188359)
        (xy 35.584725 53.07205) (xy 36.08043 52.74083) (xy 36.41165 52.245125) (xy 36.4986 51.807998) (xy 36.4986 50.192002)
        (xy 36.41165 49.754875) (xy 36.08043 49.25917) (xy 35.842216 49.1) (xy 39.91256 49.1) (xy 39.91256 50.9)
        (xy 39.961843 51.147765) (xy 40.102191 51.357809) (xy 40.312235 51.498157) (xy 40.56 51.54744) (xy 42.36 51.54744)
        (xy 42.607765 51.498157) (xy 42.817809 51.357809) (xy 42.950058 51.159886) (xy 42.98489 51.194718) (xy 43.099447 51.080161)
        (xy 43.185852 51.336643) (xy 43.759336 51.546458) (xy 44.36946 51.520839) (xy 44.814148 51.336643) (xy 44.900554 51.080159)
        (xy 44 50.179605) (xy 43.985858 50.193748) (xy 43.806253 50.014143) (xy 43.820395 50) (xy 44.179605 50)
        (xy 45.080159 50.900554) (xy 45.336643 50.814148) (xy 45.546458 50.240664) (xy 45.520839 49.63054) (xy 45.336643 49.185852)
        (xy 45.081804 49.1) (xy 45.91256 49.1) (xy 45.91256 50.9) (xy 45.961843 51.147765) (xy 46.102191 51.357809)
        (xy 46.312235 51.498157) (xy 46.56 51.54744) (xy 48.36 51.54744) (xy 48.583693 51.502945) (xy 48.804126 51.723378)
        (xy 49.029459 51.498045) (xy 49.10693 51.863792) (xy 49.888153 52.063683) (xy 50.686403 51.949397) (xy 50.89307 51.863792)
        (xy 50.970542 51.498043) (xy 50 50.527502) (xy 49.985858 50.541644) (xy 49.458356 50.014142) (xy 49.472498 50)
        (xy 50.527502 50) (xy 51.498043 50.970542) (xy 51.863792 50.89307) (xy 52.063683 50.111847) (xy 51.949397 49.313597)
        (xy 51.863792 49.10693) (xy 51.498043 49.029458) (xy 50.527502 50) (xy 49.472498 50) (xy 49.458356 49.985858)
        (xy 49.985858 49.458356) (xy 50 49.472498) (xy 50.970542 48.501957) (xy 50.89307 48.136208) (xy 50.111847 47.936317)
        (xy 49.313597 48.050603) (xy 49.10693 48.136208) (xy 49.029459 48.501955) (xy 48.804126 48.276622) (xy 48.583693 48.497055)
        (xy 48.36 48.45256) (xy 46.56 48.45256) (xy 46.312235 48.501843) (xy 46.102191 48.642191) (xy 45.961843 48.852235)
        (xy 45.91256 49.1) (xy 45.081804 49.1) (xy 45.080159 49.099446) (xy 44.179605 50) (xy 43.820395 50)
        (xy 43.806253 49.985858) (xy 43.985858 49.806253) (xy 44 49.820395) (xy 44.900554 48.919841) (xy 44.814148 48.663357)
        (xy 44.240664 48.453542) (xy 43.63054 48.479161) (xy 43.185852 48.663357) (xy 43.099447 48.919839) (xy 42.98489 48.805282)
        (xy 42.950058 48.840114) (xy 42.817809 48.642191) (xy 42.607765 48.501843) (xy 42.36 48.45256) (xy 40.56 48.45256)
        (xy 40.312235 48.501843) (xy 40.102191 48.642191) (xy 39.961843 48.852235) (xy 39.91256 49.1) (xy 35.842216 49.1)
        (xy 35.584724 48.92795) (xy 35 48.811641) (xy 34.415275 48.92795) (xy 33.91957 49.25917) (xy 33.58835 49.754876)
        (xy 33.5014 50.192003) (xy 31.492658 50.192003) (xy 31.335925 49.648778) (xy 30.969868 49.190127) (xy 30.456157 48.906473)
        (xy 30.359026 48.884642) (xy 30.127 49.005783) (xy 29.873 49.005783) (xy 29.640974 48.884642) (xy 29.543843 48.906473)
        (xy 29.030132 49.190127) (xy 28.664075 49.648778) (xy 28.5014 50.2126) (xy 19.166728 50.2126) (xy 18.735719 49.172051)
        (xy 17.827949 48.264281) (xy 16.64189 47.773) (xy 16.527952 47.773) (xy 16.649418 47.748839) (xy 17.140625 47.420625)
        (xy 17.468839 46.929418) (xy 17.584092 46.35) (xy 17.468839 45.770582) (xy 17.431407 45.714561) (xy 41.565 45.714561)
        (xy 41.565 46.285439) (xy 41.783466 46.812862) (xy 42.187138 47.216534) (xy 42.714561 47.435) (xy 43.285439 47.435)
        (xy 43.812862 47.216534) (xy 44.216534 46.812862) (xy 44.435 46.285439) (xy 44.435 45.714561) (xy 47.565 45.714561)
        (xy 47.565 46.285439) (xy 47.783466 46.812862) (xy 48.187138 47.216534) (xy 48.714561 47.435) (xy 49.285439 47.435)
        (xy 49.812862 47.216534) (xy 50.216534 46.812862) (xy 50.435 46.285439) (xy 50.435 45.714561) (xy 50.216534 45.187138)
        (xy 49.812862 44.783466) (xy 49.285439 44.565) (xy 48.714561 44.565) (xy 48.187138 44.783466) (xy 47.783466 45.187138)
        (xy 47.565 45.714561) (xy 44.435 45.714561) (xy 44.216534 45.187138) (xy 43.812862 44.783466) (xy 43.285439 44.565)
        (xy 42.714561 44.565) (xy 42.187138 44.783466) (xy 41.783466 45.187138) (xy 41.565 45.714561) (xy 17.431407 45.714561)
        (xy 17.140625 45.279375) (xy 17.122381 45.267184) (xy 17.167765 45.258157) (xy 17.377809 45.117809) (xy 17.518157 44.907765)
        (xy 17.56744 44.66) (xy 17.56744 42.96) (xy 17.518157 42.712235) (xy 17.377809 42.502191) (xy 17.167765 42.361843)
        (xy 16.92 42.31256) (xy 16.801769 42.31256) (xy 16.881358 42.275183) (xy 17.271645 41.846924) (xy 17.441476 41.43689)
        (xy 17.320155 41.207) (xy 16.127 41.207) (xy 16.127 41.227) (xy 15.873 41.227) (xy 15.873 41.207)
        (xy 14.679845 41.207) (xy 14.558524 41.43689) (xy 14.728355 41.846924) (xy 15.118642 42.275183) (xy 15.204708 42.315602)
        (xy 14.972235 42.361843) (xy 14.762191 42.502191) (xy 14.621843 42.712235) (xy 14.57256 42.96) (xy 14.57256 44.66)
        (xy 14.621843 44.907765) (xy 14.762191 45.117809) (xy 14.972235 45.258157) (xy 15.017619 45.267184) (xy 14.999375 45.279375)
        (xy 14.671161 45.770582) (xy 14.555908 46.35) (xy 14.671161 46.929418) (xy 14.999375 47.420625) (xy 15.490582 47.748839)
        (xy 15.612048 47.773) (xy 15.35811 47.773) (xy 14.172051 48.264281) (xy 13.264281 49.172051) (xy 13.185 49.363453)
        (xy 13.185 38.54) (xy 14.485908 38.54) (xy 14.601161 39.119418) (xy 14.929375 39.610625) (xy 15.248478 39.823843)
        (xy 15.118642 39.884817) (xy 14.728355 40.313076) (xy 14.558524 40.72311) (xy 14.679845 40.953) (xy 15.873 40.953)
        (xy 15.873 40.933) (xy 16.127 40.933) (xy 16.127 40.953) (xy 17.320155 40.953) (xy 17.441476 40.72311)
        (xy 17.271645 40.313076) (xy 16.881358 39.884817) (xy 16.751522 39.823843) (xy 17.070625 39.610625) (xy 17.398839 39.119418)
        (xy 17.496786 38.627) (xy 28.5014 38.627) (xy 28.5014 39.2874) (xy 28.664075 39.851222) (xy 29.030132 40.309873)
        (xy 29.543843 40.593527) (xy 29.640974 40.615358) (xy 29.873 40.494217) (xy 29.873 38.627) (xy 30.127 38.627)
        (xy 30.127 40.494217) (xy 30.359026 40.615358) (xy 30.456157 40.593527) (xy 30.969868 40.309873) (xy 31.335925 39.851222)
        (xy 31.4986 39.2874) (xy 31.4986 38.627) (xy 30.127 38.627) (xy 29.873 38.627) (xy 28.5014 38.627)
        (xy 17.496786 38.627) (xy 17.514092 38.54) (xy 17.398839 37.960582) (xy 17.233143 37.7126) (xy 28.5014 37.7126)
        (xy 28.5014 38.373) (xy 29.873 38.373) (xy 29.873 36.505783) (xy 30.127 36.505783) (xy 30.127 38.373)
        (xy 31.4986 38.373) (xy 31.4986 37.7126) (xy 31.492658 37.692003) (xy 33.5014 37.692003) (xy 33.5014 39.307998)
        (xy 33.588351 39.745125) (xy 33.919571 40.24083) (xy 34.415276 40.57205) (xy 35 40.688359) (xy 35.584725 40.57205)
        (xy 36.08043 40.24083) (xy 36.41165 39.745125) (xy 36.4986 39.307998) (xy 36.4986 37.692002) (xy 36.41165 37.254875)
        (xy 36.08043 36.75917) (xy 35.584724 36.42795) (xy 35 36.311641) (xy 34.415275 36.42795) (xy 33.91957 36.75917)
        (xy 33.58835 37.254876) (xy 33.5014 37.692003) (xy 31.492658 37.692003) (xy 31.335925 37.148778) (xy 30.969868 36.690127)
        (xy 30.456157 36.406473) (xy 30.359026 36.384642) (xy 30.127 36.505783) (xy 29.873 36.505783) (xy 29.640974 36.384642)
        (xy 29.543843 36.406473) (xy 29.030132 36.690127) (xy 28.664075 37.148778) (xy 28.5014 37.7126) (xy 17.233143 37.7126)
        (xy 17.070625 37.469375) (xy 17.052381 37.457184) (xy 17.097765 37.448157) (xy 17.307809 37.307809) (xy 17.448157 37.097765)
        (xy 17.49744 36.85) (xy 17.49744 35.15) (xy 17.448157 34.902235) (xy 17.406573 34.84) (xy 72.485908 34.84)
        (xy 72.601161 35.419418) (xy 72.929375 35.910625) (xy 73.227761 36.11) (xy 72.929375 36.309375) (xy 72.601161 36.800582)
        (xy 72.485908 37.38) (xy 72.601161 37.959418) (xy 72.929375 38.450625) (xy 73.227761 38.65) (xy 72.929375 38.849375)
        (xy 72.601161 39.340582) (xy 72.485908 39.92) (xy 72.601161 40.499418) (xy 72.929375 40.990625) (xy 73.227761 41.19)
        (xy 72.929375 41.389375) (xy 72.601161 41.880582) (xy 72.485908 42.46) (xy 72.601161 43.039418) (xy 72.929375 43.530625)
        (xy 72.947619 43.542816) (xy 72.902235 43.551843) (xy 72.692191 43.692191) (xy 72.551843 43.902235) (xy 72.50256 44.15)
        (xy 72.50256 45.85) (xy 72.551843 46.097765) (xy 72.692191 46.307809) (xy 72.902235 46.448157) (xy 73.15 46.49744)
        (xy 74.85 46.49744) (xy 75.097765 46.448157) (xy 75.307809 46.307809) (xy 75.448157 46.097765) (xy 75.49744 45.85)
        (xy 75.49744 44.15) (xy 75.448157 43.902235) (xy 75.307809 43.692191) (xy 75.097765 43.551843) (xy 75.052381 43.542816)
        (xy 75.070625 43.530625) (xy 75.398839 43.039418) (xy 75.514092 42.46) (xy 75.398839 41.880582) (xy 75.070625 41.389375)
        (xy 74.772239 41.19) (xy 75.070625 40.990625) (xy 75.398839 40.499418) (xy 75.514092 39.92) (xy 75.398839 39.340582)
        (xy 75.070625 38.849375) (xy 74.772239 38.65) (xy 75.070625 38.450625) (xy 75.398839 37.959418) (xy 75.514092 37.38)
        (xy 75.398839 36.800582) (xy 75.070625 36.309375) (xy 74.772239 36.11) (xy 75.070625 35.910625) (xy 75.398839 35.419418)
        (xy 75.514092 34.84) (xy 75.398839 34.260582) (xy 75.070625 33.769375) (xy 74.579418 33.441161) (xy 74.146256 33.355)
        (xy 73.853744 33.355) (xy 73.420582 33.441161) (xy 72.929375 33.769375) (xy 72.601161 34.260582) (xy 72.485908 34.84)
        (xy 17.406573 34.84) (xy 17.307809 34.692191) (xy 17.097765 34.551843) (xy 16.85 34.50256) (xy 15.15 34.50256)
        (xy 14.902235 34.551843) (xy 14.692191 34.692191) (xy 14.551843 34.902235) (xy 14.50256 35.15) (xy 14.50256 36.85)
        (xy 14.551843 37.097765) (xy 14.692191 37.307809) (xy 14.902235 37.448157) (xy 14.947619 37.457184) (xy 14.929375 37.469375)
        (xy 14.601161 37.960582) (xy 14.485908 38.54) (xy 13.185 38.54) (xy 13.185 33.3) (xy 41.536887 33.3)
        (xy 41.64826 33.859909) (xy 41.965423 34.334577) (xy 42.440091 34.65174) (xy 42.858667 34.735) (xy 43.141333 34.735)
        (xy 43.559909 34.65174) (xy 44.034577 34.334577) (xy 44.35174 33.859909) (xy 44.463113 33.3) (xy 47.536887 33.3)
        (xy 47.64826 33.859909) (xy 47.965423 34.334577) (xy 48.440091 34.65174) (xy 48.858667 34.735) (xy 49.141333 34.735)
        (xy 49.559909 34.65174) (xy 50.034577 34.334577) (xy 50.35174 33.859909) (xy 50.463113 33.3) (xy 50.35174 32.740091)
        (xy 50.034577 32.265423) (xy 49.559909 31.94826) (xy 49.141333 31.865) (xy 48.858667 31.865) (xy 48.440091 31.94826)
        (xy 47.965423 32.265423) (xy 47.64826 32.740091) (xy 47.536887 33.3) (xy 44.463113 33.3) (xy 44.35174 32.740091)
        (xy 44.034577 32.265423) (xy 43.559909 31.94826) (xy 43.141333 31.865) (xy 42.858667 31.865) (xy 42.440091 31.94826)
        (xy 41.965423 32.265423) (xy 41.64826 32.740091) (xy 41.536887 33.3) (xy 13.185 33.3) (xy 13.185 29.636547)
        (xy 13.264281 29.827949) (xy 14.172051 30.735719) (xy 15.35811 31.227) (xy 16.64189 31.227) (xy 17.827949 30.735719)
        (xy 18.645001 29.918667) (xy 18.645 31.138447) (xy 18.483018 31.300429) (xy 18.295 31.754343) (xy 18.295 32.245657)
        (xy 18.483018 32.699571) (xy 18.830429 33.046982) (xy 19.284343 33.235) (xy 19.775657 33.235) (xy 20.205 33.05716)
        (xy 20.634343 33.235) (xy 21.125657 33.235) (xy 21.579571 33.046982) (xy 21.926982 32.699571) (xy 22.115 32.245657)
        (xy 22.115 31.754343) (xy 22.015 31.512922) (xy 22.015 30.686595) (xy 22.177809 30.577809) (xy 22.275 30.432354)
        (xy 22.275 30.583864) (xy 22.285 30.634138) (xy 22.285 31.512922) (xy 22.185 31.754343) (xy 22.185 32.245657)
        (xy 22.373018 32.699571) (xy 22.720429 33.046982) (xy 23.174343 33.235) (xy 23.665657 33.235) (xy 24.119571 33.046982)
        (xy 24.466982 32.699571) (xy 24.655 32.245657) (xy 24.655 31.754343) (xy 24.555 31.512922) (xy 24.555 30.370298)
        (xy 24.545 30.320024) (xy 24.545 30.244281) (xy 24.68 30.042239) (xy 24.815 30.244281) (xy 24.815 31.512922)
        (xy 24.715 31.754343) (xy 24.715 32.245657) (xy 24.903018 32.699571) (xy 25.250429 33.046982) (xy 25.704343 33.235)
        (xy 26.195657 33.235) (xy 26.649571 33.046982) (xy 26.996982 32.699571) (xy 27.185 32.245657) (xy 27.185 31.754343)
        (xy 27.085 31.512922) (xy 27.085 30.244281) (xy 27.22 30.042239) (xy 27.419375 30.340625) (xy 27.910582 30.668839)
        (xy 28.343744 30.755) (xy 28.636256 30.755) (xy 29.069418 30.668839) (xy 29.560625 30.340625) (xy 29.773843 30.021522)
        (xy 29.834817 30.151358) (xy 30.263076 30.541645) (xy 30.67311 30.711476) (xy 30.903 30.590155) (xy 30.903 29.397)
        (xy 30.883 29.397) (xy 30.883 29.143) (xy 30.903 29.143) (xy 30.903 29.123) (xy 31.157 29.123)
        (xy 31.157 29.143) (xy 31.177 29.143) (xy 31.177 29.397) (xy 31.157 29.397) (xy 31.157 30.590155)
        (xy 31.38689 30.711476) (xy 31.796924 30.541645) (xy 32.225183 30.151358) (xy 32.286157 30.021522) (xy 32.435 30.244282)
        (xy 32.435001 31.512921) (xy 32.335 31.754343) (xy 32.335 32.245657) (xy 32.523018 32.699571) (xy 32.870429 33.046982)
        (xy 33.324343 33.235) (xy 33.815657 33.235) (xy 34.269571 33.046982) (xy 34.616982 32.699571) (xy 34.805 32.245657)
        (xy 34.805 31.754343) (xy 34.705 31.512922) (xy 34.705 30.244281) (xy 34.84 30.042239) (xy 34.975 30.244281)
        (xy 34.975 30.320025) (xy 34.965 30.370299) (xy 34.965 31.512922) (xy 34.865 31.754343) (xy 34.865 32.245657)
        (xy 35.053018 32.699571) (xy 35.400429 33.046982) (xy 35.854343 33.235) (xy 36.345657 33.235) (xy 36.799571 33.046982)
        (xy 37.146982 32.699571) (xy 37.335 32.245657) (xy 37.335 31.754343) (xy 37.235 31.512922) (xy 37.235 30.634138)
        (xy 37.245 30.583864) (xy 37.245 30.244281) (xy 37.38 30.042239) (xy 37.515 30.244281) (xy 37.515 30.583864)
        (xy 37.525 30.634138) (xy 37.525 31.512922) (xy 37.425 31.754343) (xy 37.425 32.245657) (xy 37.613018 32.699571)
        (xy 37.960429 33.046982) (xy 38.414343 33.235) (xy 38.905657 33.235) (xy 39.359571 33.046982) (xy 39.706982 32.699571)
        (xy 39.895 32.245657) (xy 39.895 31.754343) (xy 39.795 31.512922) (xy 39.795 30.370298) (xy 39.785 30.320024)
        (xy 39.785 30.244281) (xy 39.92 30.042239) (xy 40.119375 30.340625) (xy 40.610582 30.668839) (xy 41.043744 30.755)
        (xy 41.336256 30.755) (xy 41.769418 30.668839) (xy 42.260625 30.340625) (xy 42.46 30.042239) (xy 42.659375 30.340625)
        (xy 43.150582 30.668839) (xy 43.583744 30.755) (xy 43.876256 30.755) (xy 44.309418 30.668839) (xy 44.800625 30.340625)
        (xy 45 30.042239) (xy 45.199375 30.340625) (xy 45.690582 30.668839) (xy 46.123744 30.755) (xy 46.416256 30.755)
        (xy 46.849418 30.668839) (xy 47.340625 30.340625) (xy 47.54 30.042239) (xy 47.739375 30.340625) (xy 48.230582 30.668839)
        (xy 48.663744 30.755) (xy 48.956256 30.755) (xy 49.389418 30.668839) (xy 49.880625 30.340625) (xy 50.08 30.042239)
        (xy 50.279375 30.340625) (xy 50.770582 30.668839) (xy 51.203744 30.755) (xy 51.496256 30.755) (xy 51.929418 30.668839)
        (xy 52.420625 30.340625) (xy 52.62 30.042239) (xy 52.819375 30.340625) (xy 53.310582 30.668839) (xy 53.743744 30.755)
        (xy 54.036256 30.755) (xy 54.469418 30.668839) (xy 54.960625 30.340625) (xy 55.16 30.042239) (xy 55.295 30.244281)
        (xy 55.295 31.512922) (xy 55.195 31.754343) (xy 55.195 32.245657) (xy 55.383018 32.699571) (xy 55.730429 33.046982)
        (xy 56.184343 33.235) (xy 56.675657 33.235) (xy 57.129571 33.046982) (xy 57.476982 32.699571) (xy 57.665 32.245657)
        (xy 57.665 31.754343) (xy 57.565 31.512922) (xy 57.565 30.244281) (xy 57.7 30.042239) (xy 57.835 30.244281)
        (xy 57.835 30.583864) (xy 57.845 30.634138) (xy 57.845 31.512922) (xy 57.745 31.754343) (xy 57.745 32.245657)
        (xy 57.933018 32.699571) (xy 58.280429 33.046982) (xy 58.734343 33.235) (xy 59.225657 33.235) (xy 59.679571 33.046982)
        (xy 60.026982 32.699571) (xy 60.215 32.245657) (xy 60.215 31.754343) (xy 60.115 31.512922) (xy 60.115 30.370298)
        (xy 60.105 30.320024) (xy 60.105 30.244281) (xy 60.24 30.042239) (xy 60.375 30.244281) (xy 60.375 31.512922)
        (xy 60.275 31.754343) (xy 60.275 32.245657) (xy 60.463018 32.699571) (xy 60.810429 33.046982) (xy 61.264343 33.235)
        (xy 61.755657 33.235) (xy 62.209571 33.046982) (xy 62.556982 32.699571) (xy 62.745 32.245657) (xy 62.745 31.754343)
        (xy 62.645 31.512922) (xy 62.645 30.244281) (xy 62.78 30.042239) (xy 62.915 30.244281) (xy 62.915 30.583864)
        (xy 62.925 30.634138) (xy 62.925 31.512922) (xy 62.825 31.754343) (xy 62.825 32.245657) (xy 63.013018 32.699571)
        (xy 63.360429 33.046982) (xy 63.814343 33.235) (xy 64.305657 33.235) (xy 64.759571 33.046982) (xy 65.106982 32.699571)
        (xy 65.295 32.245657) (xy 65.295 31.754343) (xy 65.195 31.512922) (xy 65.195 30.370298) (xy 65.185 30.320024)
        (xy 65.185 30.244281) (xy 65.32 30.042239) (xy 65.455 30.244281) (xy 65.455 30.583864) (xy 65.475 30.684411)
        (xy 65.475 31.512922) (xy 65.375 31.754343) (xy 65.375 32.245657) (xy 65.563018 32.699571) (xy 65.910429 33.046982)
        (xy 66.364343 33.235) (xy 66.855657 33.235) (xy 67.309571 33.046982) (xy 67.656982 32.699571) (xy 67.845 32.245657)
        (xy 67.845 31.754343) (xy 67.745 31.512922) (xy 67.745 30.380298) (xy 67.725 30.279751) (xy 67.725 30.244281)
        (xy 67.873843 30.021522) (xy 67.934817 30.151358) (xy 68.363076 30.541645) (xy 68.77311 30.711476) (xy 69.003 30.590155)
        (xy 69.003 29.397) (xy 69.257 29.397) (xy 69.257 30.590155) (xy 69.48689 30.711476) (xy 69.896924 30.541645)
        (xy 70.325183 30.151358) (xy 70.571486 29.626892) (xy 70.450819 29.397) (xy 69.257 29.397) (xy 69.003 29.397)
        (xy 68.983 29.397) (xy 68.983 29.143) (xy 69.003 29.143) (xy 69.003 29.123) (xy 69.257 29.123)
        (xy 69.257 29.143) (xy 70.450819 29.143) (xy 70.571486 28.913108) (xy 70.325183 28.388642) (xy 69.900214 28.001353)
        (xy 70.200625 27.800625) (xy 70.528839 27.309418) (xy 70.644092 26.73) (xy 70.528839 26.150582) (xy 70.200625 25.659375)
        (xy 69.709418 25.331161) (xy 69.276256 25.245) (xy 68.983744 25.245) (xy 68.550582 25.331161) (xy 68.059375 25.659375)
        (xy 67.86 25.957761) (xy 67.660625 25.659375) (xy 67.169418 25.331161) (xy 66.736256 25.245) (xy 66.443744 25.245)
        (xy 66.010582 25.331161) (xy 65.519375 25.659375) (xy 65.32 25.957761) (xy 65.120625 25.659375) (xy 64.629418 25.331161)
        (xy 64.196256 25.245) (xy 63.903744 25.245) (xy 63.470582 25.331161) (xy 62.979375 25.659375) (xy 62.78 25.957761)
        (xy 62.580625 25.659375) (xy 62.089418 25.331161) (xy 61.656256 25.245) (xy 61.363744 25.245) (xy 60.930582 25.331161)
        (xy 60.439375 25.659375) (xy 60.24 25.957761) (xy 60.040625 25.659375) (xy 59.549418 25.331161) (xy 59.116256 25.245)
        (xy 58.823744 25.245) (xy 58.390582 25.331161) (xy 57.899375 25.659375) (xy 57.7 25.957761) (xy 57.500625 25.659375)
        (xy 57.009418 25.331161) (xy 56.576256 25.245) (xy 56.283744 25.245) (xy 55.850582 25.331161) (xy 55.359375 25.659375)
        (xy 55.16 25.957761) (xy 54.960625 25.659375) (xy 54.469418 25.331161) (xy 54.036256 25.245) (xy 53.743744 25.245)
        (xy 53.310582 25.331161) (xy 52.819375 25.659375) (xy 52.62 25.957761) (xy 52.420625 25.659375) (xy 51.929418 25.331161)
        (xy 51.496256 25.245) (xy 51.203744 25.245) (xy 50.770582 25.331161) (xy 50.279375 25.659375) (xy 50.08 25.957761)
        (xy 49.880625 25.659375) (xy 49.389418 25.331161) (xy 48.956256 25.245) (xy 48.663744 25.245) (xy 48.230582 25.331161)
        (xy 47.739375 25.659375) (xy 47.54 25.957761) (xy 47.340625 25.659375) (xy 46.849418 25.331161) (xy 46.416256 25.245)
        (xy 46.123744 25.245) (xy 45.690582 25.331161) (xy 45.199375 25.659375) (xy 45 25.957761) (xy 44.800625 25.659375)
        (xy 44.309418 25.331161) (xy 43.876256 25.245) (xy 43.583744 25.245) (xy 43.150582 25.331161) (xy 42.659375 25.659375)
        (xy 42.46 25.957761) (xy 42.260625 25.659375) (xy 41.769418 25.331161) (xy 41.336256 25.245) (xy 41.043744 25.245)
        (xy 40.610582 25.331161) (xy 40.119375 25.659375) (xy 39.92 25.957761) (xy 39.720625 25.659375) (xy 39.229418 25.331161)
        (xy 38.796256 25.245) (xy 38.503744 25.245) (xy 38.070582 25.331161) (xy 37.579375 25.659375) (xy 37.38 25.957761)
        (xy 37.180625 25.659375) (xy 36.689418 25.331161) (xy 36.256256 25.245) (xy 35.963744 25.245) (xy 35.530582 25.331161)
        (xy 35.039375 25.659375) (xy 34.84 25.957761) (xy 34.640625 25.659375) (xy 34.149418 25.331161) (xy 33.716256 25.245)
        (xy 33.423744 25.245) (xy 32.990582 25.331161) (xy 32.499375 25.659375) (xy 32.3 25.957761) (xy 32.100625 25.659375)
        (xy 31.609418 25.331161) (xy 31.176256 25.245) (xy 30.883744 25.245) (xy 30.450582 25.331161) (xy 29.959375 25.659375)
        (xy 29.76 25.957761) (xy 29.560625 25.659375) (xy 29.069418 25.331161) (xy 28.636256 25.245) (xy 28.343744 25.245)
        (xy 27.910582 25.331161) (xy 27.419375 25.659375) (xy 27.22 25.957761) (xy 27.020625 25.659375) (xy 26.529418 25.331161)
        (xy 26.096256 25.245) (xy 25.803744 25.245) (xy 25.370582 25.331161) (xy 24.879375 25.659375) (xy 24.68 25.957761)
        (xy 24.480625 25.659375) (xy 23.989418 25.331161) (xy 23.556256 25.245) (xy 23.263744 25.245) (xy 22.830582 25.331161)
        (xy 22.339375 25.659375) (xy 22.14 25.957761) (xy 21.940625 25.659375) (xy 21.449418 25.331161) (xy 21.016256 25.245)
        (xy 20.723744 25.245) (xy 20.290582 25.331161) (xy 19.799375 25.659375) (xy 19.471161 26.150582) (xy 19.355908 26.73)
        (xy 19.399462 26.94896) (xy 19.157676 27.190746) (xy 18.735719 26.172051) (xy 17.827949 25.264281) (xy 17.636547 25.185)
        (xy 72.363453 25.185)
      )
    )
  )
  (zone (net 38) (net_name GND) (layer B.Cu) (tstamp 5D36CB8F) (hatch edge 0.508)
    (connect_pads (clearance 0.508))
    (min_thickness 0.254)
    (fill yes (arc_segments 16) (thermal_gap 0.508) (thermal_bridge_width 0.508))
    (polygon
      (pts
        (xy 12.52 27.09) (xy 12.71 26.32) (xy 13.3 25.52) (xy 13.96 24.91) (xy 14.76 24.58)
        (xy 15.37 24.51) (xy 74.74 24.5) (xy 75.5 24.71) (xy 76.23 25.09) (xy 77.06 25.99)
        (xy 77.46 26.98) (xy 77.49 29.24) (xy 77.54 33.99) (xy 77.49 34.52) (xy 77.52 35.5)
        (xy 77.51 51.51) (xy 77.22 52.86) (xy 76.34 53.95) (xy 75.38 54.43) (xy 74.86 54.51)
        (xy 51.08 54.49) (xy 16.38 54.48) (xy 15.32 54.51) (xy 14.51 54.33) (xy 13.21 53.46)
        (xy 12.69 52.57) (xy 12.53 52.01) (xy 12.49 51.44)
      )
    )
    (filled_polygon
      (pts
        (xy 72.172051 25.264281) (xy 71.264281 26.172051) (xy 70.773 27.35811) (xy 70.773 28.64189) (xy 71.264281 29.827949)
        (xy 72.172051 30.735719) (xy 73.35811 31.227) (xy 74.64189 31.227) (xy 75.827949 30.735719) (xy 76.735719 29.827949)
        (xy 76.815 29.636547) (xy 76.815001 49.363455) (xy 76.735719 49.172051) (xy 75.827949 48.264281) (xy 74.64189 47.773)
        (xy 73.35811 47.773) (xy 72.172051 48.264281) (xy 71.264281 49.172051) (xy 70.773 50.35811) (xy 70.773 51.64189)
        (xy 71.264281 52.827949) (xy 72.172051 53.735719) (xy 72.363453 53.815) (xy 17.636547 53.815) (xy 17.827949 53.735719)
        (xy 18.735719 52.827949) (xy 19.227 51.64189) (xy 19.227 51.127) (xy 28.5014 51.127) (xy 28.5014 51.7874)
        (xy 28.664075 52.351222) (xy 29.030132 52.809873) (xy 29.543843 53.093527) (xy 29.640974 53.115358) (xy 29.873 52.994217)
        (xy 29.873 51.127) (xy 30.127 51.127) (xy 30.127 52.994217) (xy 30.359026 53.115358) (xy 30.456157 53.093527)
        (xy 30.969868 52.809873) (xy 31.335925 52.351222) (xy 31.4986 51.7874) (xy 31.4986 51.127) (xy 30.127 51.127)
        (xy 29.873 51.127) (xy 28.5014 51.127) (xy 19.227 51.127) (xy 19.227 50.35811) (xy 19.166728 50.2126)
        (xy 28.5014 50.2126) (xy 28.5014 50.873) (xy 29.873 50.873) (xy 29.873 49.005783) (xy 30.127 49.005783)
        (xy 30.127 50.873) (xy 31.4986 50.873) (xy 31.4986 50.2126) (xy 31.492658 50.192003) (xy 33.5014 50.192003)
        (xy 33.5014 51.807998) (xy 33.588351 52.245125) (xy 33.919571 52.74083) (xy 34.415276 53.07205) (xy 35 53.188359)
        (xy 35.584725 53.07205) (xy 36.08043 52.74083) (xy 36.41165 52.245125) (xy 36.4986 51.807998) (xy 36.4986 50.192002)
        (xy 36.41165 49.754875) (xy 36.08043 49.25917) (xy 35.842216 49.1) (xy 39.91256 49.1) (xy 39.91256 50.9)
        (xy 39.961843 51.147765) (xy 40.102191 51.357809) (xy 40.312235 51.498157) (xy 40.56 51.54744) (xy 42.36 51.54744)
        (xy 42.607765 51.498157) (xy 42.817809 51.357809) (xy 42.950058 51.159886) (xy 42.98489 51.194718) (xy 43.099447 51.080161)
        (xy 43.185852 51.336643) (xy 43.759336 51.546458) (xy 44.36946 51.520839) (xy 44.814148 51.336643) (xy 44.900554 51.080159)
        (xy 44 50.179605) (xy 43.985858 50.193748) (xy 43.806253 50.014143) (xy 43.820395 50) (xy 44.179605 50)
        (xy 45.080159 50.900554) (xy 45.336643 50.814148) (xy 45.546458 50.240664) (xy 45.520839 49.63054) (xy 45.336643 49.185852)
        (xy 45.081804 49.1) (xy 45.91256 49.1) (xy 45.91256 50.9) (xy 45.961843 51.147765) (xy 46.102191 51.357809)
        (xy 46.312235 51.498157) (xy 46.56 51.54744) (xy 48.36 51.54744) (xy 48.583693 51.502945) (xy 48.804126 51.723378)
        (xy 49.029459 51.498045) (xy 49.10693 51.863792) (xy 49.888153 52.063683) (xy 50.686403 51.949397) (xy 50.89307 51.863792)
        (xy 50.970542 51.498043) (xy 50 50.527502) (xy 49.985858 50.541644) (xy 49.458356 50.014142) (xy 49.472498 50)
        (xy 50.527502 50) (xy 51.498043 50.970542) (xy 51.863792 50.89307) (xy 52.063683 50.111847) (xy 51.949397 49.313597)
        (xy 51.863792 49.10693) (xy 51.498043 49.029458) (xy 50.527502 50) (xy 49.472498 50) (xy 49.458356 49.985858)
        (xy 49.985858 49.458356) (xy 50 49.472498) (xy 50.970542 48.501957) (xy 50.89307 48.136208) (xy 50.111847 47.936317)
        (xy 49.313597 48.050603) (xy 49.10693 48.136208) (xy 49.029459 48.501955) (xy 48.804126 48.276622) (xy 48.595 48.485748)
        (xy 48.595 48.010131) (xy 49.170132 47.435) (xy 49.285439 47.435) (xy 49.812862 47.216534) (xy 50.216534 46.812862)
        (xy 50.435 46.285439) (xy 50.435 45.714561) (xy 50.216534 45.187138) (xy 49.812862 44.783466) (xy 49.285439 44.565)
        (xy 48.714561 44.565) (xy 48.187138 44.783466) (xy 47.783466 45.187138) (xy 47.565 45.714561) (xy 47.565 45.829868)
        (xy 46.736482 46.658387) (xy 46.641711 46.721711) (xy 46.4109 47.067145) (xy 46.390854 47.097146) (xy 46.302765 47.54)
        (xy 46.325 47.651783) (xy 46.325 48.499304) (xy 46.312235 48.501843) (xy 46.102191 48.642191) (xy 45.961843 48.852235)
        (xy 45.91256 49.1) (xy 45.081804 49.1) (xy 45.080159 49.099446) (xy 44.179605 50) (xy 43.820395 50)
        (xy 43.806253 49.985858) (xy 43.985858 49.806253) (xy 44 49.820395) (xy 44.900554 48.919841) (xy 44.814148 48.663357)
        (xy 44.240664 48.453542) (xy 43.63054 48.479161) (xy 43.185852 48.663357) (xy 43.099447 48.919839) (xy 42.98489 48.805282)
        (xy 42.950058 48.840114) (xy 42.817809 48.642191) (xy 42.607765 48.501843) (xy 42.595 48.499304) (xy 42.595 47.980131)
        (xy 43.051609 47.523522) (xy 43.110758 47.435) (xy 43.285439 47.435) (xy 43.812862 47.216534) (xy 44.216534 46.812862)
        (xy 44.435 46.285439) (xy 44.435 45.714561) (xy 44.216534 45.187138) (xy 43.812862 44.783466) (xy 43.285439 44.565)
        (xy 42.714561 44.565) (xy 42.187138 44.783466) (xy 41.783466 45.187138) (xy 41.565 45.714561) (xy 41.565 45.839196)
        (xy 41.446478 45.918391) (xy 40.736482 46.628387) (xy 40.641711 46.691711) (xy 40.482881 46.929418) (xy 40.390854 47.067146)
        (xy 40.302765 47.51) (xy 40.325 47.621783) (xy 40.325 48.499304) (xy 40.312235 48.501843) (xy 40.102191 48.642191)
        (xy 39.961843 48.852235) (xy 39.91256 49.1) (xy 35.842216 49.1) (xy 35.584724 48.92795) (xy 35 48.811641)
        (xy 34.415275 48.92795) (xy 33.91957 49.25917) (xy 33.58835 49.754876) (xy 33.5014 50.192003) (xy 31.492658 50.192003)
        (xy 31.335925 49.648778) (xy 30.969868 49.190127) (xy 30.456157 48.906473) (xy 30.359026 48.884642) (xy 30.127 49.005783)
        (xy 29.873 49.005783) (xy 29.640974 48.884642) (xy 29.543843 48.906473) (xy 29.030132 49.190127) (xy 28.664075 49.648778)
        (xy 28.5014 50.2126) (xy 19.166728 50.2126) (xy 18.735719 49.172051) (xy 17.827949 48.264281) (xy 16.64189 47.773)
        (xy 16.527952 47.773) (xy 16.649418 47.748839) (xy 17.044281 47.485) (xy 20.148217 47.485) (xy 20.26 47.507235)
        (xy 20.371783 47.485) (xy 20.702855 47.419146) (xy 21.078289 47.168289) (xy 21.141613 47.073518) (xy 26.693521 41.521611)
        (xy 26.788289 41.458289) (xy 27.039146 41.082855) (xy 27.105 40.751783) (xy 27.127235 40.640001) (xy 27.105 40.528219)
        (xy 27.105 38.627) (xy 28.5014 38.627) (xy 28.5014 39.2874) (xy 28.664075 39.851222) (xy 29.030132 40.309873)
        (xy 29.543843 40.593527) (xy 29.640974 40.615358) (xy 29.873 40.494217) (xy 29.873 38.627) (xy 30.127 38.627)
        (xy 30.127 40.494217) (xy 30.359026 40.615358) (xy 30.456157 40.593527) (xy 30.969868 40.309873) (xy 31.335925 39.851222)
        (xy 31.4986 39.2874) (xy 31.4986 38.627) (xy 30.127 38.627) (xy 29.873 38.627) (xy 28.5014 38.627)
        (xy 27.105 38.627) (xy 27.105 37.7126) (xy 28.5014 37.7126) (xy 28.5014 38.373) (xy 29.873 38.373)
        (xy 29.873 36.505783) (xy 30.127 36.505783) (xy 30.127 38.373) (xy 31.4986 38.373) (xy 31.4986 37.7126)
        (xy 31.335925 37.148778) (xy 30.969868 36.690127) (xy 30.456157 36.406473) (xy 30.359026 36.384642) (xy 30.127 36.505783)
        (xy 29.873 36.505783) (xy 29.640974 36.384642) (xy 29.543843 36.406473) (xy 29.030132 36.690127) (xy 28.664075 37.148778)
        (xy 28.5014 37.7126) (xy 27.105 37.7126) (xy 27.105 32.438793) (xy 27.185 32.245657) (xy 27.185 31.754343)
        (xy 32.335 31.754343) (xy 32.335 32.245657) (xy 32.435 32.487078) (xy 32.435001 33.718212) (xy 32.412765 33.83)
        (xy 32.500854 34.272854) (xy 32.500855 34.272855) (xy 32.751712 34.648289) (xy 32.84648 34.711611) (xy 33.865 35.730132)
        (xy 33.865 36.840839) (xy 33.58835 37.254876) (xy 33.5014 37.692003) (xy 33.5014 39.307998) (xy 33.588351 39.745125)
        (xy 33.919571 40.24083) (xy 34.415276 40.57205) (xy 35 40.688359) (xy 35.584725 40.57205) (xy 36.08043 40.24083)
        (xy 36.41165 39.745125) (xy 36.4986 39.307998) (xy 36.4986 37.692002) (xy 36.41165 37.254875) (xy 36.135 36.84084)
        (xy 36.135 35.371781) (xy 36.157235 35.259999) (xy 36.129067 35.118392) (xy 36.069146 34.817145) (xy 35.818289 34.441711)
        (xy 35.723521 34.378389) (xy 34.705 33.359869) (xy 34.705 32.487078) (xy 34.805 32.245657) (xy 34.805 31.754343)
        (xy 34.616982 31.300429) (xy 34.269571 30.953018) (xy 33.815657 30.765) (xy 33.324343 30.765) (xy 32.870429 30.953018)
        (xy 32.523018 31.300429) (xy 32.335 31.754343) (xy 27.185 31.754343) (xy 26.996982 31.300429) (xy 26.649571 30.953018)
        (xy 26.195657 30.765) (xy 25.704343 30.765) (xy 25.250429 30.953018) (xy 24.903018 31.300429) (xy 24.715 31.754343)
        (xy 24.715 32.245657) (xy 24.835 32.535362) (xy 24.835001 40.169867) (xy 24.282005 40.722863) (xy 24.489146 40.412855)
        (xy 24.555 40.081783) (xy 24.577235 39.970001) (xy 24.555 39.858218) (xy 24.555 32.487078) (xy 24.655 32.245657)
        (xy 24.655 31.754343) (xy 24.466982 31.300429) (xy 24.119571 30.953018) (xy 23.665657 30.765) (xy 23.174343 30.765)
        (xy 22.720429 30.953018) (xy 22.373018 31.300429) (xy 22.185 31.754343) (xy 22.185 32.245657) (xy 22.285 32.487078)
        (xy 22.285001 39.499867) (xy 19.109869 42.675) (xy 17.493277 42.675) (xy 17.377809 42.502191) (xy 17.167765 42.361843)
        (xy 16.92 42.31256) (xy 16.801769 42.31256) (xy 16.881358 42.275183) (xy 17.271645 41.846924) (xy 17.441476 41.43689)
        (xy 17.320155 41.207) (xy 16.127 41.207) (xy 16.127 41.227) (xy 15.873 41.227) (xy 15.873 41.207)
        (xy 14.679845 41.207) (xy 14.558524 41.43689) (xy 14.728355 41.846924) (xy 15.118642 42.275183) (xy 15.204708 42.315602)
        (xy 14.972235 42.361843) (xy 14.762191 42.502191) (xy 14.621843 42.712235) (xy 14.57256 42.96) (xy 14.57256 44.66)
        (xy 14.621843 44.907765) (xy 14.762191 45.117809) (xy 14.972235 45.258157) (xy 15.017619 45.267184) (xy 14.999375 45.279375)
        (xy 14.671161 45.770582) (xy 14.555908 46.35) (xy 14.671161 46.929418) (xy 14.999375 47.420625) (xy 15.490582 47.748839)
        (xy 15.612048 47.773) (xy 15.35811 47.773) (xy 14.172051 48.264281) (xy 13.264281 49.172051) (xy 13.185 49.363453)
        (xy 13.185 38.54) (xy 14.485908 38.54) (xy 14.601161 39.119418) (xy 14.929375 39.610625) (xy 15.248478 39.823843)
        (xy 15.118642 39.884817) (xy 14.728355 40.313076) (xy 14.558524 40.72311) (xy 14.679845 40.953) (xy 15.873 40.953)
        (xy 15.873 40.933) (xy 16.127 40.933) (xy 16.127 40.953) (xy 17.320155 40.953) (xy 17.441476 40.72311)
        (xy 17.271645 40.313076) (xy 16.881358 39.884817) (xy 16.751522 39.823843) (xy 16.974281 39.675) (xy 17.758217 39.675)
        (xy 17.87 39.697235) (xy 17.981783 39.675) (xy 18.312855 39.609146) (xy 18.688289 39.358289) (xy 18.751613 39.263518)
        (xy 21.603521 36.411611) (xy 21.698289 36.348289) (xy 21.949146 35.972855) (xy 22.015 35.641783) (xy 22.037235 35.53)
        (xy 22.015 35.418217) (xy 22.015 32.487078) (xy 22.115 32.245657) (xy 22.115 31.754343) (xy 21.926982 31.300429)
        (xy 21.579571 30.953018) (xy 21.131548 30.76744) (xy 21.72 30.76744) (xy 21.967765 30.718157) (xy 22.177809 30.577809)
        (xy 22.318157 30.367765) (xy 22.327184 30.322381) (xy 22.339375 30.340625) (xy 22.830582 30.668839) (xy 23.263744 30.755)
        (xy 23.556256 30.755) (xy 23.989418 30.668839) (xy 24.480625 30.340625) (xy 24.68 30.042239) (xy 24.879375 30.340625)
        (xy 25.370582 30.668839) (xy 25.803744 30.755) (xy 26.096256 30.755) (xy 26.529418 30.668839) (xy 27.020625 30.340625)
        (xy 27.22 30.042239) (xy 27.419375 30.340625) (xy 27.910582 30.668839) (xy 28.343744 30.755) (xy 28.636256 30.755)
        (xy 29.069418 30.668839) (xy 29.560625 30.340625) (xy 29.773843 30.021522) (xy 29.834817 30.151358) (xy 30.263076 30.541645)
        (xy 30.67311 30.711476) (xy 30.903 30.590155) (xy 30.903 29.397) (xy 30.883 29.397) (xy 30.883 29.143)
        (xy 30.903 29.143) (xy 30.903 29.123) (xy 31.157 29.123) (xy 31.157 29.143) (xy 31.177 29.143)
        (xy 31.177 29.397) (xy 31.157 29.397) (xy 31.157 30.590155) (xy 31.38689 30.711476) (xy 31.796924 30.541645)
        (xy 32.225183 30.151358) (xy 32.286157 30.021522) (xy 32.499375 30.340625) (xy 32.990582 30.668839) (xy 33.423744 30.755)
        (xy 33.716256 30.755) (xy 34.149418 30.668839) (xy 34.640625 30.340625) (xy 34.84 30.042239) (xy 35.039375 30.340625)
        (xy 35.530582 30.668839) (xy 35.963744 30.755) (xy 36.256256 30.755) (xy 36.689418 30.668839) (xy 37.180625 30.340625)
        (xy 37.38 30.042239) (xy 37.579375 30.340625) (xy 38.070582 30.668839) (xy 38.503744 30.755) (xy 38.796256 30.755)
        (xy 39.228594 30.669003) (xy 39.216915 30.686482) (xy 39.070229 30.833168) (xy 38.905657 30.765) (xy 38.414343 30.765)
        (xy 37.960429 30.953018) (xy 37.613018 31.300429) (xy 37.425 31.754343) (xy 37.425 32.165) (xy 37.335 32.165)
        (xy 37.335 31.754343) (xy 37.146982 31.300429) (xy 36.799571 30.953018) (xy 36.345657 30.765) (xy 35.854343 30.765)
        (xy 35.400429 30.953018) (xy 35.053018 31.300429) (xy 34.865 31.754343) (xy 34.865 32.245657) (xy 34.965 32.487078)
        (xy 34.965 32.778217) (xy 34.942765 32.89) (xy 34.965 33.001782) (xy 34.965 33.001783) (xy 35.030854 33.332855)
        (xy 35.281712 33.708289) (xy 35.376479 33.77161) (xy 35.628389 34.02352) (xy 35.691711 34.118289) (xy 36.067145 34.369146)
        (xy 36.398217 34.435) (xy 36.51 34.457235) (xy 36.621783 34.435) (xy 42.115717 34.435) (xy 42.440091 34.65174)
        (xy 42.858667 34.735) (xy 43.141333 34.735) (xy 43.559909 34.65174) (xy 44.034577 34.334577) (xy 44.35174 33.859909)
        (xy 44.463113 33.3) (xy 44.35174 32.740091) (xy 44.221384 32.545) (xy 46.639869 32.545) (xy 47.572151 33.477282)
        (xy 47.64826 33.859909) (xy 47.965423 34.334577) (xy 48.440091 34.65174) (xy 48.858667 34.735) (xy 49.141333 34.735)
        (xy 49.559909 34.65174) (xy 50.034577 34.334577) (xy 50.35174 33.859909) (xy 50.463113 33.3) (xy 50.35174 32.740091)
        (xy 50.034577 32.265423) (xy 49.559909 31.94826) (xy 49.177282 31.872151) (xy 49.059474 31.754343) (xy 55.195 31.754343)
        (xy 55.195 32.245657) (xy 55.305 32.51122) (xy 55.305001 37.828212) (xy 55.282765 37.94) (xy 55.370854 38.382854)
        (xy 55.370855 38.382855) (xy 55.621712 38.758289) (xy 55.71648 38.821611) (xy 62.618389 45.723521) (xy 62.681711 45.818289)
        (xy 63.057145 46.069146) (xy 63.5 46.157235) (xy 63.611783 46.135) (xy 72.576723 46.135) (xy 72.692191 46.307809)
        (xy 72.902235 46.448157) (xy 73.15 46.49744) (xy 74.85 46.49744) (xy 75.097765 46.448157) (xy 75.307809 46.307809)
        (xy 75.448157 46.097765) (xy 75.49744 45.85) (xy 75.49744 44.15) (xy 75.448157 43.902235) (xy 75.307809 43.692191)
        (xy 75.097765 43.551843) (xy 75.052381 43.542816) (xy 75.070625 43.530625) (xy 75.398839 43.039418) (xy 75.514092 42.46)
        (xy 75.398839 41.880582) (xy 75.070625 41.389375) (xy 74.772239 41.19) (xy 75.070625 40.990625) (xy 75.398839 40.499418)
        (xy 75.514092 39.92) (xy 75.398839 39.340582) (xy 75.070625 38.849375) (xy 74.772239 38.65) (xy 75.070625 38.450625)
        (xy 75.398839 37.959418) (xy 75.514092 37.38) (xy 75.398839 36.800582) (xy 75.070625 36.309375) (xy 74.772239 36.11)
        (xy 75.070625 35.910625) (xy 75.398839 35.419418) (xy 75.514092 34.84) (xy 75.398839 34.260582) (xy 75.070625 33.769375)
        (xy 74.579418 33.441161) (xy 74.146256 33.355) (xy 73.853744 33.355) (xy 73.420582 33.441161) (xy 73.025719 33.705)
        (xy 68.430132 33.705) (xy 67.735 33.009869) (xy 67.735 32.51122) (xy 67.845 32.245657) (xy 67.845 31.754343)
        (xy 67.656982 31.300429) (xy 67.309571 30.953018) (xy 66.855657 30.765) (xy 66.364343 30.765) (xy 65.910429 30.953018)
        (xy 65.563018 31.300429) (xy 65.375 31.754343) (xy 65.375 32.245657) (xy 65.465 32.462935) (xy 65.465 33.368217)
        (xy 65.442765 33.48) (xy 65.465 33.591783) (xy 65.530854 33.922855) (xy 65.781712 34.298289) (xy 65.87648 34.361611)
        (xy 67.078389 35.563521) (xy 67.141711 35.658289) (xy 67.517145 35.909146) (xy 67.848217 35.975) (xy 67.959999 35.997235)
        (xy 68.071781 35.975) (xy 73.025719 35.975) (xy 73.227761 36.11) (xy 73.025719 36.245) (xy 65.920132 36.245)
        (xy 65.205 35.529869) (xy 65.205 32.462935) (xy 65.295 32.245657) (xy 65.295 31.754343) (xy 65.106982 31.300429)
        (xy 64.759571 30.953018) (xy 64.305657 30.765) (xy 63.814343 30.765) (xy 63.360429 30.953018) (xy 63.013018 31.300429)
        (xy 62.825 31.754343) (xy 62.825 32.245657) (xy 62.935 32.51122) (xy 62.935001 35.888212) (xy 62.912765 36)
        (xy 63.000854 36.442854) (xy 63.000855 36.442855) (xy 63.251712 36.818289) (xy 63.34648 36.881611) (xy 64.568389 38.103521)
        (xy 64.631711 38.198289) (xy 64.907934 38.382855) (xy 65.007145 38.449146) (xy 65.45 38.537235) (xy 65.561783 38.515)
        (xy 73.025719 38.515) (xy 73.227761 38.65) (xy 73.025719 38.785) (xy 64.670132 38.785) (xy 62.635 36.749869)
        (xy 62.635 32.51122) (xy 62.745 32.245657) (xy 62.745 31.754343) (xy 62.556982 31.300429) (xy 62.209571 30.953018)
        (xy 61.755657 30.765) (xy 61.264343 30.765) (xy 60.810429 30.953018) (xy 60.463018 31.300429) (xy 60.275 31.754343)
        (xy 60.275 32.245657) (xy 60.365 32.462936) (xy 60.365001 37.108212) (xy 60.342765 37.22) (xy 60.406736 37.541605)
        (xy 60.105 37.239869) (xy 60.105 32.51122) (xy 60.215 32.245657) (xy 60.215 31.754343) (xy 60.026982 31.300429)
        (xy 59.679571 30.953018) (xy 59.225657 30.765) (xy 58.734343 30.765) (xy 58.280429 30.953018) (xy 57.933018 31.300429)
        (xy 57.745 31.754343) (xy 57.745 32.245657) (xy 57.835 32.462936) (xy 57.835001 37.598212) (xy 57.813158 37.708026)
        (xy 57.575 37.469869) (xy 57.575 32.462935) (xy 57.665 32.245657) (xy 57.665 31.754343) (xy 57.476982 31.300429)
        (xy 57.129571 30.953018) (xy 56.675657 30.765) (xy 56.184343 30.765) (xy 55.730429 30.953018) (xy 55.383018 31.300429)
        (xy 55.195 31.754343) (xy 49.059474 31.754343) (xy 47.991613 30.686482) (xy 47.928289 30.591711) (xy 47.552855 30.340854)
        (xy 47.365388 30.303565) (xy 47.54 30.042239) (xy 47.739375 30.340625) (xy 48.230582 30.668839) (xy 48.663744 30.755)
        (xy 48.956256 30.755) (xy 49.389418 30.668839) (xy 49.880625 30.340625) (xy 50.08 30.042239) (xy 50.279375 30.340625)
        (xy 50.770582 30.668839) (xy 51.203744 30.755) (xy 51.496256 30.755) (xy 51.929418 30.668839) (xy 52.420625 30.340625)
        (xy 52.62 30.042239) (xy 52.819375 30.340625) (xy 53.310582 30.668839) (xy 53.743744 30.755) (xy 54.036256 30.755)
        (xy 54.469418 30.668839) (xy 54.960625 30.340625) (xy 55.16 30.042239) (xy 55.359375 30.340625) (xy 55.850582 30.668839)
        (xy 56.283744 30.755) (xy 56.576256 30.755) (xy 57.009418 30.668839) (xy 57.500625 30.340625) (xy 57.7 30.042239)
        (xy 57.899375 30.340625) (xy 58.390582 30.668839) (xy 58.823744 30.755) (xy 59.116256 30.755) (xy 59.549418 30.668839)
        (xy 60.040625 30.340625) (xy 60.24 30.042239) (xy 60.439375 30.340625) (xy 60.930582 30.668839) (xy 61.363744 30.755)
        (xy 61.656256 30.755) (xy 62.089418 30.668839) (xy 62.580625 30.340625) (xy 62.78 30.042239) (xy 62.979375 30.340625)
        (xy 63.470582 30.668839) (xy 63.903744 30.755) (xy 64.196256 30.755) (xy 64.629418 30.668839) (xy 65.120625 30.340625)
        (xy 65.32 30.042239) (xy 65.519375 30.340625) (xy 66.010582 30.668839) (xy 66.443744 30.755) (xy 66.736256 30.755)
        (xy 67.169418 30.668839) (xy 67.660625 30.340625) (xy 67.873843 30.021522) (xy 67.934817 30.151358) (xy 68.363076 30.541645)
        (xy 68.77311 30.711476) (xy 69.003 30.590155) (xy 69.003 29.397) (xy 69.257 29.397) (xy 69.257 30.590155)
        (xy 69.48689 30.711476) (xy 69.896924 30.541645) (xy 70.325183 30.151358) (xy 70.571486 29.626892) (xy 70.450819 29.397)
        (xy 69.257 29.397) (xy 69.003 29.397) (xy 68.983 29.397) (xy 68.983 29.143) (xy 69.003 29.143)
        (xy 69.003 29.123) (xy 69.257 29.123) (xy 69.257 29.143) (xy 70.450819 29.143) (xy 70.571486 28.913108)
        (xy 70.325183 28.388642) (xy 69.900214 28.001353) (xy 70.200625 27.800625) (xy 70.528839 27.309418) (xy 70.644092 26.73)
        (xy 70.528839 26.150582) (xy 70.200625 25.659375) (xy 69.709418 25.331161) (xy 69.276256 25.245) (xy 68.983744 25.245)
        (xy 68.550582 25.331161) (xy 68.059375 25.659375) (xy 67.86 25.957761) (xy 67.660625 25.659375) (xy 67.169418 25.331161)
        (xy 66.736256 25.245) (xy 66.443744 25.245) (xy 66.010582 25.331161) (xy 65.519375 25.659375) (xy 65.32 25.957761)
        (xy 65.120625 25.659375) (xy 64.629418 25.331161) (xy 64.196256 25.245) (xy 63.903744 25.245) (xy 63.470582 25.331161)
        (xy 62.979375 25.659375) (xy 62.78 25.957761) (xy 62.580625 25.659375) (xy 62.089418 25.331161) (xy 61.656256 25.245)
        (xy 61.363744 25.245) (xy 60.930582 25.331161) (xy 60.439375 25.659375) (xy 60.24 25.957761) (xy 60.040625 25.659375)
        (xy 59.549418 25.331161) (xy 59.116256 25.245) (xy 58.823744 25.245) (xy 58.390582 25.331161) (xy 57.899375 25.659375)
        (xy 57.7 25.957761) (xy 57.500625 25.659375) (xy 57.009418 25.331161) (xy 56.576256 25.245) (xy 56.283744 25.245)
        (xy 55.850582 25.331161) (xy 55.359375 25.659375) (xy 55.16 25.957761) (xy 54.960625 25.659375) (xy 54.469418 25.331161)
        (xy 54.036256 25.245) (xy 53.743744 25.245) (xy 53.310582 25.331161) (xy 52.819375 25.659375) (xy 52.62 25.957761)
        (xy 52.420625 25.659375) (xy 51.929418 25.331161) (xy 51.496256 25.245) (xy 51.203744 25.245) (xy 50.770582 25.331161)
        (xy 50.279375 25.659375) (xy 50.08 25.957761) (xy 49.880625 25.659375) (xy 49.389418 25.331161) (xy 48.956256 25.245)
        (xy 48.663744 25.245) (xy 48.230582 25.331161) (xy 47.739375 25.659375) (xy 47.54 25.957761) (xy 47.340625 25.659375)
        (xy 46.849418 25.331161) (xy 46.416256 25.245) (xy 46.123744 25.245) (xy 45.690582 25.331161) (xy 45.199375 25.659375)
        (xy 45 25.957761) (xy 44.800625 25.659375) (xy 44.309418 25.331161) (xy 43.876256 25.245) (xy 43.583744 25.245)
        (xy 43.150582 25.331161) (xy 42.659375 25.659375) (xy 42.46 25.957761) (xy 42.260625 25.659375) (xy 41.769418 25.331161)
        (xy 41.336256 25.245) (xy 41.043744 25.245) (xy 40.610582 25.331161) (xy 40.119375 25.659375) (xy 39.92 25.957761)
        (xy 39.720625 25.659375) (xy 39.229418 25.331161) (xy 38.796256 25.245) (xy 38.503744 25.245) (xy 38.070582 25.331161)
        (xy 37.579375 25.659375) (xy 37.38 25.957761) (xy 37.180625 25.659375) (xy 36.689418 25.331161) (xy 36.256256 25.245)
        (xy 35.963744 25.245) (xy 35.530582 25.331161) (xy 35.039375 25.659375) (xy 34.84 25.957761) (xy 34.640625 25.659375)
        (xy 34.149418 25.331161) (xy 33.716256 25.245) (xy 33.423744 25.245) (xy 32.990582 25.331161) (xy 32.499375 25.659375)
        (xy 32.3 25.957761) (xy 32.100625 25.659375) (xy 31.609418 25.331161) (xy 31.176256 25.245) (xy 30.883744 25.245)
        (xy 30.450582 25.331161) (xy 29.959375 25.659375) (xy 29.76 25.957761) (xy 29.560625 25.659375) (xy 29.069418 25.331161)
        (xy 28.636256 25.245) (xy 28.343744 25.245) (xy 27.910582 25.331161) (xy 27.419375 25.659375) (xy 27.22 25.957761)
        (xy 27.020625 25.659375) (xy 26.529418 25.331161) (xy 26.096256 25.245) (xy 25.803744 25.245) (xy 25.370582 25.331161)
        (xy 24.879375 25.659375) (xy 24.68 25.957761) (xy 24.480625 25.659375) (xy 23.989418 25.331161) (xy 23.556256 25.245)
        (xy 23.263744 25.245) (xy 22.830582 25.331161) (xy 22.339375 25.659375) (xy 22.14 25.957761) (xy 21.940625 25.659375)
        (xy 21.449418 25.331161) (xy 21.016256 25.245) (xy 20.723744 25.245) (xy 20.290582 25.331161) (xy 19.799375 25.659375)
        (xy 19.471161 26.150582) (xy 19.355908 26.73) (xy 19.471161 27.309418) (xy 19.799375 27.800625) (xy 19.817619 27.812816)
        (xy 19.772235 27.821843) (xy 19.562191 27.962191) (xy 19.421843 28.172235) (xy 19.37256 28.42) (xy 19.37256 30.12)
        (xy 19.421843 30.367765) (xy 19.562191 30.577809) (xy 19.772235 30.718157) (xy 20.02 30.76744) (xy 20.628452 30.76744)
        (xy 20.205 30.94284) (xy 19.775657 30.765) (xy 19.284343 30.765) (xy 18.830429 30.953018) (xy 18.483018 31.300429)
        (xy 18.295 31.754343) (xy 18.295 32.245657) (xy 18.395 32.487078) (xy 18.395001 33.799867) (xy 17.385863 34.809006)
        (xy 17.307809 34.692191) (xy 17.097765 34.551843) (xy 16.85 34.50256) (xy 15.15 34.50256) (xy 14.902235 34.551843)
        (xy 14.692191 34.692191) (xy 14.551843 34.902235) (xy 14.50256 35.15) (xy 14.50256 36.85) (xy 14.551843 37.097765)
        (xy 14.692191 37.307809) (xy 14.902235 37.448157) (xy 14.947619 37.457184) (xy 14.929375 37.469375) (xy 14.601161 37.960582)
        (xy 14.485908 38.54) (xy 13.185 38.54) (xy 13.185 29.636547) (xy 13.264281 29.827949) (xy 14.172051 30.735719)
        (xy 15.35811 31.227) (xy 16.64189 31.227) (xy 17.827949 30.735719) (xy 18.735719 29.827949) (xy 19.227 28.64189)
        (xy 19.227 27.35811) (xy 18.735719 26.172051) (xy 17.827949 25.264281) (xy 17.636547 25.185) (xy 72.363453 25.185)
      )
    )
  )
)
