EESchema Schematic File Version 4
EELAYER 26 0
EELAYER END
$Descr A4 11693 8268
encoding utf-8
Sheet 1 1
Title ""
Date ""
Rev ""
Comp ""
Comment1 ""
Comment2 ""
Comment3 ""
Comment4 ""
$EndDescr
Text Notes 7450 5000 0    100  Italic 0
Thru-Hole Connector
$Comp
L Device:R R2
U 1 1 5D33197B
P 6550 3100
F 0 "R2" H 6620 3146 50  0000 L CNN
F 1 "R" H 6620 3055 50  0000 L CNN
F 2 "Resistor_THT:R_Axial_DIN0309_L9.0mm_D3.2mm_P12.70mm_Horizontal" V 6480 3100 50  0001 C CNN
F 3 "~" H 6550 3100 50  0001 C CNN
	1    6550 3100
	-1   0    0    -1  
$EndComp
$Comp
L Device:LED D2
U 1 1 5D331A0D
P 6250 2950
F 0 "D2" H 6241 3166 50  0000 C CNN
F 1 "LED" H 6241 3075 50  0000 C CNN
F 2 "LED_THT:LED_D3.0mm" H 6250 2950 50  0001 C CNN
F 3 "~" H 6250 2950 50  0001 C CNN
	1    6250 2950
	-1   0    0    -1  
$EndComp
$Comp
L Switch:SW_Push SW1
U 1 1 5D331ADD
P 6300 2500
F 0 "SW1" H 6300 2785 50  0000 C CNN
F 1 "SW_Push" H 6300 2650 50  0000 C CNN
F 2 "Button_Switch_THT:SW_PUSH-12mm" H 6300 2700 50  0001 C CNN
F 3 "" H 6300 2700 50  0001 C CNN
	1    6300 2500
	1    0    0    -1  
$EndComp
$Comp
L Device:LED D1
U 1 1 5D331CBE
P 6250 3450
F 0 "D1" H 6241 3666 50  0000 C CNN
F 1 "LED" H 6241 3575 50  0000 C CNN
F 2 "LED_THT:LED_D3.0mm" H 6250 3450 50  0001 C CNN
F 3 "~" H 6250 3450 50  0001 C CNN
	1    6250 3450
	-1   0    0    -1  
$EndComp
Wire Wire Line
	6400 2950 6550 2950
Wire Wire Line
	6400 3450 6550 3450
$Comp
L power:GND #PWR0101
U 1 1 5D331F97
P 6100 2950
F 0 "#PWR0101" H 6100 2700 50  0001 C CNN
F 1 "GND" H 6105 2777 50  0000 C CNN
F 2 "" H 6100 2950 50  0001 C CNN
F 3 "" H 6100 2950 50  0001 C CNN
	1    6100 2950
	-1   0    0    -1  
$EndComp
$Comp
L power:GND #PWR0103
U 1 1 5D332023
P 6100 3450
F 0 "#PWR0103" H 6100 3200 50  0001 C CNN
F 1 "GND" H 6105 3277 50  0000 C CNN
F 2 "" H 6100 3450 50  0001 C CNN
F 3 "" H 6100 3450 50  0001 C CNN
	1    6100 3450
	-1   0    0    -1  
$EndComp
$Comp
L power:GND #PWR0104
U 1 1 5D33235A
P 6100 2500
F 0 "#PWR0104" H 6100 2250 50  0001 C CNN
F 1 "GND" H 6105 2327 50  0000 C CNN
F 2 "" H 6100 2500 50  0001 C CNN
F 3 "" H 6100 2500 50  0001 C CNN
	1    6100 2500
	1    0    0    -1  
$EndComp
NoConn ~ 9200 2800
NoConn ~ 9200 3000
NoConn ~ 9200 3100
NoConn ~ 9200 3300
NoConn ~ 9200 3500
NoConn ~ 9200 3600
NoConn ~ 9200 3700
NoConn ~ 9200 3800
NoConn ~ 9200 3900
NoConn ~ 9200 4000
NoConn ~ 9200 4100
NoConn ~ 9200 4200
NoConn ~ 9200 4300
NoConn ~ 9200 4400
NoConn ~ 9200 4500
NoConn ~ 9200 4600
NoConn ~ 7300 3000
NoConn ~ 7300 3500
NoConn ~ 7300 3600
NoConn ~ 7300 3700
NoConn ~ 7300 3800
NoConn ~ 7300 3900
NoConn ~ 7300 4000
$Comp
L Device:R R1
U 1 1 5D331899
P 6550 3600
F 0 "R1" H 6620 3646 50  0000 L CNN
F 1 "R" H 6620 3555 50  0000 L CNN
F 2 "Resistor_THT:R_Axial_DIN0309_L9.0mm_D3.2mm_P12.70mm_Horizontal" V 6480 3600 50  0001 C CNN
F 3 "~" H 6550 3600 50  0001 C CNN
	1    6550 3600
	-1   0    0    -1  
$EndComp
NoConn ~ 9200 2900
$Comp
L Connector-ML:RPi_GPIO J2
U 1 1 5516AE26
P 7500 2700
F 0 "J2" H 8250 2950 60  0000 C CNN
F 1 "RPi_GPIO" H 8250 2850 60  0000 C CNN
F 2 "RPi_Hat:Pin_Header_Straight_2x20" H 7500 2700 60  0001 C CNN
F 3 "" H 7500 2700 60  0000 C CNN
	1    7500 2700
	1    0    0    -1  
$EndComp
$Comp
L power:GND #PWR0102
U 1 1 5D333A11
P 7300 4600
F 0 "#PWR0102" H 7300 4350 50  0001 C CNN
F 1 "GND" H 7305 4427 50  0000 C CNN
F 2 "" H 7300 4600 50  0001 C CNN
F 3 "" H 7300 4600 50  0001 C CNN
	1    7300 4600
	1    0    0    -1  
$EndComp
Wire Wire Line
	6550 3250 6550 3300
Wire Wire Line
	6550 3300 7300 3300
Wire Wire Line
	6550 3750 6700 3750
Wire Wire Line
	6700 3750 6700 3400
Wire Wire Line
	6700 3400 7300 3400
Wire Wire Line
	6500 2500 6500 2850
Wire Wire Line
	6500 2850 6750 2850
Wire Wire Line
	6750 2850 6750 3200
Wire Wire Line
	6750 3200 7300 3200
$Comp
L power:GND #PWR0105
U 1 1 5D333ED9
P 7300 3100
F 0 "#PWR0105" H 7300 2850 50  0001 C CNN
F 1 "GND" H 7305 2927 50  0000 C CNN
F 2 "" H 7300 3100 50  0001 C CNN
F 3 "" H 7300 3100 50  0001 C CNN
	1    7300 3100
	1    0    0    -1  
$EndComp
$Comp
L Connector:Conn_01x03_Male J1
U 1 1 5D333F53
P 6900 2100
F 0 "J1" H 7006 2378 50  0000 C CNN
F 1 "Conn_01x03_Male" H 7006 2287 50  0000 C CNN
F 2 "Connector_PinHeader_2.54mm:PinHeader_1x03_P2.54mm_Vertical" H 6900 2100 50  0001 C CNN
F 3 "~" H 6900 2100 50  0001 C CNN
	1    6900 2100
	1    0    0    -1  
$EndComp
Wire Wire Line
	9200 2700 9200 2000
Wire Wire Line
	9200 2000 7100 2000
Wire Wire Line
	7300 2700 7300 2100
Wire Wire Line
	7300 2100 7100 2100
$Comp
L power:GND #PWR0106
U 1 1 5D33425E
P 7100 2200
F 0 "#PWR0106" H 7100 1950 50  0001 C CNN
F 1 "GND" H 7105 2027 50  0000 C CNN
F 2 "" H 7100 2200 50  0001 C CNN
F 3 "" H 7100 2200 50  0001 C CNN
	1    7100 2200
	1    0    0    -1  
$EndComp
$Comp
L Connector:Conn_01x02_Male J4
U 1 1 5D3343BF
P 7100 2800
F 0 "J4" H 7206 2978 50  0000 C CNN
F 1 "Conn_01x02_Male" H 7206 2887 50  0000 C CNN
F 2 "Connector_PinHeader_2.54mm:PinHeader_1x02_P2.54mm_Vertical" H 7100 2800 50  0001 C CNN
F 3 "~" H 7100 2800 50  0001 C CNN
	1    7100 2800
	1    0    0    -1  
$EndComp
$Comp
L Connector:Conn_01x05_Male J3
U 1 1 5D3344D6
P 6950 4300
F 0 "J3" H 7056 4678 50  0000 C CNN
F 1 "Conn_01x05_Male" H 7056 4587 50  0000 C CNN
F 2 "Connector_PinHeader_2.54mm:PinHeader_1x05_P2.54mm_Vertical" H 6950 4300 50  0001 C CNN
F 3 "~" H 6950 4300 50  0001 C CNN
	1    6950 4300
	1    0    0    -1  
$EndComp
Wire Wire Line
	7150 4100 7300 4100
Wire Wire Line
	7150 4200 7300 4200
Wire Wire Line
	7150 4300 7300 4300
Wire Wire Line
	7150 4400 7300 4400
Wire Wire Line
	7150 4500 7300 4500
$EndSCHEMATC
